{
  "meta": {
    "count": 25,
    "pageCount": 4,
    "totalCount": 88,
    "next": "/wallets/search?page=2&limit=25",
    "previous": null,
    "self": "/wallets/search?page=1&limit=25",
    "first": "/wallets/search?page=1&limit=25",
    "last": "/wallets/search?page=4&limit=25"
  },
  "data": [
    {
      "address": "AbT7Mxbfb7F3WFwY5Go6CT3B51wH1ojaFg",
      "publicKey": "0345166837a634f7acdd392d1a336654e935c64a99eb747204787998dfe1729a27",
      "nonce": "23",
      "balance": "22980132420927",
      "attributes": { "vote": "02630c5942b003b2c4ec184862e4ac41578e0a79777da1332b384d3169f4d5eadd" },
      "isDelegate": false,
      "isResigned": false,
      "vote": "02630c5942b003b2c4ec184862e4ac41578e0a79777da1332b384d3169f4d5eadd"
    },
    {
      "address": "ANXniAM4nATe3guh5BcwmJfCSdBH36YYGV",
      "publicKey": "030a234fe308777c575f084d91bdf1e20e9420eb224059ac7abbc6958d4109117c",
      "nonce": "22",
      "balance": "19169900556973",
      "attributes": { "vote": "02630c5942b003b2c4ec184862e4ac41578e0a79777da1332b384d3169f4d5eadd" },
      "isDelegate": false,
      "isResigned": false,
      "vote": "02630c5942b003b2c4ec184862e4ac41578e0a79777da1332b384d3169f4d5eadd"
    },
    {
      "address": "AYCnZKsP4cMDXGxK47BY1P6fD74EZUwEJL",
      "publicKey": "0200614dffa042a04d111485329520055ada6bfcd37baeaa55c0955152c5d547c9",
      "nonce": "12",
      "balance": "14438068824993",
      "attributes": { "vote": "02630c5942b003b2c4ec184862e4ac41578e0a79777da1332b384d3169f4d5eadd" },
      "isDelegate": false,
      "isResigned": false,
      "vote": "02630c5942b003b2c4ec184862e4ac41578e0a79777da1332b384d3169f4d5eadd"
    },
    {
      "address": "AQPCamfbrF5kD2sqhRt2k1wZuRtLPbhACv",
      "publicKey": "022120fd282676f4ace39b5a6fba06b730c5e8e82046ff60a1803b5db95e790a27",
      "nonce": "18",
      "balance": "11295256881497",
      "attributes": { "vote": "02630c5942b003b2c4ec184862e4ac41578e0a79777da1332b384d3169f4d5eadd" },
      "isDelegate": false,
      "isResigned": false,
      "vote": "02630c5942b003b2c4ec184862e4ac41578e0a79777da1332b384d3169f4d5eadd"
    },
    {
      "address": "ATmeibLNHkT2hWpQKijfQE4WowMwovTZmT",
      "publicKey": "02ce46f6ad5cbe44052c7cf650e7214db06769333f4d5245f2e4c7ff0f87867d7b",
      "nonce": "9",
      "balance": "11225788373257",
      "attributes": { "vote": "02630c5942b003b2c4ec184862e4ac41578e0a79777da1332b384d3169f4d5eadd" },
      "isDelegate": false,
      "isResigned": false,
      "vote": "02630c5942b003b2c4ec184862e4ac41578e0a79777da1332b384d3169f4d5eadd"
    },
    {
      "address": "AZWKtodhYErJRX5iVLZC7nNmKwv483LLNc",
      "publicKey": "03ad99e89b27426408804da9831e79db52d0857d5398ba0a631ed46ef16963b59b",
      "nonce": "17",
      "balance": "7309831129421",
      "attributes": { "vote": "02630c5942b003b2c4ec184862e4ac41578e0a79777da1332b384d3169f4d5eadd" },
      "isDelegate": false,
      "isResigned": false,
      "vote": "02630c5942b003b2c4ec184862e4ac41578e0a79777da1332b384d3169f4d5eadd"
    },
    {
      "address": "AeYqGAF3rtLQKyYVHgrYK2pErgCdKJt2LZ",
      "publicKey": "027162edf9452d50c177052586476702c12b9f69f0c3038f536114ee4b6d985ea3",
      "nonce": "7",
      "balance": "5690279839183",
      "attributes": { "vote": "02630c5942b003b2c4ec184862e4ac41578e0a79777da1332b384d3169f4d5eadd" },
      "isDelegate": false,
      "isResigned": false,
      "vote": "02630c5942b003b2c4ec184862e4ac41578e0a79777da1332b384d3169f4d5eadd"
    },
    {
      "address": "AK8tB9a4ucmHsqFFQiB3ZjjWTovX8honUt",
      "publicKey": "0332562ac084ef5e1b9000a66a20798245ee362210b17f4e68b71c616d1a1ef34c",
      "nonce": "27",
      "balance": "5635825585061",
      "attributes": { "vote": "02630c5942b003b2c4ec184862e4ac41578e0a79777da1332b384d3169f4d5eadd" },
      "isDelegate": false,
      "isResigned": false,
      "vote": "02630c5942b003b2c4ec184862e4ac41578e0a79777da1332b384d3169f4d5eadd"
    },
    {
      "address": "AUL2cK6K3iuFfa2RixREYDj45kdk6NgYmN",
      "publicKey": "03742bf29cfc0156a41ec60dcfb4297f7ac9aa8a5c19c0ffc55063feb897c0a2f6",
      "nonce": "38",
      "balance": "5157893709139",
      "attributes": { "vote": "02630c5942b003b2c4ec184862e4ac41578e0a79777da1332b384d3169f4d5eadd" },
      "isDelegate": false,
      "isResigned": false,
      "vote": "02630c5942b003b2c4ec184862e4ac41578e0a79777da1332b384d3169f4d5eadd"
    },
    {
      "address": "AJqKuGjdtGpsbFdMTXXW5f9dvHDkfhjGic",
      "publicKey": "038c836b6c88ed2705a98aa90debecd0490785c019b1ea3f2884656994e47b8d17",
      "nonce": "69",
      "balance": "3789956053353",
      "attributes": { "vote": "02630c5942b003b2c4ec184862e4ac41578e0a79777da1332b384d3169f4d5eadd" },
      "isDelegate": false,
      "isResigned": false,
      "vote": "02630c5942b003b2c4ec184862e4ac41578e0a79777da1332b384d3169f4d5eadd"
    },
    {
      "address": "Ad1b3QBGD7qquJWq99nugE2sXwyeugxhzP",
      "publicKey": "02c044a62f4d1e6e31b914d41b10f3994f57d43a3a356fb5e006467719beca6376",
      "nonce": "18",
      "balance": "2530092371946",
      "attributes": { "vote": "02630c5942b003b2c4ec184862e4ac41578e0a79777da1332b384d3169f4d5eadd" },
      "isDelegate": false,
      "isResigned": false,
      "vote": "02630c5942b003b2c4ec184862e4ac41578e0a79777da1332b384d3169f4d5eadd"
    },
    {
      "address": "AJioQreHZtHT8o232RXNhkJVzNJx4RAWAG",
      "publicKey": "02b94eef078534c7bd047ba7a065aed8de69b9824a236a8f29b03e7a768ccef842",
      "nonce": "14",
      "balance": "2403090007427",
      "attributes": {
        "secondPublicKey": "034340aa3582cf30be13b356649347b656f719200609ae9a45a0bf8162d3ac20de",
        "vote": "02630c5942b003b2c4ec184862e4ac41578e0a79777da1332b384d3169f4d5eadd"
      },
      "isDelegate": false,
      "isResigned": false,
      "vote": "02630c5942b003b2c4ec184862e4ac41578e0a79777da1332b384d3169f4d5eadd",
      "secondPublicKey": "034340aa3582cf30be13b356649347b656f719200609ae9a45a0bf8162d3ac20de"
    },
    {
      "address": "ATbZfyq24JhWBQNtMpXsrVVCR8qNjhFM4E",
      "publicKey": "025406c01cedb0ab1e16db8a11f3d9ea52428018db8e6d99b92f43417d06905587",
      "nonce": "1",
      "balance": "2196317693080",
      "attributes": { "vote": "02630c5942b003b2c4ec184862e4ac41578e0a79777da1332b384d3169f4d5eadd" },
      "isDelegate": false,
      "isResigned": false,
      "vote": "02630c5942b003b2c4ec184862e4ac41578e0a79777da1332b384d3169f4d5eadd"
    },
    {
      "address": "AdHJPYJCeA31PFdMUuYJuvVqUTzuGfD7G2",
      "publicKey": "027b9de5674a9dab007f18f4cad8bdd0dbdb807d2fcd22ed0c3a8607c9ca250c36",
      "nonce": "11",
      "balance": "2189525791881",
      "attributes": { "vote": "02630c5942b003b2c4ec184862e4ac41578e0a79777da1332b384d3169f4d5eadd" },
      "isDelegate": false,
      "isResigned": false,
      "vote": "02630c5942b003b2c4ec184862e4ac41578e0a79777da1332b384d3169f4d5eadd"
    },
    {
      "address": "AMzfFsqqXjG12gWRtovWynoYrhzSWYmKi3",
      "publicKey": "03c314baafc0f090aefdf74c71b05cdc47287127e712925f93243b023fc87f2112",
      "nonce": "1",
      "balance": "2120565838044",
      "attributes": { "vote": "02630c5942b003b2c4ec184862e4ac41578e0a79777da1332b384d3169f4d5eadd" },
      "isDelegate": false,
      "isResigned": false,
      "vote": "02630c5942b003b2c4ec184862e4ac41578e0a79777da1332b384d3169f4d5eadd"
    },
    {
      "address": "AdQYU2NUSV4yLFEeY18fe9f2h1bBzf2nY8",
      "publicKey": "020b921c99aec9fd702ce59ecdfab5c2dc712608c6b31335b98cf98692c66cc680",
      "nonce": "5",
      "balance": "1826658940155",
      "attributes": { "vote": "02630c5942b003b2c4ec184862e4ac41578e0a79777da1332b384d3169f4d5eadd" },
      "isDelegate": false,
      "isResigned": false,
      "vote": "02630c5942b003b2c4ec184862e4ac41578e0a79777da1332b384d3169f4d5eadd"
    },
    {
      "address": "AUz7Ssb6WiA1K8NyKKcDwGCrsYYRip7hZk",
      "publicKey": "02c52edfaf70b55568f914bdd6ba36efdeb3295063125e9b43337d0281f667f9ac",
      "nonce": "1",
      "balance": "1584160850628",
      "attributes": { "vote": "02630c5942b003b2c4ec184862e4ac41578e0a79777da1332b384d3169f4d5eadd" },
      "isDelegate": false,
      "isResigned": false,
      "vote": "02630c5942b003b2c4ec184862e4ac41578e0a79777da1332b384d3169f4d5eadd"
    },
    {
      "address": "AZWzUpT8RQd9rqRkoCF4eELQcYTBoFAFvh",
      "publicKey": "02544a88634cf2ce197d8600ef11cad11b7ccca329e9643304dc15ed047aca409e",
      "nonce": "16",
      "balance": "1012186710214",
      "attributes": { "vote": "02630c5942b003b2c4ec184862e4ac41578e0a79777da1332b384d3169f4d5eadd" },
      "isDelegate": false,
      "isResigned": false,
      "vote": "02630c5942b003b2c4ec184862e4ac41578e0a79777da1332b384d3169f4d5eadd"
    },
    {
      "address": "APjJqkm5NQWTbGdbFs7cBuYbp9K6JcjCpt",
      "publicKey": "025f6b81ed579bd942a0eac89fa10cce10b286ae3790cf8ed99ced4b903b4d0de9",
      "nonce": "17",
      "balance": "998733040487",
      "attributes": { "vote": "02630c5942b003b2c4ec184862e4ac41578e0a79777da1332b384d3169f4d5eadd" },
      "isDelegate": false,
      "isResigned": false,
      "vote": "02630c5942b003b2c4ec184862e4ac41578e0a79777da1332b384d3169f4d5eadd"
    },
    {
      "address": "ARoc4MNPQpFbQTYfTa4iox64DXkDdJjW2b",
      "publicKey": "021c27f10a93435a80e845d1e052f3ec0f3563bcb850a9d4713ca13837715edd66",
      "nonce": "13",
      "balance": "994979754650",
      "attributes": { "vote": "02630c5942b003b2c4ec184862e4ac41578e0a79777da1332b384d3169f4d5eadd" },
      "isDelegate": false,
      "isResigned": false,
      "vote": "02630c5942b003b2c4ec184862e4ac41578e0a79777da1332b384d3169f4d5eadd"
    },
    {
      "address": "AYYiLkdgosbadc32NVHTST6bYuFDB3spdd",
      "publicKey": "031866b8fe630c5b8bad75d37adf52bd5ed551274a777c1dda3865e6042ab012a8",
      "nonce": "1",
      "balance": "799998883928",
      "attributes": { "vote": "02630c5942b003b2c4ec184862e4ac41578e0a79777da1332b384d3169f4d5eadd" },
      "isDelegate": false,
      "isResigned": false,
      "vote": "02630c5942b003b2c4ec184862e4ac41578e0a79777da1332b384d3169f4d5eadd"
    },
    {
      "address": "AMysuMiyXCaDfPs8nyTNRJrj5eA9bcfEW1",
      "publicKey": "03d54df4e5f754a91b091053075f123cf47937f6d0514717c5a0e1a097509588d9",
      "nonce": "22",
      "balance": "556444359282",
      "attributes": { "vote": "02630c5942b003b2c4ec184862e4ac41578e0a79777da1332b384d3169f4d5eadd" },
      "isDelegate": false,
      "isResigned": false,
      "vote": "02630c5942b003b2c4ec184862e4ac41578e0a79777da1332b384d3169f4d5eadd"
    },
    {
      "address": "AMF1U9CGRFZakf6TNK9xunA4gTXgqkGqU3",
      "publicKey": "0244e085610d9b8c6090d39104d793432c2ab5cf1ecc3235801c31a4efaf7f7e81",
      "nonce": "88",
      "balance": "527003664504",
      "attributes": { "vote": "02630c5942b003b2c4ec184862e4ac41578e0a79777da1332b384d3169f4d5eadd" },
      "isDelegate": false,
      "isResigned": false,
      "vote": "02630c5942b003b2c4ec184862e4ac41578e0a79777da1332b384d3169f4d5eadd"
    },
    {
      "address": "AW1uRWG1J7EKyzCi88dQm1phGqXNWwVnFD",
      "publicKey": "0262030253c71ca8fcf7fd2f36f4c1137060203595b679cb7a2ff491ac716f8e97",
      "nonce": "4",
      "balance": "456748081455",
      "attributes": { "vote": "02630c5942b003b2c4ec184862e4ac41578e0a79777da1332b384d3169f4d5eadd" },
      "isDelegate": false,
      "isResigned": false,
      "vote": "02630c5942b003b2c4ec184862e4ac41578e0a79777da1332b384d3169f4d5eadd"
    },
    {
      "address": "ALNiF92rUGuqVDtphGpg3P2WtH23UXYwew",
      "publicKey": "0246986d56c5d4c1343e8baaa82e2587dbbe1d1e2a9f7da7c4997841875da87403",
      "nonce": "125",
      "balance": "400090973926",
      "attributes": { "vote": "02630c5942b003b2c4ec184862e4ac41578e0a79777da1332b384d3169f4d5eadd" },
      "isDelegate": false,
      "isResigned": false,
      "vote": "02630c5942b003b2c4ec184862e4ac41578e0a79777da1332b384d3169f4d5eadd"
    }
  ]
}
