{"meta":{"totalCountIsEstimate":false,"count":25,"pageCount":3161,"totalCount":79007,"next":"/wallets/ARAq9nhjCxwpWnGKDgxveAJSijNG8Y6dFQ/transactions?orderBy=timestamp%3Adesc&page=2&limit=25&transform=true","previous":null,"self":"/wallets/ARAq9nhjCxwpWnGKDgxveAJSijNG8Y6dFQ/transactions?orderBy=timestamp%3Adesc&page=1&limit=25&transform=true","first":"/wallets/ARAq9nhjCxwpWnGKDgxveAJSijNG8Y6dFQ/transactions?orderBy=timestamp%3Adesc&page=1&limit=25&transform=true","last":"/wallets/ARAq9nhjCxwpWnGKDgxveAJSijNG8Y6dFQ/transactions?orderBy=timestamp%3Adesc&page=3161&limit=25&transform=true"},"data":[{"id":"c2f326dae182e8a3523ac12da38b44790f0bd1a2ccb30e08d3d46cfd6b966e4e","blockId":"fcc4840782577f9a1c762390f2635f7fd705be8b00bda0227cc9780a87db9961","version":2,"type":0,"typeGroup":1,"amount":"836213165","fee":"5000000","sender":"ARAq9nhjCxwpWnGKDgxveAJSijNG8Y6dFQ","senderPublicKey":"02b1d2ea7c265db66087789f571fceb8cc2b2d89e296ad966efb8ed51855f2ae0b","recipient":"AGCHBUa3bkPXZzGHsZePdYAtvXAyPz13ce","signature":"3045022100e71364a0fc063630289c8fd4fc3b9dd39339f798b21c4d97ed540cf20b32923302202c6c9e3931d1cd21892f9702cbac80480dd4288db5231476c85a8beed2273dc5","vendorField":"ArkPool payments","confirmations":4217,"timestamp":{"epoch":103017632,"unix":1593118832,"human":"2020-06-25T21:00:32.000Z"},"nonce":"78994"},{"id":"c5cde5325d367892e605b0168d511ffd0c28391ea98d694428525cdabad7c69c","blockId":"fcc4840782577f9a1c762390f2635f7fd705be8b00bda0227cc9780a87db9961","version":2,"type":0,"typeGroup":1,"amount":"836203468","fee":"5000000","sender":"ARAq9nhjCxwpWnGKDgxveAJSijNG8Y6dFQ","senderPublicKey":"02b1d2ea7c265db66087789f571fceb8cc2b2d89e296ad966efb8ed51855f2ae0b","recipient":"AMXYbNJ5SnivPsP3wac1u7RusP5ue4u3p4","signature":"304502210096dadc19a7054b439ff99197508edc36bbab3d00e5f095250c14693abff14fc102203064b1e7b6a02736b73a4f40752f0fe26635d528072de2bf4d6b040b6145ac81","vendorField":"ArkPool payments","confirmations":4217,"timestamp":{"epoch":103017632,"unix":1593118832,"human":"2020-06-25T21:00:32.000Z"},"nonce":"78993"},{"id":"9255a3f6aa6c08a105a7ec6c7f7120243fa2d349d1829ea4d29de46db67fedf4","blockId":"fcc4840782577f9a1c762390f2635f7fd705be8b00bda0227cc9780a87db9961","version":2,"type":0,"typeGroup":1,"amount":"677929627","fee":"5000000","sender":"ARAq9nhjCxwpWnGKDgxveAJSijNG8Y6dFQ","senderPublicKey":"02b1d2ea7c265db66087789f571fceb8cc2b2d89e296ad966efb8ed51855f2ae0b","recipient":"AcjPsjCrzTEctknDmUkzP3QR6Q91UYGTTx","signature":"3044022039e243a66dfd1641232d8ac9692bbab24430361a30a3fd03100b8c116ba0f8a2022071475f7b6a4c29561542e4b94cbf94690a59de40d8fb9e74ba17d00a61c84317","vendorField":"ArkPool payments","confirmations":4217,"timestamp":{"epoch":103017632,"unix":1593118832,"human":"2020-06-25T21:00:32.000Z"},"nonce":"78992"},{"id":"372c5c104919993dcbf3fba47b3e8fcd0a9125ce10c8a788ecd16648741c6f22","blockId":"fcc4840782577f9a1c762390f2635f7fd705be8b00bda0227cc9780a87db9961","version":2,"type":0,"typeGroup":1,"amount":"621145302","fee":"5000000","sender":"ARAq9nhjCxwpWnGKDgxveAJSijNG8Y6dFQ","senderPublicKey":"02b1d2ea7c265db66087789f571fceb8cc2b2d89e296ad966efb8ed51855f2ae0b","recipient":"ARsAdJZiHJPG5L2aZZAHKFA5biPQioXxJx","signature":"3045022100f2288e5d151f204335f435e1f7d5312a174333b045e4606719250c1b1dd2524b02202d309568bd2262c2932b692a8a665145bbb4048cea6c3b70e9adbc7ac5963d01","vendorField":"ArkPool payments","confirmations":4217,"timestamp":{"epoch":103017632,"unix":1593118832,"human":"2020-06-25T21:00:32.000Z"},"nonce":"78991"},{"id":"1a2b9be6ec30f187fdcedea8baaa650393058998a2c2acddf59366ef8a3c59b7","blockId":"fcc4840782577f9a1c762390f2635f7fd705be8b00bda0227cc9780a87db9961","version":2,"type":0,"typeGroup":1,"amount":"435722035","fee":"5000000","sender":"ARAq9nhjCxwpWnGKDgxveAJSijNG8Y6dFQ","senderPublicKey":"02b1d2ea7c265db66087789f571fceb8cc2b2d89e296ad966efb8ed51855f2ae0b","recipient":"AGR19GXCu1YpSKdDKLeT5KmLSBkG9FVt68","signature":"3045022100c7e0b65d790cd5f849bfd2d6a8a73593dfacbda034de24bccf3a2e875a939f1d022011ba1b0443ce208f780074b6fa077ba5b745893d629a5ad405347f74b90ba91b","vendorField":"ArkPool payments","confirmations":4217,"timestamp":{"epoch":103017632,"unix":1593118832,"human":"2020-06-25T21:00:32.000Z"},"nonce":"78990"},{"id":"5343c2a6b7518a5163152490ad09614965b423964ad8385a0f60a3e9089adc14","blockId":"fcc4840782577f9a1c762390f2635f7fd705be8b00bda0227cc9780a87db9961","version":2,"type":0,"typeGroup":1,"amount":"641115334","fee":"5000000","sender":"ARAq9nhjCxwpWnGKDgxveAJSijNG8Y6dFQ","senderPublicKey":"02b1d2ea7c265db66087789f571fceb8cc2b2d89e296ad966efb8ed51855f2ae0b","recipient":"ALimPJSzGC6CcN1McL7S3Lo5DByVPpvyK9","signature":"30440220655ad950e5e8d1ac51cdfe9ab49be1d91e037fdafef630874d01e742a32bfb5c022033e3b30ae42825febc3460d528e70fc139242237d3524504616498807391f250","vendorField":"ArkPool payments","confirmations":4217,"timestamp":{"epoch":103017632,"unix":1593118832,"human":"2020-06-25T21:00:32.000Z"},"nonce":"78989"},{"id":"907d8c951da41eb290c3dd6795cc57f758e1db65d35a6ffeaef64d294e8dff2d","blockId":"fcc4840782577f9a1c762390f2635f7fd705be8b00bda0227cc9780a87db9961","version":2,"type":0,"typeGroup":1,"amount":"411400602","fee":"5000000","sender":"ARAq9nhjCxwpWnGKDgxveAJSijNG8Y6dFQ","senderPublicKey":"02b1d2ea7c265db66087789f571fceb8cc2b2d89e296ad966efb8ed51855f2ae0b","recipient":"AVjKAtbQPF2cw4T4yfyuEiPou3UkjxQYVK","signature":"3044022008bd2dabb0e11bcbe998a5b91ba3281e4da6212a8bec2a4e5cdbfb161f72cd6002201f159cdab92ff75052ce187a8a900dd605d38fdc1e7aaa1cd7635153efeb28fa","vendorField":"ArkPool payments","confirmations":4217,"timestamp":{"epoch":103017632,"unix":1593118832,"human":"2020-06-25T21:00:32.000Z"},"nonce":"78988"},{"id":"a9fda14a4b5612aa4205e5058d592241fc4f833a3183b239caa7a17e15daf096","blockId":"fcc4840782577f9a1c762390f2635f7fd705be8b00bda0227cc9780a87db9961","version":2,"type":0,"typeGroup":1,"amount":"408696274","fee":"5000000","sender":"ARAq9nhjCxwpWnGKDgxveAJSijNG8Y6dFQ","senderPublicKey":"02b1d2ea7c265db66087789f571fceb8cc2b2d89e296ad966efb8ed51855f2ae0b","recipient":"AecRhSZ2KQxY4x3q2Nq58SBdSbu3vRqsVg","signature":"30440220636d1d1a0f181ee77b15cd94d10c86e7b5a099af23b652a1f3a8d00eefe570dc02200cd1b8fce9b0bb2f83bf3fc7fcd75cd36abf2a6d0995e051b7ccec6a130a173b","vendorField":"ArkPool payments","confirmations":4217,"timestamp":{"epoch":103017632,"unix":1593118832,"human":"2020-06-25T21:00:32.000Z"},"nonce":"78987"},{"id":"b783e2b52ba46bd8f351ee7a7af6aa877ad825ec7bd9a02f143c66ee74f2c641","blockId":"fcc4840782577f9a1c762390f2635f7fd705be8b00bda0227cc9780a87db9961","version":2,"type":0,"typeGroup":1,"amount":"1031277665","fee":"5000000","sender":"ARAq9nhjCxwpWnGKDgxveAJSijNG8Y6dFQ","senderPublicKey":"02b1d2ea7c265db66087789f571fceb8cc2b2d89e296ad966efb8ed51855f2ae0b","recipient":"AZo1W6WnFBFHG71bGx8bRBKTzE2aaz4eyn","signature":"3044022038dc46bdf9336ecb82f3e837d865631cc68a03f3aaa82c9a484af3b8732c76cb02203774b623719864d70fda23481e2ce676e37dbc036b8b9f33e75a6ecc5b95548d","vendorField":"ArkPool payments","confirmations":4217,"timestamp":{"epoch":103017632,"unix":1593118832,"human":"2020-06-25T21:00:32.000Z"},"nonce":"78986"},{"id":"31d8207f15c6f304c61610c8805258f811346db8cdef9f964de50f29d6834ecf","blockId":"fcc4840782577f9a1c762390f2635f7fd705be8b00bda0227cc9780a87db9961","version":2,"type":0,"typeGroup":1,"amount":"450323638","fee":"5000000","sender":"ARAq9nhjCxwpWnGKDgxveAJSijNG8Y6dFQ","senderPublicKey":"02b1d2ea7c265db66087789f571fceb8cc2b2d89e296ad966efb8ed51855f2ae0b","recipient":"ARsDommDwCoHnNNpujtGX6aD8aa6ZeMgrW","signature":"3045022100f2ef17d21f357e77005ed0a240de5aadf1045b00941379039d91130b0bcb78f002203a70ca4db5a407057617f3a6c2d837fba338c7b4efefc9b1a6c67b1c5e545d63","vendorField":"ArkPool payments","confirmations":4217,"timestamp":{"epoch":103017632,"unix":1593118832,"human":"2020-06-25T21:00:32.000Z"},"nonce":"78985"},{"id":"d3da0643baedc86fbebf7c0f0577579031972f565ceda977701600e9459414d3","blockId":"fcc4840782577f9a1c762390f2635f7fd705be8b00bda0227cc9780a87db9961","version":2,"type":0,"typeGroup":1,"amount":"410020728","fee":"5000000","sender":"ARAq9nhjCxwpWnGKDgxveAJSijNG8Y6dFQ","senderPublicKey":"02b1d2ea7c265db66087789f571fceb8cc2b2d89e296ad966efb8ed51855f2ae0b","recipient":"AXWjmJgxvAcC7652hnrEyv72f84KGX1XXk","signature":"304402204b9887bfb3bd59eac63ea66783a420f9e87717af2aafa77ed0f84fb2a8ddae84022045136c81a7f825085eb2c12139440f8ac108fb95148f4c86134f14e402b819f8","vendorField":"ArkPool payments","confirmations":4217,"timestamp":{"epoch":103017632,"unix":1593118832,"human":"2020-06-25T21:00:32.000Z"},"nonce":"78984"},{"id":"a3ee40a6f8ffe1dbff3fcf06f0f72b4055340e47cca6762ce42608fd13b76e90","blockId":"fcc4840782577f9a1c762390f2635f7fd705be8b00bda0227cc9780a87db9961","version":2,"type":0,"typeGroup":1,"amount":"502388635","fee":"5000000","sender":"ARAq9nhjCxwpWnGKDgxveAJSijNG8Y6dFQ","senderPublicKey":"02b1d2ea7c265db66087789f571fceb8cc2b2d89e296ad966efb8ed51855f2ae0b","recipient":"ALgcP4Z5PuJCdUuo663ZABS9Ec3NrYcpch","signature":"3044022079998aae7c293f57ff6bf9f75a5735a021dedeab822285956f05e53ea8fcde8602206b38649d2a5f1763b7eec1a456df2a869544fdb661c5c8c47d5e4d9177fa5806","vendorField":"ArkPool payments","confirmations":4217,"timestamp":{"epoch":103017632,"unix":1593118832,"human":"2020-06-25T21:00:32.000Z"},"nonce":"78983"},{"id":"2d5f3e14fb3510e0ddece9b11bd3b3ca92730b044043c7604117684dad10760a","blockId":"fcc4840782577f9a1c762390f2635f7fd705be8b00bda0227cc9780a87db9961","version":2,"type":0,"typeGroup":1,"amount":"400182768","fee":"5000000","sender":"ARAq9nhjCxwpWnGKDgxveAJSijNG8Y6dFQ","senderPublicKey":"02b1d2ea7c265db66087789f571fceb8cc2b2d89e296ad966efb8ed51855f2ae0b","recipient":"Aexbv11W1B1Sjjs411HvT12BCtUzNCUKiE","signature":"30440220520c5b5a5b4465590204bbe2e42fe7e7f2b453b3792775ca6c5adbd85ff954e4022078e9f0485f9d224d2e5a060f93ea4350534de1f384edae2c74a3fbcb1f70f549","vendorField":"ArkPool payments","confirmations":4217,"timestamp":{"epoch":103017632,"unix":1593118832,"human":"2020-06-25T21:00:32.000Z"},"nonce":"78982"},{"id":"a557b2ef996444b80134db3e91ad21fff81bcdddefdb5e52440024528cf4db76","blockId":"fcc4840782577f9a1c762390f2635f7fd705be8b00bda0227cc9780a87db9961","version":2,"type":0,"typeGroup":1,"amount":"422444893","fee":"5000000","sender":"ARAq9nhjCxwpWnGKDgxveAJSijNG8Y6dFQ","senderPublicKey":"02b1d2ea7c265db66087789f571fceb8cc2b2d89e296ad966efb8ed51855f2ae0b","recipient":"AT46VscFPdAoBRQJetMNDQfYQoyzYZXtBZ","signature":"3045022100c581be1c6a35b466121ef78ac61800024a6f0181dac3ce9c7d74020d95a31ff60220124383a25c809f3bb807263d2af8c02d7a7bd81b8c625c35a070664f93dba67d","vendorField":"ArkPool payments","confirmations":4217,"timestamp":{"epoch":103017632,"unix":1593118832,"human":"2020-06-25T21:00:32.000Z"},"nonce":"78981"},{"id":"f192077362de7a530e0fa5ca190b212cfe81ebf6f4c06235dc91d73192f91b63","blockId":"fcc4840782577f9a1c762390f2635f7fd705be8b00bda0227cc9780a87db9961","version":2,"type":0,"typeGroup":1,"amount":"469447322","fee":"5000000","sender":"ARAq9nhjCxwpWnGKDgxveAJSijNG8Y6dFQ","senderPublicKey":"02b1d2ea7c265db66087789f571fceb8cc2b2d89e296ad966efb8ed51855f2ae0b","recipient":"Ae3cndfJo5gC9Uoo6ajpNSVPkWEhcjbh7W","signature":"30440220139136797b03fc7ac98d2d5dffc8766f557659ea2a42650c1c6cfb6061e02ed3022020b9dae91d6a9de6b8a69e87bb901461d7a743faf2f1c2feec903956c279f8f5","vendorField":"ArkPool payments","confirmations":4217,"timestamp":{"epoch":103017632,"unix":1593118832,"human":"2020-06-25T21:00:32.000Z"},"nonce":"78980"},{"id":"d4cd53a26bdee257c5c601f17fbec9d3fdbc60eb630b9848f37b2f160cdc3a2d","blockId":"fcc4840782577f9a1c762390f2635f7fd705be8b00bda0227cc9780a87db9961","version":2,"type":0,"typeGroup":1,"amount":"411110367","fee":"5000000","sender":"ARAq9nhjCxwpWnGKDgxveAJSijNG8Y6dFQ","senderPublicKey":"02b1d2ea7c265db66087789f571fceb8cc2b2d89e296ad966efb8ed51855f2ae0b","recipient":"AdbUPjj7VaWoTDrxvqtJkJSd3MrvrmciEo","signature":"304402204509e29434844901f64c339343a4fc13b45fc968c34940a8b1dbf157a1a4b5b202204531ae73a94bf637e4af07f05237553980119b35bb7b747a6b27dad841b54277","vendorField":"ArkPool payments","confirmations":4217,"timestamp":{"epoch":103017632,"unix":1593118832,"human":"2020-06-25T21:00:32.000Z"},"nonce":"78979"},{"id":"1f35275faaa23a3d128172fc6a2604402c5a22d7bdccaf5c410585bca589a6db","blockId":"fcc4840782577f9a1c762390f2635f7fd705be8b00bda0227cc9780a87db9961","version":2,"type":0,"typeGroup":1,"amount":"402388503","fee":"5000000","sender":"ARAq9nhjCxwpWnGKDgxveAJSijNG8Y6dFQ","senderPublicKey":"02b1d2ea7c265db66087789f571fceb8cc2b2d89e296ad966efb8ed51855f2ae0b","recipient":"AM8dRpA66v5CcUUhXUbbhwL558cFbbcAZH","signature":"304402200975d080df3c180c322934320594ff2d35fb955a80dfae4d4f3448c56c471d6402202d70c9bfa940fed74bfebeb41e31f9dd40ca6739a3151784e4c8490504fae191","vendorField":"ArkPool payments","confirmations":4217,"timestamp":{"epoch":103017632,"unix":1593118832,"human":"2020-06-25T21:00:32.000Z"},"nonce":"78978"},{"id":"dee9b5bf6bd1e738951aeeee1fa8cd573b470d1d822a12af045aebd810fc97ea","blockId":"fcc4840782577f9a1c762390f2635f7fd705be8b00bda0227cc9780a87db9961","version":2,"type":0,"typeGroup":1,"amount":"447532244","fee":"5000000","sender":"ARAq9nhjCxwpWnGKDgxveAJSijNG8Y6dFQ","senderPublicKey":"02b1d2ea7c265db66087789f571fceb8cc2b2d89e296ad966efb8ed51855f2ae0b","recipient":"AbMKsFFL69YPh9ujjtGy3orgmHb9ACQD8v","signature":"3045022100b887eceac76e012a291495b6d4fd25bbf84862fea57cf9a13a23b703a44f7654022049455b6d8e7c1ee798404279c9e7dabfcbfcadae7f723588a287d05c45bbe642","vendorField":"ArkPool payments","confirmations":4217,"timestamp":{"epoch":103017632,"unix":1593118832,"human":"2020-06-25T21:00:32.000Z"},"nonce":"78977"},{"id":"9a499f08544705ffe95249d361a7c6629d0cd368b8cfbdd278c5cb1775171ce9","blockId":"fcc4840782577f9a1c762390f2635f7fd705be8b00bda0227cc9780a87db9961","version":2,"type":0,"typeGroup":1,"amount":"406773511","fee":"5000000","sender":"ARAq9nhjCxwpWnGKDgxveAJSijNG8Y6dFQ","senderPublicKey":"02b1d2ea7c265db66087789f571fceb8cc2b2d89e296ad966efb8ed51855f2ae0b","recipient":"AHAVULTY6H9AegjVdkytMvgYEncTMywNZg","signature":"30450221008de4d26e7750c2d77f0a9bd8416086e78f1b4ea170bf42bb22ab40f0b2a380bd022048a6d93eb8f08944d3336ac8f5fbfdae74ddeb884e604425932e58c66597d0c0","vendorField":"ArkPool payments","confirmations":4217,"timestamp":{"epoch":103017632,"unix":1593118832,"human":"2020-06-25T21:00:32.000Z"},"nonce":"78976"},{"id":"803fe68596d83e4f0a4ccce248b63a4c3621f0d29cd16c801d6573ac78d26aa8","blockId":"fcc4840782577f9a1c762390f2635f7fd705be8b00bda0227cc9780a87db9961","version":2,"type":0,"typeGroup":1,"amount":"407987702","fee":"5000000","sender":"ARAq9nhjCxwpWnGKDgxveAJSijNG8Y6dFQ","senderPublicKey":"02b1d2ea7c265db66087789f571fceb8cc2b2d89e296ad966efb8ed51855f2ae0b","recipient":"AWn3uJ2oFJV3u5PAWA9VXHYzuoLZpqPeMy","signature":"3045022100dc6a4376d519add32d25d5af5c5fa259c5229e81219ee1c60d3b05cf42cceec0022029c9bd3e2d0cf60ea44b483ff91f52052a1b3cc0f65f610858be5d10b9477e48","vendorField":"ArkPool payments","confirmations":4217,"timestamp":{"epoch":103017632,"unix":1593118832,"human":"2020-06-25T21:00:32.000Z"},"nonce":"78975"},{"id":"834b37d348fef18751c86985d8d4ad00586edb3b956c6505e34ce4a53b3e3f1e","blockId":"fcc4840782577f9a1c762390f2635f7fd705be8b00bda0227cc9780a87db9961","version":2,"type":0,"typeGroup":1,"amount":"778955758","fee":"5000000","sender":"ARAq9nhjCxwpWnGKDgxveAJSijNG8Y6dFQ","senderPublicKey":"02b1d2ea7c265db66087789f571fceb8cc2b2d89e296ad966efb8ed51855f2ae0b","recipient":"AZ613mTkthTP7i91maV3VmBU6WYPSuUevr","signature":"3045022100b7456326143cee4091767896f3e770a0d3209f1fbcbf35bd26d8393f980d9806022018dab73d4109b9e6594243b5af6043c7d9e9c8b05e4148291458994917e7c8c6","vendorField":"ArkPool payments","confirmations":4217,"timestamp":{"epoch":103017632,"unix":1593118832,"human":"2020-06-25T21:00:32.000Z"},"nonce":"78974"},{"id":"87fbecf2e41f5f4513d7f5560f56371dc9c051499c140ad0e1572d3b3cd2c3ab","blockId":"fcc4840782577f9a1c762390f2635f7fd705be8b00bda0227cc9780a87db9961","version":2,"type":0,"typeGroup":1,"amount":"412482305","fee":"5000000","sender":"ARAq9nhjCxwpWnGKDgxveAJSijNG8Y6dFQ","senderPublicKey":"02b1d2ea7c265db66087789f571fceb8cc2b2d89e296ad966efb8ed51855f2ae0b","recipient":"AGQ8mmwW26Tr5qeDJuWvkznQT2rDLtYtTc","signature":"304402205be0d0b2010dd120806b26695e11eb9155a60ded7abef7608de14ebe54138fcb0220051240bcad4200a276dc348dba28236d4328d2f4917f2bc2294e0a97e7d24162","vendorField":"ArkPool payments","confirmations":4217,"timestamp":{"epoch":103017632,"unix":1593118832,"human":"2020-06-25T21:00:32.000Z"},"nonce":"78973"},{"id":"f74caaf92af5003759deb2a07fd30c7d0092a2f5348f1d58baf5fd917fc9d74c","blockId":"fcc4840782577f9a1c762390f2635f7fd705be8b00bda0227cc9780a87db9961","version":2,"type":0,"typeGroup":1,"amount":"511164820","fee":"5000000","sender":"ARAq9nhjCxwpWnGKDgxveAJSijNG8Y6dFQ","senderPublicKey":"02b1d2ea7c265db66087789f571fceb8cc2b2d89e296ad966efb8ed51855f2ae0b","recipient":"AHDF67fSHopj7tQGzy8vyxQmYpWaqZ4Rth","signature":"304402207fcfdffe4bc3a6e94db5392d4c46f45feecf077cba778c1fbd55b1a193e747f80220518b97de373ab8a0bb08363e9aacaf04fc2fcdf8b6ee7d9f9694e18d750f6509","vendorField":"ArkPool payments","confirmations":4217,"timestamp":{"epoch":103017632,"unix":1593118832,"human":"2020-06-25T21:00:32.000Z"},"nonce":"78972"},{"id":"ba97f8651196c653f8dcab4ab4fcf0499044a21362a8f74cc126e643f698b1a0","blockId":"fcc4840782577f9a1c762390f2635f7fd705be8b00bda0227cc9780a87db9961","version":2,"type":0,"typeGroup":1,"amount":"1094997458","fee":"5000000","sender":"ARAq9nhjCxwpWnGKDgxveAJSijNG8Y6dFQ","senderPublicKey":"02b1d2ea7c265db66087789f571fceb8cc2b2d89e296ad966efb8ed51855f2ae0b","recipient":"AdNYKkZYawQ4b1Yd8gW9M2P86aDeg726NT","signature":"30450221009036aa2337f5c287c0fc707d4626ed83e22662e5d997b94907a06c81cf576a31022017f494426f602f6e219e76c2fe1a2c0b4a380c8884d97a9cd6d48559175387de","vendorField":"ArkPool payments","confirmations":4217,"timestamp":{"epoch":103017632,"unix":1593118832,"human":"2020-06-25T21:00:32.000Z"},"nonce":"78971"},{"id":"0d79605ec8681f0833c8b4bb11b08e599d69d6cb283312248547da525d520f9c","blockId":"fcc4840782577f9a1c762390f2635f7fd705be8b00bda0227cc9780a87db9961","version":2,"type":0,"typeGroup":1,"amount":"404722769","fee":"5000000","sender":"ARAq9nhjCxwpWnGKDgxveAJSijNG8Y6dFQ","senderPublicKey":"02b1d2ea7c265db66087789f571fceb8cc2b2d89e296ad966efb8ed51855f2ae0b","recipient":"AWNGw4SGja69W4c6xVv8VZatwmtSzsw5Qc","signature":"30450221009e0df616222c835aa4eef11840a0ba41144a520e4818dce8949f232aece84f5002200b5cc30413a7378e04adc18bfe3c841225b283a70ff5eebc64c7138f167efe02","vendorField":"ArkPool payments","confirmations":4217,"timestamp":{"epoch":103017632,"unix":1593118832,"human":"2020-06-25T21:00:32.000Z"},"nonce":"78970"}]}
