{
  "meta": {
    "totalCountIsEstimate": false,
    "count": 1,
    "pageCount": 5,
    "totalCount": 5,
    "next": "/transactions?senderId=AZANaDAUUway2fka8hgobBaSQXkRx1ciAy&limit=1&transform=true&page=2",
    "previous": null,
    "self": "/transactions?senderId=AZANaDAUUway2fka8hgobBaSQXkRx1ciAy&limit=1&transform=true&page=1",
    "first": "/transactions?senderId=AZANaDAUUway2fka8hgobBaSQXkRx1ciAy&limit=1&transform=true&page=1",
    "last": "/transactions?senderId=AZANaDAUUway2fka8hgobBaSQXkRx1ciAy&limit=1&transform=true&page=5"
  },
  "data": [
    {
      "id": "67d9d5e36177adc18af7e9de2263530e54b29997f7f1c2ae27fec61ff2a231f5",
      "blockId": "5ccb66132a7917266c9285922d09eb4d0873a68019616c83e5631fe4215616a6",
      "version": 2,
      "type": 0,
      "typeGroup": 1,
      "amount": "1",
      "fee": "5000000",
      "sender": "AZANaDAUUway2fka8hgobBaSQXkRx1ciAy",
      "senderPublicKey": "03c6f8546a296ad828f64b4cc0e343acf93012717b6297dd33208912553be869c9",
      "recipient": "AM7Cwhktq4REEXg1XhqftzziAh8ghTxD2X",
      "signature": "88a37bcda8ad987132667199b5d385f4528c64fa89f2a759533fc79a348100525d1441724389b41fd2030cf4530725e285b0921a4a402211ff90f109e7868d54",
      "vendorField": "Are you enjoying dated's awesome DCF platform? Oh, wait.",
      "confirmations": 678444,
      "timestamp": { "epoch": 97624432, "unix": 1587725632, "human": "2020-04-24T10:53:52.000Z" },
      "nonce": "5"
    }
  ]
}
