
{"meta":{"count":37,"pageCount":12,"totalCount":1137,"next":null,"previous":"/delegates?page=11&limit=100","self":"/delegates?page=12&limit=100","first":"/delegates?page=1&limit=100","last":"/delegates?page=12&limit=100"},"data":[{"username":"kanan900","address":"ARiSRCYadU5VzcXvkbSX9EDYi1FP2UkkNu","publicKey":"03f103cddd22f0a02a5b2b6159a0a7b2276f1ddbd4da4252d6737493980d2d71a0","votes":"0","rank":1101,"isResigned":false,"blocks":{"produced":0},"production":{"approval":0},"forged":{"fees":"0","rewards":"0","total":"0"}},{"username":"genesis_44","address":"AYLTbdiYWHvPvJo5Lh42MEVS4Fnepg5vgc","publicKey":"03f11ddeca3845ea59c82120a7eca68558c99e4e7d373142ea0554408c58ca82be","votes":"0","rank":1102,"isResigned":false,"blocks":{"produced":14,"last":{"id":"8157269661769864910","height":698,"timestamp":{"epoch":16224,"unix":1490117424,"human":"2017-03-21T17:30:24.000Z"}}},"production":{"approval":0},"forged":{"fees":"2500000000","rewards":"0","total":"2500000000"}},{"username":"ma","address":"AdDp1Yv7TnSxSfTzCArheFWTknGEStBBar","publicKey":"03f157c647f1d36ba5eaca2104926383ddf728bcab62b29505788248df2cf68225","votes":"0","rank":1103,"isResigned":false,"blocks":{"produced":0},"production":{"approval":0},"forged":{"fees":"0","rewards":"0","total":"0"}},{"username":"iot","address":"AQefeYc4uRffHc9HefzqKrNwRiwbAMYBc2","publicKey":"03f2aba59eedcd15b8f27425e4b99974c83f6a5367c5190e57663b8dd4e6696e76","votes":"0","rank":1104,"isResigned":false,"blocks":{"produced":0},"production":{"approval":0},"forged":{"fees":"0","rewards":"0","total":"0"}},{"username":"sun","address":"Af72UnEzYw1x3vLC6NX7V5aXBSPSrxxHou","publicKey":"03f3c4a5b465915ff13c0287ba46f50a97c736084d230903b3dfdc886eddd568d7","votes":"0","rank":1105,"isResigned":false,"blocks":{"produced":0},"production":{"approval":0},"forged":{"fees":"0","rewards":"0","total":"0"}},{"username":"arkminers","address":"Ad5KLz71iNDxrT7d6P5mF6wcjeFR1atJrA","publicKey":"03f42ccf990c8b462ca668d380f3f55353cdd34a7c4c2f34a23d1edffe89eee788","votes":"0","rank":1106,"isResigned":false,"blocks":{"produced":0},"production":{"approval":0},"forged":{"fees":"0","rewards":"0","total":"0"}},{"username":"kbank1787","address":"ALBnbHy45Vemqg2NHkq6FqveEtWeMu2SLY","publicKey":"03f439905bf4da2c40b5314a11eb71fb122cb83f0193e100ed9e4e27cd31b9c33c","votes":"0","rank":1107,"isResigned":false,"blocks":{"produced":0},"production":{"approval":0},"forged":{"fees":"0","rewards":"0","total":"0"}},{"username":"bip39here","address":"AT1Du3heANNAJgsEgFs7yrvHdEKSQkpzAD","publicKey":"03f45617f633b9697f1df9df024841014836af967fc3ccf2404f3fe0b768088e98","votes":"0","rank":1108,"isResigned":false,"blocks":{"produced":0},"production":{"approval":0},"forged":{"fees":"0","rewards":"0","total":"0"}},{"username":"redditor","address":"ARkYxzWDEs5KUW2KbH3VBjSgXP64JzNZRj","publicKey":"03f4b7965745212ae441af393ed0b993159cea5e601cba863315757ce62b4bb04a","votes":"0","rank":1109,"isResigned":false,"blocks":{"produced":0},"production":{"approval":0},"forged":{"fees":"0","rewards":"0","total":"0"}},{"username":"mhmtyy","address":"AVRbKzThxWo9V2diBWdMKoMU8s4j8TCxUL","publicKey":"03f5410a6927e9e9d017792522c2cfaa5582f9d370d410f115c6e51138408a0d9b","votes":"0","rank":1110,"isResigned":false,"blocks":{"produced":0},"production":{"approval":0},"forged":{"fees":"0","rewards":"0","total":"0"}},{"username":"amazon","address":"AMAZoNaYyXythYL33RimY3fzC69wUGdYyK","publicKey":"03f566a8ca539d8a93d043493e0ced80c0ab46140fbbec1d94a676b1ace1e4cb66","votes":"0","rank":1111,"isResigned":false,"blocks":{"produced":0},"production":{"approval":0},"forged":{"fees":"0","rewards":"0","total":"0"}},{"username":"oompaloompa","address":"APdsoAykPah3efkf2jkJhgKEVynYFj83TZ","publicKey":"03f5740214ea0c25e011c44af9c9aa1443d55edbbc9ff5456333b19a4dab13401e","votes":"0","rank":1112,"isResigned":false,"blocks":{"produced":0},"production":{"approval":0},"forged":{"fees":"0","rewards":"0","total":"0"}},{"username":"alexbarnsley","address":"ALEXV4wXDFJDQHw4niTQnSHrYiNWgYcLZT","publicKey":"03f59c84b492b6c27a4e883a505eb8ba6b7e4b1d7d09c4cb78b89909f5077509da","votes":"0","rank":1113,"isResigned":false,"blocks":{"produced":0},"production":{"approval":0},"forged":{"fees":"0","rewards":"0","total":"0"}},{"username":"vikki","address":"ALASbzjgPsifhEEFejqEAcRncMVavFDFfm","publicKey":"03f64c1f775a6097cb64321a4d1f93ac4cdbdb5e59bbad057f9a1b4f8174a2cd50","votes":"0","rank":1114,"isResigned":false,"blocks":{"produced":0},"production":{"approval":0},"forged":{"fees":"0","rewards":"0","total":"0"}},{"username":"vhch","address":"AamVJ16uYgefHskZUYw9iSWfLAEgAYBbrs","publicKey":"03f7225f3d1d484ae39361a0b967ffa043d8aefc3806a9c56064b8c7f5a6a40c8b","votes":"0","rank":1115,"isResigned":false,"blocks":{"produced":0},"production":{"approval":0},"forged":{"fees":"0","rewards":"0","total":"0"}},{"username":"market","address":"AXVFVnWEjDtDL1bzwPD4HKPZL435bjNaYu","publicKey":"03f781f98eb403e9245b9d7d83a944d76af7d74a701e3f9cd1d02c7097f5a6bfa4","votes":"0","rank":1116,"isResigned":false,"blocks":{"produced":0},"production":{"approval":0},"forged":{"fees":"0","rewards":"0","total":"0"}},{"username":"szechmy","address":"AT6ZY6eREWMqjUXb8Zxwqgp2V4JtisPhGt","publicKey":"03f791041ae689f8ea4324609d18daa3383b59b89f0bf3f0a976a97d27bb458d3e","votes":"0","rank":1117,"isResigned":false,"blocks":{"produced":0},"production":{"approval":0},"forged":{"fees":"0","rewards":"0","total":"0"}},{"username":"casino","address":"Acasino31SpsnB5wbQKk3ikzLAP7B3HspB","publicKey":"03f870c68210bc9e5e81f3bd6d43905c66554ad07e901467f97382402ab6fe5d0a","votes":"0","rank":1118,"isResigned":false,"blocks":{"produced":0},"production":{"approval":0},"forged":{"fees":"0","rewards":"0","total":"0"}},{"username":"tigger","address":"AWQR8edNipNBrcteJ2sgva5yq9Arsg3utW","publicKey":"03f9bc469a024d9fd68b538c8cef0b9e08b09b76252f0e091f85b8fa66d8aa8326","votes":"0","rank":1119,"isResigned":false,"blocks":{"produced":0},"production":{"approval":0},"forged":{"fees":"0","rewards":"0","total":"0"}},{"username":"4m8b","address":"AMZ2RS7zQNrkwL9QBpaz33SEdFUtx9Qn5P","publicKey":"03fa0c9fd6740c283bde6e139557742d7ebc3a18b28f8cb54157d9246751449f11","votes":"0","rank":1120,"isResigned":false,"blocks":{"produced":0},"production":{"approval":0},"forged":{"fees":"0","rewards":"0","total":"0"}},{"username":"ash","address":"AeVwsczRnYymGQBMsAVt9gRLVneKBwxFbb","publicKey":"03fa47dc7fd5783c28ed6b623d312c7889250b469b6318f0e1b1dd4b41ba5a8ca7","votes":"0","rank":1121,"isResigned":false,"blocks":{"produced":0},"production":{"approval":0},"forged":{"fees":"0","rewards":"0","total":"0"}},{"username":"sockpuppet","address":"AKKY7vSi1xReJxmMMwpST3quHCMJSe53ge","publicKey":"03fa79462af9051e2d7656369b3916d095fc0b060af79a6c7d5b5ad66119c7a34d","votes":"0","rank":1122,"isResigned":false,"blocks":{"produced":183,"last":{"id":"7003673718839898349","height":12085,"timestamp":{"epoch":122120,"unix":1490223320,"human":"2017-03-22T22:55:20.000Z"}}},"production":{"approval":0},"forged":{"fees":"2930000000","rewards":"0","total":"2930000000"}},{"username":"moonshine","address":"AXp9K5v4KZuebWM3xatFnnL956Lg4YPMZB","publicKey":"03fae1f75a0f8637f0587ba199c88176a64520d4cfb710d6be0f8988b75226f086","votes":"0","rank":1123,"isResigned":false,"blocks":{"produced":0},"production":{"approval":0},"forged":{"fees":"0","rewards":"0","total":"0"}},{"username":"luxury","address":"AVJU4ceASws3RBes3HacVZ81Bz9BJGZ8K7","publicKey":"03fc89350c63472b98f08a59d785e89a7e233c05a7cb8db3776c194c9e61bff758","votes":"0","rank":1124,"isResigned":false,"blocks":{"produced":0},"production":{"approval":0},"forged":{"fees":"0","rewards":"0","total":"0"}},{"username":"bun","address":"AVj7U2rRAd3UvNxpXf617tLQ8tjk7WenZ6","publicKey":"03fd9983f3c80f35d8d824cc087a3815ff928c50a5fb89a5b2ebf8a471c30c73a8","votes":"0","rank":1125,"isResigned":false,"blocks":{"produced":0},"production":{"approval":0},"forged":{"fees":"0","rewards":"0","total":"0"}},{"username":"arse","address":"ARSEvGvPagn7CUos2gQjWsnBTbJbfHCmFZ","publicKey":"03fe2a7a04aae0027cd7b7645c3a78013f3826f8227b43a51a88f1b10bbe0685ba","votes":"0","rank":1126,"isResigned":false,"blocks":{"produced":0},"production":{"approval":0},"forged":{"fees":"0","rewards":"0","total":"0"}},{"username":"ingriday","address":"AZm9srVLXeJ2QuKoynJXejf7BpoQZdrYvB","publicKey":"03fe5213eb58fabf6bc44bc8fc395112914184fb9de30ef8c4092696276327ec35","votes":"0","rank":1127,"isResigned":false,"blocks":{"produced":0},"production":{"approval":0},"forged":{"fees":"0","rewards":"0","total":"0"}},{"username":"98percentshare_pool","address":"AK6K5fJy28FRmRD4rUx32DPFtQGBoYhjUQ","publicKey":"03fe739a718ad51836fd1514834e0e4f122828d06310f5af93c0f87e77b676d2b9","votes":"0","rank":1128,"isResigned":false,"blocks":{"produced":0},"production":{"approval":0},"forged":{"fees":"0","rewards":"0","total":"0"}},{"username":"combatvetsworldwide","address":"AWVRAL9Giyskyq3L4psYDDDjLuAJnGy69F","publicKey":"03ffadb1a9254228e5b754f1b45de20b602c70e865ba644feb8ca36a68447e69f1","votes":"0","rank":1129,"isResigned":false,"blocks":{"produced":0},"production":{"approval":0},"forged":{"fees":"0","rewards":"0","total":"0"}},{"username":"chris","address":"ASJBHz4JfWVUGDyN61hMMnW1Y4ZCTBHL1K","publicKey":"027acdf24b004a7b1e6be2adf746e3233ce034dbb7e83d4a900f367efc4abd0f21","votes":"4746221482186","isResigned":true,"blocks":{"produced":111612,"last":{"id":"10761694218666521092","height":6536611,"timestamp":{"epoch":53322728,"unix":1543423928,"human":"2018-11-28T16:52:08.000Z"}}},"production":{"approval":0.03},"forged":{"fees":"307700000000","rewards":"22322400000000","total":"22630100000000"}},{"username":"pieface","address":"AZzmCRP3Us7q4Pbyu3qCr2Dwq8vvuseLKa","publicKey":"026b87a3ad1c13adfc4256f5365f5e6251693a27b2293676db14690efce5acae6e","votes":"20326711068997","isResigned":true,"blocks":{"produced":200299,"last":{"id":"22cf70244bac5ffefe5b6770634a008b2a95a4297925d532ea1f7e5ab6890772","height":11379911,"timestamp":{"epoch":92210744,"unix":1582311944,"human":"2020-02-21T19:05:44.000Z"}}},"production":{"approval":0.14},"forged":{"fees":"361162566531","rewards":"40059800000000","total":"40420962566531"}},{"username":"arkx","address":"AdVSe37niA3uFUPgCgMUH2tMsHF4LpLoiX","publicKey":"032fcfd19f0e095bf46bd3ada87e283720c405249b1be1a70bad1d5f20095a8515","votes":"19397945639235","isResigned":true,"blocks":{"produced":179787,"last":{"id":"aedf322de50d9f7155305ea9f9b19c1761cd817c01a77e911d8d4b6035eb9e3b","height":11059204,"timestamp":{"epoch":89628760,"unix":1579729960,"human":"2020-01-22T21:52:40.000Z"}}},"production":{"approval":0.13},"forged":{"fees":"740502976706","rewards":"35957400000000","total":"36697902976706"}},{"username":"robots","address":"AG5kpCBUZWNFyNzE9erAEKfmfxvtwAxGFA","publicKey":"02cdbf76dc6572c0b97d0ef82ff293861e4cdd191cf3553fbcf48ce0cdde724bd5","votes":"0","isResigned":true,"blocks":{"produced":0},"production":{"approval":0},"forged":{"fees":"0","rewards":"0","total":"0"}},{"username":"bots","address":"ALuNgQtjjKFN4gYnr96eSXrLW6JERGcueR","publicKey":"03166432e2a13d017588629b712db978d4cc220c4a2c106000ccdb8edb2c1afe29","votes":"0","isResigned":true,"blocks":{"produced":0},"production":{"approval":0},"forged":{"fees":"0","rewards":"0","total":"0"}},{"username":"royalties","address":"AbChHc8CQpyWLj5PygyPPkFC7i6kV4FeQc","publicKey":"0216c351be32d835ac3f10c0b95365d9d4d69fc2d74a95b0808a3faafdf714cb7b","votes":"0","isResigned":true,"blocks":{"produced":0},"production":{"approval":0},"forged":{"fees":"0","rewards":"0","total":"0"}},{"username":"explorer","address":"AevaHxyGXCRjy1ZtYLN6YhGb68niNqpBsH","publicKey":"030d6fe4ec314be1667e18f4e82a6a4503e6a3ffb5b11f49e33c4903b694992718","votes":"0","isResigned":true,"blocks":{"produced":0},"production":{"approval":0},"forged":{"fees":"0","rewards":"0","total":"0"}},{"username":"member","address":"AazHWJZA8Bgebdhdpt955nosNsu8dZYtsq","publicKey":"025d8b81a6afdda0c16c13528a7652556a97f884a0ed732c8afa298dbea8a05896","votes":"5372621702","isResigned":true,"blocks":{"produced":0},"production":{"approval":0},"forged":{"fees":"0","rewards":"0","total":"0"}}]}
