{
  "meta": {
    "totalCountIsEstimate": false,
    "count": 1,
    "pageCount": 205,
    "totalCount": 205,
    "next": "/transactions?recipientId=ARAq9nhjCxwpWnGKDgxveAJSijNG8Y6dFQ&limit=1&transform=true&page=2",
    "previous": null,
    "self": "/transactions?recipientId=ARAq9nhjCxwpWnGKDgxveAJSijNG8Y6dFQ&limit=1&transform=true&page=1",
    "first": "/transactions?recipientId=ARAq9nhjCxwpWnGKDgxveAJSijNG8Y6dFQ&limit=1&transform=true&page=1",
    "last": "/transactions?recipientId=ARAq9nhjCxwpWnGKDgxveAJSijNG8Y6dFQ&limit=1&transform=true&page=205"
  },
  "data": [
    {
      "id": "18405f2bb1786f4067c0b764d72d412818f3698c426949452662cf577455da87",
      "blockId": "9953f00dc06039b57799784f8b5d11e05706d8a4724fa9aa4bae9339bc706544",
      "version": 2,
      "type": 0,
      "typeGroup": 1,
      "amount": "424606311",
      "fee": "5000000",
      "sender": "ARAq9nhjCxwpWnGKDgxveAJSijNG8Y6dFQ",
      "senderPublicKey": "02b1d2ea7c265db66087789f571fceb8cc2b2d89e296ad966efb8ed51855f2ae0b",
      "recipient": "ARAq9nhjCxwpWnGKDgxveAJSijNG8Y6dFQ",
      "signature": "3045022100db31a701a854823f74e44d9006353057a7a596960fae8212744ffd60dab7421402205e1b9df9e2fdb28d1d9b453aa6be8f91d1e0808cdc28d09ef380934c0342b779",
      "vendorField": "ArkPool payments",
      "confirmations": 85223,
      "timestamp": { "epoch": 102369600, "unix": 1592470800, "human": "2020-06-18T09:00:00.000Z" },
      "nonce": "78417"
    }
  ]
}
