{
  "meta": {
    "totalCountIsEstimate": false,
    "count": 1,
    "pageCount": 78994,
    "totalCount": 78994,
    "next": "/transactions?senderId=ARAq9nhjCxwpWnGKDgxveAJSijNG8Y6dFQ&limit=1&transform=true&page=2",
    "previous": null,
    "self": "/transactions?senderId=ARAq9nhjCxwpWnGKDgxveAJSijNG8Y6dFQ&limit=1&transform=true&page=1",
    "first": "/transactions?senderId=ARAq9nhjCxwpWnGKDgxveAJSijNG8Y6dFQ&limit=1&transform=true&page=1",
    "last": "/transactions?senderId=ARAq9nhjCxwpWnGKDgxveAJSijNG8Y6dFQ&limit=1&transform=true&page=78994"
  },
  "data": [
    {
      "id": "c2f326dae182e8a3523ac12da38b44790f0bd1a2ccb30e08d3d46cfd6b966e4e",
      "blockId": "fcc4840782577f9a1c762390f2635f7fd705be8b00bda0227cc9780a87db9961",
      "version": 2,
      "type": 0,
      "typeGroup": 1,
      "amount": "836213165",
      "fee": "5000000",
      "sender": "ARAq9nhjCxwpWnGKDgxveAJSijNG8Y6dFQ",
      "senderPublicKey": "02b1d2ea7c265db66087789f571fceb8cc2b2d89e296ad966efb8ed51855f2ae0b",
      "recipient": "AGCHBUa3bkPXZzGHsZePdYAtvXAyPz13ce",
      "signature": "3045022100e71364a0fc063630289c8fd4fc3b9dd39339f798b21c4d97ed540cf20b32923302202c6c9e3931d1cd21892f9702cbac80480dd4288db5231476c85a8beed2273dc5",
      "vendorField": "ArkPool payments",
      "confirmations": 4226,
      "timestamp": { "epoch": 103017632, "unix": 1593118832, "human": "2020-06-25T21:00:32.000Z" },
      "nonce": "78994"
    }
  ]
}
