{
  "meta": {
    "totalCountIsEstimate": false,
    "count": 25,
    "pageCount": 29,
    "totalCount": 722,
    "next": "/wallets/AYCTHSZionfGoQsRnv5gECEuFWcZXS38gs/transactions?orderBy=timestamp%3Adesc&page=2&limit=25&transform=true",
    "previous": null,
    "self": "/wallets/AYCTHSZionfGoQsRnv5gECEuFWcZXS38gs/transactions?orderBy=timestamp%3Adesc&page=1&limit=25&transform=true",
    "first": "/wallets/AYCTHSZionfGoQsRnv5gECEuFWcZXS38gs/transactions?orderBy=timestamp%3Adesc&page=1&limit=25&transform=true",
    "last": "/wallets/AYCTHSZionfGoQsRnv5gECEuFWcZXS38gs/transactions?orderBy=timestamp%3Adesc&page=29&limit=25&transform=true"
  },
  "data": [
    {
      "id": "24529bb6cb7afdcdf180ad264af5736c58df4dafd0b9c5e9fe8ad22d88cda3eb",
      "blockId": "fe9b6df4dcfd0597f8ee69666221e1357872c2806e21134937d31fcee4d652b0",
      "version": 2,
      "type": 0,
      "typeGroup": 1,
      "amount": "250000000000",
      "fee": "2895658",
      "sender": "AYCTHSZionfGoQsRnv5gECEuFWcZXS38gs",
      "senderPublicKey": "0359707719b3504eb1ed2980eba034fd4fdf68cfc037756e9aad705d755a45a678",
      "recipient": "ASoZ8CUpZDJxCkUfMGpUgjkG6rDoDoVMmp",
      "signature": "0b381c03041f54e197a3bd1633c8c25e0fda60aea84292a3cd238a5639b9c8116504122dfcfdbe6a774bc97094fc02de62b9a3162c47a3382cf7397d90fb1b07",
      "confirmations": 117249,
      "timestamp": { "epoch": 102112584, "unix": 1592213784, "human": "2020-06-15T09:36:24.000Z" },
      "nonce": "711"
    },
    {
      "id": "3cc223abeea874624023dd840105a651829ac23313b87eebe808ef907bc52a34",
      "blockId": "81879c150a8fbf1010f3fd5cc788b7402939f72c34e687869e2e444cec276f9c",
      "version": 2,
      "type": 0,
      "typeGroup": 1,
      "amount": "185500000000",
      "fee": "3400017",
      "sender": "AYCTHSZionfGoQsRnv5gECEuFWcZXS38gs",
      "senderPublicKey": "0359707719b3504eb1ed2980eba034fd4fdf68cfc037756e9aad705d755a45a678",
      "recipient": "AStYPfPWSrV1NH11A4qyAss5wTbu971Vgv",
      "signature": "485eb01b8b7c8b1afd69c4e357f2e01bfdcc9081aec2f9f27ec85f547f4ca09b635cd9be17af1c75b7b0a86eef7f5612b4b0dc5f6f5241b6f07ce46cbe1bc0b6",
      "confirmations": 160683,
      "timestamp": { "epoch": 101765064, "unix": 1591866264, "human": "2020-06-11T09:04:24.000Z" },
      "nonce": "710"
    },
    {
      "id": "8158545fb9f3faf7482378d11307c21d2d661ccf9a6a6e7cb607d122b219d69e",
      "blockId": "3177e02ecc82c897c3c0be5f1a7b89d536cca343d4038bba204a4a3c56cad5f3",
      "version": 2,
      "type": 0,
      "typeGroup": 1,
      "amount": "3000000000000",
      "fee": "3302097",
      "sender": "AXxNbmaKspf9UqgKhfTRDdn89NidP2gXWh",
      "senderPublicKey": "0375eff26fca80e0a92693bdbe100b1bdb4f94e7069bb030790d54cf96529f5cf8",
      "recipient": "AYCTHSZionfGoQsRnv5gECEuFWcZXS38gs",
      "signatures": [
        "00cd0227632b90886c9abe375423b10737051f1caad6cb2083a97fa293fce91ac5fb6de5ca482f57774b742ad5c7f97eface2699743edbe471767b49b4f05aa257",
        "01049093382187d163ee9fb78fec3373ebc9cbc6a8dc57628a3e8f6a06802fb2def59281c656b6183687aa3fcad0add251478a33aa4e22e70067e329a63abdc11e",
        "0243345d6272eac944810e8a1682572759c72d57108b2512f3867c70427f862b447f0dff9984560680983253f4daa0b6b3a447b4e6162ba61d20994e653f58a5d7"
      ],
      "confirmations": 342005,
      "timestamp": { "epoch": 100312464, "unix": 1590413664, "human": "2020-05-25T13:34:24.000Z" },
      "nonce": "2"
    },
    {
      "id": "f2891eb591d9809ca91432701692d966166d09603004e6462dd85dac69bbd3ae",
      "blockId": "aedcf45fbf288593c4b1dc35258afc81bb8460fc39bf4280f363b1dbf0f5eb77",
      "version": 2,
      "type": 0,
      "typeGroup": 1,
      "amount": "23500000000",
      "fee": "3270246",
      "sender": "AYCTHSZionfGoQsRnv5gECEuFWcZXS38gs",
      "senderPublicKey": "0359707719b3504eb1ed2980eba034fd4fdf68cfc037756e9aad705d755a45a678",
      "recipient": "ASXYrGAbor53tzX4hdr2vN6xDCmz9FFJac",
      "signature": "ff064fec3cbf4c6504a2f3bd833b621abf830202d923f8ad62494234b66c1cedc8ea7d29c06aabac1fa6b06f1f642113bdd5bc34cafc31c6f4c9b428c2851d9a",
      "vendorField": "Github Development Bounty April 2020",
      "confirmations": 569473,
      "timestamp": { "epoch": 98491952, "unix": 1588593152, "human": "2020-05-04T11:52:32.000Z" },
      "nonce": "709"
    },
    {
      "id": "beb2ea9f16ec3ff4c0b6cc57f30803dc8f14fecdfaf85e8bbcdbe609c5d0c778",
      "blockId": "33fb13ca809ee4e131047665d20e9610454138b5e85f5c1b68a64f5864749a72",
      "version": 2,
      "type": 0,
      "typeGroup": 1,
      "amount": "38500000000",
      "fee": "3270246",
      "sender": "AYCTHSZionfGoQsRnv5gECEuFWcZXS38gs",
      "senderPublicKey": "0359707719b3504eb1ed2980eba034fd4fdf68cfc037756e9aad705d755a45a678",
      "recipient": "AXSY6UpSDsZjSJJwaBGq4fqjYRPHWqyX3a",
      "signature": "c43771d2a0b221273b8bbfcc3bb641a3e2531eaf3941c0db6872035955e5f5ac1a40a48c4e735458d4d3be003ef1840711f47ecae095dc80ac00990632326bcf",
      "vendorField": "Github Development Bounty April 2020",
      "confirmations": 569482,
      "timestamp": { "epoch": 98491880, "unix": 1588593080, "human": "2020-05-04T11:51:20.000Z" },
      "nonce": "708"
    },
    {
      "id": "a56bbcf35c05910e99689134097d167af12cfb6675fb2a40737a6ae59b4a8153",
      "blockId": "8352277b4b5f07da3a6f61ed0c2202715cb57da68962c35e8f669da0437fde81",
      "version": 2,
      "type": 0,
      "typeGroup": 1,
      "amount": "12000000000",
      "fee": "3014030",
      "sender": "AYCTHSZionfGoQsRnv5gECEuFWcZXS38gs",
      "senderPublicKey": "0359707719b3504eb1ed2980eba034fd4fdf68cfc037756e9aad705d755a45a678",
      "recipient": "AQ2cWCqNFDwNf4eSgK8GFG2FLXwWaLYN54",
      "signature": "661f49561249596b490a9b8d2cf60713ce424478bef8d2a2d3f251c12ef5dfc2dcee605affdc288759c03a89a66e9a9d1d46ffa6a8767ae563901f4a5bce5a23",
      "vendorField": "Github Development Bounty March 2020",
      "confirmations": 851358,
      "timestamp": { "epoch": 96234080, "unix": 1586335280, "human": "2020-04-08T08:41:20.000Z" },
      "nonce": "707"
    },
    {
      "id": "33853ba5e170647b8ef2365d15264a655784a4b9e259a4747ae1611cddf4c494",
      "blockId": "f3c4e51ced55ae7d123f4346dc34139fe96843859ce4820395add26a0c7806ae",
      "version": 2,
      "type": 0,
      "typeGroup": 1,
      "amount": "140000000000",
      "fee": "3103983",
      "sender": "AYCTHSZionfGoQsRnv5gECEuFWcZXS38gs",
      "senderPublicKey": "0359707719b3504eb1ed2980eba034fd4fdf68cfc037756e9aad705d755a45a678",
      "recipient": "AatBBQ7CDY8f6daKQbTFauraS15Usj4ZnR",
      "signature": "20d5f53af5dd9605000097f715fb43f75bba2fe05914ea1cc012283bba201d299f4da001151bee610fb55e6989da3e728aa678a9849dc482e37f3aa0ca570f69",
      "vendorField": "Github Development Bounty March 2020",
      "confirmations": 914294,
      "timestamp": { "epoch": 95730352, "unix": 1585831552, "human": "2020-04-02T12:45:52.000Z" },
      "nonce": "706"
    },
    {
      "id": "5dc240f78de715fe1e8aac4a017b847ac64fc353990e18773da2b4194f0bba7c",
      "blockId": "26ae8090a811eb86b227b4f4e5abe1d5c50192c58b7e399257c6ea4ebe20545c",
      "version": 2,
      "type": 0,
      "typeGroup": 1,
      "amount": "93000000000",
      "fee": "3103982",
      "sender": "AYCTHSZionfGoQsRnv5gECEuFWcZXS38gs",
      "senderPublicKey": "0359707719b3504eb1ed2980eba034fd4fdf68cfc037756e9aad705d755a45a678",
      "recipient": "AKCxmFzZhGsVeVbuRnXRcZkrYnVktyfjWV",
      "signature": "a06f55c13e766f610895784edad81d7e80a314bd431cf7d20aa5fead570812234f80cd8fcdba14aa176d8796625497a33010405d8f6a44614bb33b25555862fd",
      "vendorField": "Github Development Bounty March 2020",
      "confirmations": 914301,
      "timestamp": { "epoch": 95730288, "unix": 1585831488, "human": "2020-04-02T12:44:48.000Z" },
      "nonce": "705"
    },
    {
      "id": "17da6394ab3ff8db15253bf7616b155dd9258456b34fe4094ad4e1435f748ffe",
      "blockId": "a5f6ab0e47615118ea6b57bcbd9530122aefa0161d0fb42d33bd5c38cfb63c16",
      "version": 2,
      "type": 0,
      "typeGroup": 1,
      "amount": "175500000000",
      "fee": "3103590",
      "sender": "AYCTHSZionfGoQsRnv5gECEuFWcZXS38gs",
      "senderPublicKey": "0359707719b3504eb1ed2980eba034fd4fdf68cfc037756e9aad705d755a45a678",
      "recipient": "ANMAuZBva21hxb6Ex9JEjjBCcWKZEag7J1",
      "signature": "55012e5d37ab3230f904b070f13a45c6ce36d01a4209aaa921e0f7639f26728a9a72e0d89ecd1e1edafe99831621fa34b002ff439a577f948b503661b004bf6a",
      "vendorField": "Github Development Bounty March 2020",
      "confirmations": 914309,
      "timestamp": { "epoch": 95730224, "unix": 1585831424, "human": "2020-04-02T12:43:44.000Z" },
      "nonce": "704"
    },
    {
      "id": "73b36f4c61269abc022f25125de31485fbc60ef23e6309c89a3e27e1cdee44e8",
      "blockId": "6e88db6e0212715ea7c4af0906a794b283fd9d14f4c09b0bcabd4ff04aea5714",
      "version": 2,
      "type": 0,
      "typeGroup": 1,
      "amount": "919800000000",
      "fee": "3103231",
      "sender": "AYCTHSZionfGoQsRnv5gECEuFWcZXS38gs",
      "senderPublicKey": "0359707719b3504eb1ed2980eba034fd4fdf68cfc037756e9aad705d755a45a678",
      "recipient": "AXSY6UpSDsZjSJJwaBGq4fqjYRPHWqyX3a",
      "signature": "0ec73bae06abb6585d43697344544d7284e038ea2c4f32d9c871eec61efa0fe16d9463fd2ae7d7ca9a9688fa5dfcd4806c03167cf22d23e4816d31ed947e66e5",
      "vendorField": "Github Development Bounty March 2020",
      "confirmations": 914323,
      "timestamp": { "epoch": 95730112, "unix": 1585831312, "human": "2020-04-02T12:41:52.000Z" },
      "nonce": "703"
    },
    {
      "id": "d4499d05768c71d606c38b0e8335e21cf39916960287ca585af2f575c51ba88f",
      "blockId": "d75e7cc7101356ee413844dd073867bb2b64aaf0d85673be78d3a23778a8c661",
      "version": 2,
      "type": 0,
      "typeGroup": 1,
      "amount": "61000000000000",
      "fee": "2586503",
      "sender": "AYCTHSZionfGoQsRnv5gECEuFWcZXS38gs",
      "senderPublicKey": "0359707719b3504eb1ed2980eba034fd4fdf68cfc037756e9aad705d755a45a678",
      "recipient": "AXxNbmaKspf9UqgKhfTRDdn89NidP2gXWh",
      "signature": "e13982f096d5bcbb5131ad8363582f9583f0b10be98d00669736d9cffbc8f729c0c0a841b47cdf4dd01f5b68b11ed56e6639818a488e83741f6e4b191e29a1b5",
      "vendorField": "Moving ARK Bounty funds to new multisig wallet",
      "confirmations": 1205865,
      "timestamp": { "epoch": 93397216, "unix": 1583498416, "human": "2020-03-06T12:40:16.000Z" },
      "nonce": "702"
    },
    {
      "id": "5b9105ff4cb3bc73ce84d804cc926e56cfbfdaa56b46e87f035f9beffc75b694",
      "blockId": "878de0eb48ba7770ff9dffd2500fe3395968a8019bbeee32b4c1bff91b900440",
      "version": 2,
      "type": 0,
      "typeGroup": 1,
      "amount": "111000000000",
      "fee": "2454178",
      "sender": "AYCTHSZionfGoQsRnv5gECEuFWcZXS38gs",
      "senderPublicKey": "0359707719b3504eb1ed2980eba034fd4fdf68cfc037756e9aad705d755a45a678",
      "recipient": "AKCxmFzZhGsVeVbuRnXRcZkrYnVktyfjWV",
      "signature": "315e6dd88e97943db88dd49b6d54a560e84f4ca0c1fd6cbae7a8d06018c2e29b201e43ce18b62a75a73afaacde46346a89f2ce6cd1b8cf4e7b4a84c4bc2f1d77",
      "vendorField": "Github Development Bounty February 2020",
      "confirmations": 1239361,
      "timestamp": { "epoch": 93126608, "unix": 1583227808, "human": "2020-03-03T09:30:08.000Z" },
      "nonce": "701"
    },
    {
      "id": "dbb19c49b4397a5cc0975c4f3c3bfeae76e5dfb32df98132df6bc52df07a8f26",
      "blockId": "980066e1fe8c8f40d4961ac4c4d645aa33180ca80a3ccdade987ce9abbb7efdf",
      "version": 2,
      "type": 0,
      "typeGroup": 1,
      "amount": "5200000000",
      "fee": "2460469",
      "sender": "AYCTHSZionfGoQsRnv5gECEuFWcZXS38gs",
      "senderPublicKey": "0359707719b3504eb1ed2980eba034fd4fdf68cfc037756e9aad705d755a45a678",
      "recipient": "ANMAuZBva21hxb6Ex9JEjjBCcWKZEag7J1",
      "signature": "e32f80541a6b821f118c705546fe77925555ddee810f6aa31de29590617571ffd543b0fb12651689f8e76433116234514311780b6bea1a0116db281a8efd4a93",
      "vendorField": "Github Development Bounty February 2020",
      "confirmations": 1246395,
      "timestamp": { "epoch": 93070304, "unix": 1583171504, "human": "2020-03-02T17:51:44.000Z" },
      "nonce": "700"
    },
    {
      "id": "60da2b7b12330359baca4e318adb91c0295c9a4b07fc14c7059672c67468fc58",
      "blockId": "b435c23615803ae867c87647a5204a5de8c2077d2602b5d1413c65288eabf49e",
      "version": 2,
      "type": 0,
      "typeGroup": 1,
      "amount": "9400000000",
      "fee": "2460469",
      "sender": "AYCTHSZionfGoQsRnv5gECEuFWcZXS38gs",
      "senderPublicKey": "0359707719b3504eb1ed2980eba034fd4fdf68cfc037756e9aad705d755a45a678",
      "recipient": "ATu6C2j5Ne7DWpgpVFjyNrumVWYd6nGgFG",
      "signature": "41586cf06a3c70252369dd44129c37d02269affc859c84d75c3118be4c1f3627b2ea18d4ba6586f58787337352ca6b4daf1c78a129172e59f126db071c1aa007",
      "vendorField": "Github Development Bounty February 2020",
      "confirmations": 1246677,
      "timestamp": { "epoch": 93068016, "unix": 1583169216, "human": "2020-03-02T17:13:36.000Z" },
      "nonce": "699"
    },
    {
      "id": "458df839ac1e1e622c40be536d0a6cee62fdc77d4df9a312d233e6129fd11f9c",
      "blockId": "7ed80a2de7dc8aa938e4ce908b667bb61886f3538175706584876a3e1a9b3bd4",
      "version": 2,
      "type": 0,
      "typeGroup": 1,
      "amount": "108500000000",
      "fee": "2460469",
      "sender": "AYCTHSZionfGoQsRnv5gECEuFWcZXS38gs",
      "senderPublicKey": "0359707719b3504eb1ed2980eba034fd4fdf68cfc037756e9aad705d755a45a678",
      "recipient": "ANMAuZBva21hxb6Ex9JEjjBCcWKZEag7J1",
      "signature": "400caa52647202fc2ca57606f64aa4de39ffe8f5ef389e72abd9ada568152eedefe3e48f8f94f79bf00f095487986988b20d07a4158244b911cb8879a71e14c6",
      "vendorField": "Github Development Bounty February 2020",
      "confirmations": 1246684,
      "timestamp": { "epoch": 93067952, "unix": 1583169152, "human": "2020-03-02T17:12:32.000Z" },
      "nonce": "698"
    },
    {
      "id": "892b41ab7f72ebb1c1645c2a6890d8a53b8a3169cae5fb00ba70996f98f4382f",
      "blockId": "095d5972c0637626800b3e7a18b002a1837fe90484338a9b8e3337cbb8ad6859",
      "version": 2,
      "type": 0,
      "typeGroup": 1,
      "amount": "321100000000",
      "fee": "2461062",
      "sender": "AYCTHSZionfGoQsRnv5gECEuFWcZXS38gs",
      "senderPublicKey": "0359707719b3504eb1ed2980eba034fd4fdf68cfc037756e9aad705d755a45a678",
      "recipient": "AXSY6UpSDsZjSJJwaBGq4fqjYRPHWqyX3a",
      "signature": "eba6b1d72924d7b5ff21760adaf77fde61193a058447dec8d67dd5362b709a804d651e1243ca44a042bfa0ba9ac3e4502c741efcb45a5d3d1d15e1fb939e4125",
      "vendorField": "Github Development Bounty February 2020",
      "confirmations": 1246701,
      "timestamp": { "epoch": 93067816, "unix": 1583169016, "human": "2020-03-02T17:10:16.000Z" },
      "nonce": "697"
    },
    {
      "id": "487867ca1df7ff620b930378d7e38d4c98102224c83158fcfb89b2e639a4ec20",
      "blockId": "6ccb3b1cf5ac5e9b98bf9877f564c98892b028651804669be94a27bbcd019d02",
      "version": 1,
      "type": 0,
      "typeGroup": 1,
      "amount": "12600000000",
      "fee": "2106837",
      "sender": "AYCTHSZionfGoQsRnv5gECEuFWcZXS38gs",
      "senderPublicKey": "0359707719b3504eb1ed2980eba034fd4fdf68cfc037756e9aad705d755a45a678",
      "recipient": "AatBBQ7CDY8f6daKQbTFauraS15Usj4ZnR",
      "signature": "3044022051e5e63c0a5dc651790690cf61c936c63e718235c09311483cde07d88020d4ee022035da2545251f83ed01d660733994492b56b13543b1a87eafd0694e8af68e2fad",
      "vendorField": "Github Development Bounty January 2020",
      "confirmations": 1557247,
      "timestamp": { "epoch": 90565707, "unix": 1580666907, "human": "2020-02-02T18:08:27.000Z" },
      "nonce": "696"
    },
    {
      "id": "197d103f19fde5777bc9e578e6e5efa54816ac41d1ddd050fe694cf8b2d341bc",
      "blockId": "a7f09ce5fa651701f6ab218622a6c5b281d4e0f71e3b1a8e10eff65aca6ef095",
      "version": 1,
      "type": 0,
      "typeGroup": 1,
      "amount": "137200000000",
      "fee": "2106837",
      "sender": "AYCTHSZionfGoQsRnv5gECEuFWcZXS38gs",
      "senderPublicKey": "0359707719b3504eb1ed2980eba034fd4fdf68cfc037756e9aad705d755a45a678",
      "recipient": "AXSY6UpSDsZjSJJwaBGq4fqjYRPHWqyX3a",
      "signature": "304502210090c181975a5c60440be37357871ce12209ee1b1f98fc80c845b0d89fc5cc43020220247e147f810791fc62face067ce30bc59e622f7cadc9c790cb18781a75335d11",
      "vendorField": "Github Development Bounty January 2020",
      "confirmations": 1557257,
      "timestamp": { "epoch": 90565620, "unix": 1580666820, "human": "2020-02-02T18:07:00.000Z" },
      "nonce": "695"
    },
    {
      "id": "f48aa877791153a9a88a068e2d041610ca5c027713a5e60786d1d9dfb5956462",
      "blockId": "59a91cd355a2509e0a5407369523115ef3af9743e5152d2e73fd772b4f86aa9f",
      "version": 1,
      "type": 0,
      "typeGroup": 1,
      "amount": "10700000000",
      "fee": "2383741",
      "sender": "AYCTHSZionfGoQsRnv5gECEuFWcZXS38gs",
      "senderPublicKey": "0359707719b3504eb1ed2980eba034fd4fdf68cfc037756e9aad705d755a45a678",
      "recipient": "APFuSJWZvGLzofb1Ety7bRFD1vtDNdMajQ",
      "signature": "3045022100bfc7526e87fdd92843bf5630ac26b3f60d28ede58984ed6b457ff71b706898af02204afd372614219cc4e2240a7d3f363747bca62974ca18d8b1d64c2097a575a30a",
      "vendorField": "ARK Core v2.6 Testing",
      "confirmations": 1820407,
      "timestamp": { "epoch": 88458847, "unix": 1578560047, "human": "2020-01-09T08:54:07.000Z" },
      "nonce": "694"
    },
    {
      "id": "38801e995c41901118f6a3295d65feb7c6c7ae52ba64c33f8653e9f24b2107e3",
      "blockId": "bb2031876972e294bd9e4977399fa3fbcc3a60ccb8f9b7929cf95c3d07a72076",
      "version": 1,
      "type": 0,
      "typeGroup": 1,
      "amount": "10700000000",
      "fee": "2381090",
      "sender": "AYCTHSZionfGoQsRnv5gECEuFWcZXS38gs",
      "senderPublicKey": "0359707719b3504eb1ed2980eba034fd4fdf68cfc037756e9aad705d755a45a678",
      "recipient": "AatBBQ7CDY8f6daKQbTFauraS15Usj4ZnR",
      "signature": "3044022100a10276225da2fd1ade960fbe7aae8f5b75828401d6332b1b44cb4e6f4c90225c021f476f806246abaf28ba8da921d56ab6a795b86206b2dbb3ca581d05632a9077",
      "vendorField": "ARK Core v2.6 Testing",
      "confirmations": 1826079,
      "timestamp": { "epoch": 88413460, "unix": 1578514660, "human": "2020-01-08T20:17:40.000Z" },
      "nonce": "693"
    },
    {
      "id": "c19d362bd75609e5b7e0b4d0cdd973f73582bc377f6f6147c7ce3d8ad0f436d4",
      "blockId": "3c7699dfc74372c8e7c0718da758fb28803b96f8d34f09e5f027c46be1f92855",
      "version": 1,
      "type": 0,
      "typeGroup": 1,
      "amount": "10700000000",
      "fee": "2381090",
      "sender": "AYCTHSZionfGoQsRnv5gECEuFWcZXS38gs",
      "senderPublicKey": "0359707719b3504eb1ed2980eba034fd4fdf68cfc037756e9aad705d755a45a678",
      "recipient": "ATu6C2j5Ne7DWpgpVFjyNrumVWYd6nGgFG",
      "signature": "304402200c8c23553f499219cd6639fc7229468c4f52ab5ea517373c8dde3831e1f9e2f702200f3de4b8a4d2309192a589fd314ac36f596587c793e0d6b45b7ef6b51f64a30e",
      "vendorField": "ARK Core v2.6 Testing",
      "confirmations": 1826086,
      "timestamp": { "epoch": 88413413, "unix": 1578514613, "human": "2020-01-08T20:16:53.000Z" },
      "nonce": "692"
    },
    {
      "id": "65ae907640275ebfe501b3c947f2028281bfee552fc72972bf3dfd3262dd4a38",
      "blockId": "deb80f268170ffe24094db88b82442f82874a499a029cc5dff8c17b0c363734e",
      "version": 1,
      "type": 0,
      "typeGroup": 1,
      "amount": "21500000000",
      "fee": "2381090",
      "sender": "AYCTHSZionfGoQsRnv5gECEuFWcZXS38gs",
      "senderPublicKey": "0359707719b3504eb1ed2980eba034fd4fdf68cfc037756e9aad705d755a45a678",
      "recipient": "APYBiT55RHNGJMRENSCmY7fEkjhaT6A6Jg",
      "signature": "304402207e58caf2db223c5ef8127f61a6333e468fe5c0f4ca2afae63fda6625879ac37e02201845ac21319fde65f979a8fec0e582d5f24a2a52a6983ff22ed0612c2886f266",
      "vendorField": "ARK Core v2.6 Testing",
      "confirmations": 1826091,
      "timestamp": { "epoch": 88413317, "unix": 1578514517, "human": "2020-01-08T20:15:17.000Z" },
      "nonce": "691"
    },
    {
      "id": "acc31a6b31d8a0888ed358899a9efaffb3d6fa86c2086286b0fc6cb66ab3b9b8",
      "blockId": "530bfc6bf3aa2e064792af16d24889da29e45945dc7f06d39f321369c6d82fdf",
      "version": 1,
      "type": 0,
      "typeGroup": 1,
      "amount": "14500000000",
      "fee": "2255910",
      "sender": "AYCTHSZionfGoQsRnv5gECEuFWcZXS38gs",
      "senderPublicKey": "0359707719b3504eb1ed2980eba034fd4fdf68cfc037756e9aad705d755a45a678",
      "recipient": "ASoeoWpqKkHou4LL3JjGE7DzGgYn2bSP8M",
      "signature": "3045022100e336f7c62f3bec041a026754f8c5827263a11025883b8048d4572f74b53d9d66022035f1ea4092adefcf2d96c1be7ad7b8efa80ece4b2fe0d701ac59ccc08c4569c7",
      "vendorField": "Github Development Bounty December 2019",
      "confirmations": 1881003,
      "timestamp": { "epoch": 87973952, "unix": 1578075152, "human": "2020-01-03T18:12:32.000Z" },
      "nonce": "690"
    },
    {
      "id": "2b152eec9a392a690eccaa71c13aba0b28260354cb4f9fab1d1dcb8887b75829",
      "blockId": "0f3b5139332e4990a59b5957c110defa05024355a16c8c5cfd995aee73d6b160",
      "version": 1,
      "type": 0,
      "typeGroup": 1,
      "amount": "14500000000",
      "fee": "2255910",
      "sender": "AYCTHSZionfGoQsRnv5gECEuFWcZXS38gs",
      "senderPublicKey": "0359707719b3504eb1ed2980eba034fd4fdf68cfc037756e9aad705d755a45a678",
      "recipient": "ANYyRokvmjizMQZqErQ8T4FJtEpzf2uehZ",
      "signature": "304402203d65e6276b9842792fedc56a5abae23a2b6550b9a7d26467b4db2a12871e5e2302206a8879c44d91c76c47dc9b5262c4d913b2a0d56ccf610eb8f0e4be06a58a0e95",
      "vendorField": "Github Development Bounty December 2019",
      "confirmations": 1881008,
      "timestamp": { "epoch": 87973899, "unix": 1578075099, "human": "2020-01-03T18:11:39.000Z" },
      "nonce": "689"
    },
    {
      "id": "987152439cfcc3513c93e6be7592cad69f974b87539ef43c486a96a95e693cdd",
      "blockId": "0f402e6bb61b31ebbdf58cafe26adef6d9e12d19b680833d6e8007a7461229e7",
      "version": 1,
      "type": 0,
      "typeGroup": 1,
      "amount": "15200000000",
      "fee": "2255910",
      "sender": "AYCTHSZionfGoQsRnv5gECEuFWcZXS38gs",
      "senderPublicKey": "0359707719b3504eb1ed2980eba034fd4fdf68cfc037756e9aad705d755a45a678",
      "recipient": "AJwR23xo9RhJmsYJVrwfkre7h6aZFwtTQG",
      "signature": "3044022058b151bd05d9bc2908e3374c63bf8d268c8b656fe09c87a4524adb523fe7bd0602200a00344f6d0b1952e8b61f00a57bf39c1ef7d2250c7f6ad74623f677fc2d253b",
      "vendorField": "Github Development Bounty December 2019",
      "confirmations": 1881015,
      "timestamp": { "epoch": 87973861, "unix": 1578075061, "human": "2020-01-03T18:11:01.000Z" },
      "nonce": "688"
    }
  ]
}
