{
  "meta": {
    "totalCountIsEstimate": false,
    "count": 1,
    "pageCount": 82,
    "totalCount": 82,
    "next": "/transactions?recipientId=AJwDCsGDdA8LgiNoxe8XSiwB8rvp8GRZBW&limit=1&transform=true&page=2",
    "previous": null,
    "self": "/transactions?recipientId=AJwDCsGDdA8LgiNoxe8XSiwB8rvp8GRZBW&limit=1&transform=true&page=1",
    "first": "/transactions?recipientId=AJwDCsGDdA8LgiNoxe8XSiwB8rvp8GRZBW&limit=1&transform=true&page=1",
    "last": "/transactions?recipientId=AJwDCsGDdA8LgiNoxe8XSiwB8rvp8GRZBW&limit=1&transform=true&page=82"
  },
  "data": [
    {
      "id": "9b814efc5fffc34cf6695439edb6e2fa38b5bca978e1589f3f83b855b8997ee9",
      "blockId": "82f761239658cd62d87ea406f0ce581a3a9fa61406c80b4613ab3b126078c951",
      "version": 2,
      "type": 0,
      "typeGroup": 1,
      "amount": "150000000000",
      "fee": "3032936",
      "sender": "Aeig4wmF9TNXt4Mj1XGNcJb1KDCCGeQnVp",
      "senderPublicKey": "0305147df6c772248ffc57d7ebc1c4294f03b6b5a27ebc6e1a09825e4ee5fb786f",
      "recipient": "AJwDCsGDdA8LgiNoxe8XSiwB8rvp8GRZBW",
      "signature": "2e7f327200889a8ef34ebeb724f045cf8079d62d7c2e70378d4cee427a7522bf5abb4887d3b5cd0ba8c1a02f9f966eeb30565aab504e57e510232135bac553fc",
      "signSignature": "68a698c0cf877c5d70cc49982b2bc1f9251680b68e7be7660b78f1998d81ed2ea193364878b695f71ba642dbd850db709b32fc3d136856291384f39eaabbe49e",
      "confirmations": 1076850,
      "timestamp": { "epoch": 94439992, "unix": 1584541192, "human": "2020-03-18T14:19:52.000Z" },
      "nonce": "1165"
    }
  ]
}
