{
  "meta": {
    "totalCountIsEstimate": false,
    "count": 1,
    "pageCount": 4876,
    "totalCount": 4876,
    "next": "/transactions?senderId=AJwDCsGDdA8LgiNoxe8XSiwB8rvp8GRZBW&limit=1&transform=true&page=2",
    "previous": null,
    "self": "/transactions?senderId=AJwDCsGDdA8LgiNoxe8XSiwB8rvp8GRZBW&limit=1&transform=true&page=1",
    "first": "/transactions?senderId=AJwDCsGDdA8LgiNoxe8XSiwB8rvp8GRZBW&limit=1&transform=true&page=1",
    "last": "/transactions?senderId=AJwDCsGDdA8LgiNoxe8XSiwB8rvp8GRZBW&limit=1&transform=true&page=4876"
  },
  "data": [
    {
      "id": "ab6112d26ac5ad3e5cc97a09f0d2832eeed98fe7500b373b726cb382cd855b21",
      "blockId": "bf8d4125d98e9c853b39860a23324f773f17c295d3927acbcfc5b698a222eb1b",
      "version": 2,
      "type": 0,
      "typeGroup": 1,
      "amount": "226674558320",
      "fee": "3032936",
      "sender": "AJwDCsGDdA8LgiNoxe8XSiwB8rvp8GRZBW",
      "senderPublicKey": "025687c1facbaf87b43a46cb78ddec6e4ddb115d1e5a91b53cef5a2c7305a47adc",
      "recipient": "AUYxDgwhqjmmdSnMQur2Svd8UsrWqVXTs3",
      "signature": "32547e54b5517e89737f9d4ebe7be4f691915d93bfa34a9118330b3a6a264fd4ca164cf03653aee5cff594435e337cfd1dc5c194546a948449753b095e69f0ad",
      "signSignature": "716efc92787dd2ec49741dcf03b8505da1e3698e429cbe6a7423453a473e7797d9e2fa088c4be72e7521f706b2ca38f8f54f9657590cd7c3f811221c635be1b9",
      "confirmations": 1076841,
      "timestamp": { "epoch": 94440064, "unix": 1584541264, "human": "2020-03-18T14:21:04.000Z" },
      "nonce": "4876"
    }
  ]
}
