{
  "meta": {
    "totalCountIsEstimate": false,
    "count": 1,
    "pageCount": 2,
    "totalCount": 2,
    "next": "/transactions?recipientId=AewxfHQobSc49a4radHp74JZCGP8LRe4xA&limit=1&transform=true&page=2",
    "previous": null,
    "self": "/transactions?recipientId=AewxfHQobSc49a4radHp74JZCGP8LRe4xA&limit=1&transform=true&page=1",
    "first": "/transactions?recipientId=AewxfHQobSc49a4radHp74JZCGP8LRe4xA&limit=1&transform=true&page=1",
    "last": "/transactions?recipientId=AewxfHQobSc49a4radHp74JZCGP8LRe4xA&limit=1&transform=true&page=2"
  },
  "data": [
    {
      "id": "2c4acab5615c3cf4b3450d12e43853edb0c815c0b1369c707f5e091a182699f5",
      "blockId": "cc8ccfe3388f5653f7f6530bfca3db9e77f860f18589db0741999a2c3a2291a9",
      "version": 1,
      "type": 0,
      "typeGroup": 1,
      "amount": "4",
      "fee": "1000000",
      "sender": "AXU1TnZpM7bpuV5tPxDcKSWCNXSHmEDhmF",
      "senderPublicKey": "02ee9b09d6b3ae1c5e20a4053b73bec8eb0607fc93b3a2eeb6da1900f4d42d3c13",
      "recipient": "AewxfHQobSc49a4radHp74JZCGP8LRe4xA",
      "signature": "3045022100dbdaa2e0adb875d228ab4e5b37c3be047b0532509f6cc3027798077739b291410220056e2b44d80f6ac5742e15abc9cd9b64687205ee1f7dcfdb6f223e24be54b501",
      "vendorField": "OCD",
      "confirmations": 1524085,
      "timestamp": { "epoch": 90906372, "unix": 1581007572, "human": "2020-02-06T16:46:12.000Z" },
      "nonce": "1"
    }
  ]
}
