{
  "meta": {
    "totalCountIsEstimate": false,
    "count": 25,
    "pageCount": 8693,
    "totalCount": 217301,
    "next": "/blocks/search?page=2&limit=25&transform=true",
    "previous": null,
    "self": "/blocks/search?page=1&limit=25&transform=true",
    "first": "/blocks/search?page=1&limit=25&transform=true",
    "last": "/blocks/search?page=8693&limit=25&transform=true"
  },
  "data": [
    {
      "id": "145f052b5b20d4ce929ea0c1b530a6a2cf7db61c27120d683cfc8f53af3ae815",
      "version": 0,
      "height": 12764653,
      "previous": "7e5fbcf728e79f894bb03cb05c101ca1f47d6a68ea3d8a4ef960170253d9e482",
      "forged": { "reward": "200000000", "fee": "0", "total": "200000000", "amount": "0" },
      "payload": { "hash": "e3b0c44298fc1c149afbf4c8996fb92427ae41e4649b934ca495991b7852b855", "length": 0 },
      "generator": {
        "username": "biz_classic",
        "address": "AKdr5d9AMEnsKYxpDcoHdyyjSCKVx3r9Nj",
        "publicKey": "020431436cf94f3c6a6ba566fe9e42678db8486590c732ca6c3803a10a86f50b92"
      },
      "signature": "304502210089193a0e4d2c2126566a91a9474ce33168531c8fa621c651e0c5479025cb287102202cf438fb1b220b728b2336d240e7812a57a6fbd02695a07bf45afb6839620c68",
      "confirmations": 32,
      "transactions": 0,
      "timestamp": { "epoch": 103300240, "unix": 1593401440, "human": "2020-06-29T03:30:40.000Z" }
    },
    {
      "id": "181f7e87b595c1e38edebae0a3ff499a12b54f2796d1a813ef7506e50d4de6ce",
      "version": 0,
      "height": 12764600,
      "previous": "bc2bbc9bcab0811369ed60d266af7e9fdb4efa3ea9c076903ffce7908c6389cd",
      "forged": { "reward": "200000000", "fee": "0", "total": "200000000", "amount": "0" },
      "payload": { "hash": "e3b0c44298fc1c149afbf4c8996fb92427ae41e4649b934ca495991b7852b855", "length": 0 },
      "generator": {
        "username": "biz_classic",
        "address": "AKdr5d9AMEnsKYxpDcoHdyyjSCKVx3r9Nj",
        "publicKey": "020431436cf94f3c6a6ba566fe9e42678db8486590c732ca6c3803a10a86f50b92"
      },
      "signature": "3045022100e40347025652a907ba9a860071aa1b7506eb86687b5ca1806fc238af9831424902203883c45870c0f2b31c613cfd302fe574c43409cb312cf10cab8928d0b4cf37d1",
      "confirmations": 85,
      "transactions": 0,
      "timestamp": { "epoch": 103299816, "unix": 1593401016, "human": "2020-06-29T03:23:36.000Z" }
    },
    {
      "id": "9d266db13b9c633ebc45ed9c5e39d75ee9fbddf66f8033e89831e6ef0e7bbccf",
      "version": 0,
      "height": 12764561,
      "previous": "6464749fe086402ebdce13716a27e8a8c2514b1c6d33ff90397ba45e4606cf9a",
      "forged": { "reward": "200000000", "fee": "0", "total": "200000000", "amount": "0" },
      "payload": { "hash": "e3b0c44298fc1c149afbf4c8996fb92427ae41e4649b934ca495991b7852b855", "length": 0 },
      "generator": {
        "username": "biz_classic",
        "address": "AKdr5d9AMEnsKYxpDcoHdyyjSCKVx3r9Nj",
        "publicKey": "020431436cf94f3c6a6ba566fe9e42678db8486590c732ca6c3803a10a86f50b92"
      },
      "signature": "3044022005821dae1005c4e717cc65206f97655cb25128c1ad6cc9379ea82649515cfb4d022012fb4b952319608134e51976fdbe0a8ab0a2f188afdd7fd1566f6390370b3665",
      "confirmations": 124,
      "transactions": 0,
      "timestamp": { "epoch": 103299504, "unix": 1593400704, "human": "2020-06-29T03:18:24.000Z" }
    },
    {
      "id": "423b82166cf6575eeac0960c8b2aa7702b728d9895dbcc01c1f39e4b6e05ddd4",
      "version": 0,
      "height": 12764511,
      "previous": "858d4aa9b86d1ca70282ae755e6649d8bcfad9b66bbfd752435ef1fe0768da4d",
      "forged": { "reward": "200000000", "fee": "0", "total": "200000000", "amount": "0" },
      "payload": { "hash": "e3b0c44298fc1c149afbf4c8996fb92427ae41e4649b934ca495991b7852b855", "length": 0 },
      "generator": {
        "username": "biz_classic",
        "address": "AKdr5d9AMEnsKYxpDcoHdyyjSCKVx3r9Nj",
        "publicKey": "020431436cf94f3c6a6ba566fe9e42678db8486590c732ca6c3803a10a86f50b92"
      },
      "signature": "304502210088e457e904583512dbf717e505be80b0f3885f338745b66e3c54c0caf5cc37ae022057238bb47d40d08103323a8b4043532ae90e80adff6ce362e411126fec4c1102",
      "confirmations": 174,
      "transactions": 0,
      "timestamp": { "epoch": 103299104, "unix": 1593400304, "human": "2020-06-29T03:11:44.000Z" }
    },
    {
      "id": "bf98416c0e91e7a5766fbe89975f5b16f7f14316c32485d714059c2d8bacaf10",
      "version": 0,
      "height": 12764463,
      "previous": "8519ca967aa27bcafdb86dfcf2670e4cdbb6d329514eb46f66db0b80c3d92b27",
      "forged": { "reward": "200000000", "fee": "0", "total": "200000000", "amount": "0" },
      "payload": { "hash": "e3b0c44298fc1c149afbf4c8996fb92427ae41e4649b934ca495991b7852b855", "length": 0 },
      "generator": {
        "username": "biz_classic",
        "address": "AKdr5d9AMEnsKYxpDcoHdyyjSCKVx3r9Nj",
        "publicKey": "020431436cf94f3c6a6ba566fe9e42678db8486590c732ca6c3803a10a86f50b92"
      },
      "signature": "3045022100af418a681154796bc6c3c7dfc132be0335a0721c98c54827199d41cc497a3491022054c14ce491763bce42d1b1cd480e2bfc8f6590225f7e9b37da3f919dcf86bcf3",
      "confirmations": 222,
      "transactions": 0,
      "timestamp": { "epoch": 103298720, "unix": 1593399920, "human": "2020-06-29T03:05:20.000Z" }
    },
    {
      "id": "d7003799c4bb225340ca354ac05a198d45cb74e2613d09d31116e9611cf4cc1e",
      "version": 0,
      "height": 12764398,
      "previous": "4f1f41938ea90ad5f229d886a878a9cf8a6e820f5a14e35d38349be9d0593256",
      "forged": { "reward": "200000000", "fee": "0", "total": "200000000", "amount": "0" },
      "payload": { "hash": "e3b0c44298fc1c149afbf4c8996fb92427ae41e4649b934ca495991b7852b855", "length": 0 },
      "generator": {
        "username": "biz_classic",
        "address": "AKdr5d9AMEnsKYxpDcoHdyyjSCKVx3r9Nj",
        "publicKey": "020431436cf94f3c6a6ba566fe9e42678db8486590c732ca6c3803a10a86f50b92"
      },
      "signature": "304402202e31c3bd22df24291f812a57cfaefe6ec8e390df184fa661b335591489c3e6270220073eda3ca63c2700d2c1f4d7185af59e7abb9e5d96e4e27b7594c7014b3f0691",
      "confirmations": 287,
      "transactions": 0,
      "timestamp": { "epoch": 103298200, "unix": 1593399400, "human": "2020-06-29T02:56:40.000Z" }
    },
    {
      "id": "b1e87fc7b2d32a5ac8554b6458cbdba01907f856c50a13d63ba7408e75170dfd",
      "version": 0,
      "height": 12764376,
      "previous": "3b4e92ff6624fd18f6f80ff0f9c4e6718a07fba74be5c65eb4a27869dee5449b",
      "forged": { "reward": "200000000", "fee": "0", "total": "200000000", "amount": "0" },
      "payload": { "hash": "e3b0c44298fc1c149afbf4c8996fb92427ae41e4649b934ca495991b7852b855", "length": 0 },
      "generator": {
        "username": "biz_classic",
        "address": "AKdr5d9AMEnsKYxpDcoHdyyjSCKVx3r9Nj",
        "publicKey": "020431436cf94f3c6a6ba566fe9e42678db8486590c732ca6c3803a10a86f50b92"
      },
      "signature": "3044022038074b739d4550ae3f37d2831aee46792c6564c36237d503be74d22dd72b300e022041f56684d68e1bd0a1e852d65e3b54b87a06899d5b53eb227f258d079a6311c1",
      "confirmations": 309,
      "transactions": 0,
      "timestamp": { "epoch": 103298024, "unix": 1593399224, "human": "2020-06-29T02:53:44.000Z" }
    },
    {
      "id": "19495fd0b3d944279dd7f909220cfef382ef8ef50bb0d1983470a39f2a091940",
      "version": 0,
      "height": 12764292,
      "previous": "81789c84f38d1bfc15ee087f33a4801c8229c85f9f351d090fe9cf5336d0d3a8",
      "forged": { "reward": "200000000", "fee": "0", "total": "200000000", "amount": "0" },
      "payload": { "hash": "e3b0c44298fc1c149afbf4c8996fb92427ae41e4649b934ca495991b7852b855", "length": 0 },
      "generator": {
        "username": "biz_classic",
        "address": "AKdr5d9AMEnsKYxpDcoHdyyjSCKVx3r9Nj",
        "publicKey": "020431436cf94f3c6a6ba566fe9e42678db8486590c732ca6c3803a10a86f50b92"
      },
      "signature": "30440220378123ca59aafcc42d893c9b3c8f92928030aa1343ed9ba48446dcb77263e5ee022040dba8dcb09fd0b32ce1472d8de6e9b754f1cccede1c7870aa25486f7b96fcda",
      "confirmations": 393,
      "transactions": 0,
      "timestamp": { "epoch": 103297352, "unix": 1593398552, "human": "2020-06-29T02:42:32.000Z" }
    },
    {
      "id": "06943de7e85ceb1c8330b12e03e51e66a7596971ef1050af726fbf428c4f970e",
      "version": 0,
      "height": 12764252,
      "previous": "2655a2029edcfd03da598bcbb76defde6ba634eb332eeaf9045c6fe2f49d3bdb",
      "forged": { "reward": "200000000", "fee": "0", "total": "200000000", "amount": "0" },
      "payload": { "hash": "e3b0c44298fc1c149afbf4c8996fb92427ae41e4649b934ca495991b7852b855", "length": 0 },
      "generator": {
        "username": "biz_classic",
        "address": "AKdr5d9AMEnsKYxpDcoHdyyjSCKVx3r9Nj",
        "publicKey": "020431436cf94f3c6a6ba566fe9e42678db8486590c732ca6c3803a10a86f50b92"
      },
      "signature": "30440220020f167615683031ed52cb0b081bad1c947822fc1bc22797ceff13c99872666e02200ac99ddf40827240c6d0b0e3caa4d7fecb4be79b9f591049b5a7f6a8ac5665ce",
      "confirmations": 433,
      "transactions": 0,
      "timestamp": { "epoch": 103297032, "unix": 1593398232, "human": "2020-06-29T02:37:12.000Z" }
    },
    {
      "id": "156c75d180d4b5b43a18afe7f3a4ada49c720ea89ff0243ba537b31c36d23679",
      "version": 0,
      "height": 12764204,
      "previous": "c84b62dd5fad2bc3ddffcc91401f2f98efa17bcbeac3f2aa1b187bcd8cb88180",
      "forged": { "reward": "200000000", "fee": "0", "total": "200000000", "amount": "0" },
      "payload": { "hash": "e3b0c44298fc1c149afbf4c8996fb92427ae41e4649b934ca495991b7852b855", "length": 0 },
      "generator": {
        "username": "biz_classic",
        "address": "AKdr5d9AMEnsKYxpDcoHdyyjSCKVx3r9Nj",
        "publicKey": "020431436cf94f3c6a6ba566fe9e42678db8486590c732ca6c3803a10a86f50b92"
      },
      "signature": "3045022100f0eb412c80aa65bb56a2362590fc2a7644785a4c85e70bc7c69dcee8115174b8022032f47343f99fbe4dc75e926ca3f715598c195ed516756d7ee870a53edffcfb6b",
      "confirmations": 481,
      "transactions": 0,
      "timestamp": { "epoch": 103296648, "unix": 1593397848, "human": "2020-06-29T02:30:48.000Z" }
    },
    {
      "id": "a20299bfbf5c224b000c46a467d10726c61bc22191331b3ee157a9f700689160",
      "version": 0,
      "height": 12764139,
      "previous": "8d5f2806de02bd91a7f67466d4b1dd261e38ff896ab8538a5e6c9575b1767497",
      "forged": { "reward": "200000000", "fee": "0", "total": "200000000", "amount": "0" },
      "payload": { "hash": "e3b0c44298fc1c149afbf4c8996fb92427ae41e4649b934ca495991b7852b855", "length": 0 },
      "generator": {
        "username": "biz_classic",
        "address": "AKdr5d9AMEnsKYxpDcoHdyyjSCKVx3r9Nj",
        "publicKey": "020431436cf94f3c6a6ba566fe9e42678db8486590c732ca6c3803a10a86f50b92"
      },
      "signature": "304402206444e0c51ce3ec1d7d626278119f3c4b07a6c85eae8686d85ae8c5b44c5b69c7022031daae5044fa54b6d1f61dd5cb4353c0783490ac6e78c4f2b4abbc7b7c2bf040",
      "confirmations": 546,
      "transactions": 0,
      "timestamp": { "epoch": 103296128, "unix": 1593397328, "human": "2020-06-29T02:22:08.000Z" }
    },
    {
      "id": "98e32afdd30ec863062cb71503581286882fdfc93f0eb4025943d6a9fd83f7a0",
      "version": 0,
      "height": 12764091,
      "previous": "bbfd435a2b18cf2d25ab007822beb1d5b748c3c55b6a60910396b92d7ec4ef98",
      "forged": { "reward": "200000000", "fee": "0", "total": "200000000", "amount": "0" },
      "payload": { "hash": "e3b0c44298fc1c149afbf4c8996fb92427ae41e4649b934ca495991b7852b855", "length": 0 },
      "generator": {
        "username": "biz_classic",
        "address": "AKdr5d9AMEnsKYxpDcoHdyyjSCKVx3r9Nj",
        "publicKey": "020431436cf94f3c6a6ba566fe9e42678db8486590c732ca6c3803a10a86f50b92"
      },
      "signature": "3045022100a4edcdad7673209a67b70176d64f5c3eb89500c6c253b8000bef684af031d1190220395719d6dd782d06f983eda8a559840c50a367edd627f430eb61952d3e2f4e6a",
      "confirmations": 594,
      "transactions": 0,
      "timestamp": { "epoch": 103295744, "unix": 1593396944, "human": "2020-06-29T02:15:44.000Z" }
    },
    {
      "id": "0d49bf586b32577ea368c27f55632c28f96e7dbaa29f8672258ebe2860c261d8",
      "version": 0,
      "height": 12764027,
      "previous": "5a3167ee07580a8d0b49641c39e26b5c7142090c6fc2ed4d51fea8cf08499594",
      "forged": { "reward": "200000000", "fee": "0", "total": "200000000", "amount": "0" },
      "payload": { "hash": "e3b0c44298fc1c149afbf4c8996fb92427ae41e4649b934ca495991b7852b855", "length": 0 },
      "generator": {
        "username": "biz_classic",
        "address": "AKdr5d9AMEnsKYxpDcoHdyyjSCKVx3r9Nj",
        "publicKey": "020431436cf94f3c6a6ba566fe9e42678db8486590c732ca6c3803a10a86f50b92"
      },
      "signature": "304402202cd238b1bf71637cc3e08a0492edfe1df08eb111b00da3dea3cb7c7a59e445aa02205587c515a3b2ba8cc2ab9ad9ba50e06d322191106309f8575f28d88114f8dea7",
      "confirmations": 658,
      "transactions": 0,
      "timestamp": { "epoch": 103295232, "unix": 1593396432, "human": "2020-06-29T02:07:12.000Z" }
    },
    {
      "id": "9ccd72f52553dc6cc19f5e1f63611726aa25093963310982d5b88ad26400060d",
      "version": 0,
      "height": 12763993,
      "previous": "b2db42591b5de76fb925f3419b4951ac29316e916774fb525f099537eb460aff",
      "forged": { "reward": "200000000", "fee": "0", "total": "200000000", "amount": "0" },
      "payload": { "hash": "e3b0c44298fc1c149afbf4c8996fb92427ae41e4649b934ca495991b7852b855", "length": 0 },
      "generator": {
        "username": "biz_classic",
        "address": "AKdr5d9AMEnsKYxpDcoHdyyjSCKVx3r9Nj",
        "publicKey": "020431436cf94f3c6a6ba566fe9e42678db8486590c732ca6c3803a10a86f50b92"
      },
      "signature": "304402206f63cb9f57ce324e3f1eb0f0ba234db4709ee3aae3cb545f0cb074f013fc57bc022039bf7ee4fc9f9759cfcd6ea13479610c3f1d9332a101326ca5f0b7d31fae1c8a",
      "confirmations": 692,
      "transactions": 0,
      "timestamp": { "epoch": 103294960, "unix": 1593396160, "human": "2020-06-29T02:02:40.000Z" }
    },
    {
      "id": "03e024586c1d56b8b96665cf95a8e5ebc136b35e4df47bfdc4b9ef46e168793e",
      "version": 0,
      "height": 12763937,
      "previous": "d549c3fc885cb6d21778be7b3d6605681e85a69e21b97116a63e04b585ee8368",
      "forged": { "reward": "200000000", "fee": "0", "total": "200000000", "amount": "0" },
      "payload": { "hash": "e3b0c44298fc1c149afbf4c8996fb92427ae41e4649b934ca495991b7852b855", "length": 0 },
      "generator": {
        "username": "biz_classic",
        "address": "AKdr5d9AMEnsKYxpDcoHdyyjSCKVx3r9Nj",
        "publicKey": "020431436cf94f3c6a6ba566fe9e42678db8486590c732ca6c3803a10a86f50b92"
      },
      "signature": "304402204a2ecc2498f26b75d7e2f4769ea5f5587e0c6f0eca093acd4f541ccb0ae1c789022043d7f624cd91b8b88998f1547974d5307650fb55c22a72e66a53c38105e2fe99",
      "confirmations": 748,
      "transactions": 0,
      "timestamp": { "epoch": 103294512, "unix": 1593395712, "human": "2020-06-29T01:55:12.000Z" }
    },
    {
      "id": "e8b3dc1f7938903e5af7dd99d02e185c0f6ec2f27969f764248a160c77fa5ec0",
      "version": 0,
      "height": 12763894,
      "previous": "c65f8886f43c54e5ba0f0030665f32b5e9d2c2d113684f942bb5229cc5173c26",
      "forged": { "reward": "200000000", "fee": "0", "total": "200000000", "amount": "0" },
      "payload": { "hash": "e3b0c44298fc1c149afbf4c8996fb92427ae41e4649b934ca495991b7852b855", "length": 0 },
      "generator": {
        "username": "biz_classic",
        "address": "AKdr5d9AMEnsKYxpDcoHdyyjSCKVx3r9Nj",
        "publicKey": "020431436cf94f3c6a6ba566fe9e42678db8486590c732ca6c3803a10a86f50b92"
      },
      "signature": "3045022100f3123f3587373f8ea630a657e54772dcd4db420be8020ed08a657f6dfb9e3780022022b012409e715a652107b210b8bec1745dc738e6821685da0b52f0d03ed4f6ed",
      "confirmations": 791,
      "transactions": 0,
      "timestamp": { "epoch": 103294168, "unix": 1593395368, "human": "2020-06-29T01:49:28.000Z" }
    },
    {
      "id": "ef4dca3661776473ee14bbd9eaa4bf3d0b65f6dcca14f77edf15702596424b3c",
      "version": 0,
      "height": 12763856,
      "previous": "4c3a4fa523c80df1729d1620851b6c8a3f26153f50435e6d7c9e40152c019564",
      "forged": { "reward": "200000000", "fee": "0", "total": "200000000", "amount": "0" },
      "payload": { "hash": "e3b0c44298fc1c149afbf4c8996fb92427ae41e4649b934ca495991b7852b855", "length": 0 },
      "generator": {
        "username": "biz_classic",
        "address": "AKdr5d9AMEnsKYxpDcoHdyyjSCKVx3r9Nj",
        "publicKey": "020431436cf94f3c6a6ba566fe9e42678db8486590c732ca6c3803a10a86f50b92"
      },
      "signature": "30440220286711125d72837bf1594dcf47c5e5702df456d5c93fc5e85b66f2b2520d752e02200e84ebdad0691d1345b6e41325cd6e13bf1805dbf4b4079135d03f5774617bb0",
      "confirmations": 829,
      "transactions": 0,
      "timestamp": { "epoch": 103293864, "unix": 1593395064, "human": "2020-06-29T01:44:24.000Z" }
    },
    {
      "id": "583d637dbca668e5e39b4948246591f33729b11425cba10ea479654fd9920dc8",
      "version": 0,
      "height": 12763772,
      "previous": "e0b618d18cdcd05d5592aff2829faf8468ba5735be38986a128436e8a9441a75",
      "forged": { "reward": "200000000", "fee": "0", "total": "200000000", "amount": "0" },
      "payload": { "hash": "e3b0c44298fc1c149afbf4c8996fb92427ae41e4649b934ca495991b7852b855", "length": 0 },
      "generator": {
        "username": "biz_classic",
        "address": "AKdr5d9AMEnsKYxpDcoHdyyjSCKVx3r9Nj",
        "publicKey": "020431436cf94f3c6a6ba566fe9e42678db8486590c732ca6c3803a10a86f50b92"
      },
      "signature": "304402204e72e0ea42c1f3211afc5d944e27871fcbe5e4ed373d42b698ffe5e513412ba9022074d88be18876d9cc32f852ac56a64ea546fe09c3439f163f94546f8f63646cf0",
      "confirmations": 913,
      "transactions": 0,
      "timestamp": { "epoch": 103293192, "unix": 1593394392, "human": "2020-06-29T01:33:12.000Z" }
    },
    {
      "id": "fb9444719bbb566c99261df3da5a3affae731bc1e17414c09bea1337403bb0bd",
      "version": 0,
      "height": 12763721,
      "previous": "e6e12b8ee7d7e779a047659ced2bb4b28daa012f84f943f78e5754d89dbf2262",
      "forged": { "reward": "200000000", "fee": "0", "total": "200000000", "amount": "0" },
      "payload": { "hash": "e3b0c44298fc1c149afbf4c8996fb92427ae41e4649b934ca495991b7852b855", "length": 0 },
      "generator": {
        "username": "biz_classic",
        "address": "AKdr5d9AMEnsKYxpDcoHdyyjSCKVx3r9Nj",
        "publicKey": "020431436cf94f3c6a6ba566fe9e42678db8486590c732ca6c3803a10a86f50b92"
      },
      "signature": "3045022100e7fddbd37d3d313c6283afbf53baa1120d01e6eb42c1af0ec9240ed07b357a9402201769ff72f9951748dbf905b2e1607ba301bcd5f489cd0d905665966a42aed103",
      "confirmations": 964,
      "transactions": 0,
      "timestamp": { "epoch": 103292784, "unix": 1593393984, "human": "2020-06-29T01:26:24.000Z" }
    },
    {
      "id": "4e2f4df64ea5843b351a261f391f426572ab183a906c804faf658d42bc97e0e0",
      "version": 0,
      "height": 12763694,
      "previous": "565e8fee20fbb7504a7d36570fdea06480b874420e8281160213790b68b64e5f",
      "forged": { "reward": "200000000", "fee": "0", "total": "200000000", "amount": "0" },
      "payload": { "hash": "e3b0c44298fc1c149afbf4c8996fb92427ae41e4649b934ca495991b7852b855", "length": 0 },
      "generator": {
        "username": "biz_classic",
        "address": "AKdr5d9AMEnsKYxpDcoHdyyjSCKVx3r9Nj",
        "publicKey": "020431436cf94f3c6a6ba566fe9e42678db8486590c732ca6c3803a10a86f50b92"
      },
      "signature": "3045022100f528dc9a82f54a36c723d84f49288023b56d80192956d534ab2f0b7ea5bd9ece022018509f52978ad3e9e31f81f062c9298af9f9997f94799ed1360c69f5bd90fb76",
      "confirmations": 991,
      "transactions": 0,
      "timestamp": { "epoch": 103292568, "unix": 1593393768, "human": "2020-06-29T01:22:48.000Z" }
    },
    {
      "id": "6e4bad7ebfa937869022f2b757d334810abe1f5d1e52b9306cbbc2f309f81af5",
      "version": 0,
      "height": 12763652,
      "previous": "8db12b103d3963f2e5f50296b0547ae4311813af95579ac72caa99a0def65ad3",
      "forged": { "reward": "200000000", "fee": "0", "total": "200000000", "amount": "0" },
      "payload": { "hash": "e3b0c44298fc1c149afbf4c8996fb92427ae41e4649b934ca495991b7852b855", "length": 0 },
      "generator": {
        "username": "biz_classic",
        "address": "AKdr5d9AMEnsKYxpDcoHdyyjSCKVx3r9Nj",
        "publicKey": "020431436cf94f3c6a6ba566fe9e42678db8486590c732ca6c3803a10a86f50b92"
      },
      "signature": "3045022100de2df50abdc3bd55ee097c5138fffb8793cd4ab93743b00f7494a3fc83e95de602206e0003f6900a878030fa99d3f9fa2c081adfde6c9820c41438f72cc3aaa21cb8",
      "confirmations": 1033,
      "transactions": 0,
      "timestamp": { "epoch": 103292232, "unix": 1593393432, "human": "2020-06-29T01:17:12.000Z" }
    },
    {
      "id": "1469b9dc4cc15ae272efcf4d74df9bb42f60939c9f7e3dd8c5cd51edc9dcb1d9",
      "version": 0,
      "height": 12763599,
      "previous": "fd028890c1972fc3e5f06bbf365b2d921937550ccace95ce23896d4e1df9580b",
      "forged": { "reward": "200000000", "fee": "0", "total": "200000000", "amount": "0" },
      "payload": { "hash": "e3b0c44298fc1c149afbf4c8996fb92427ae41e4649b934ca495991b7852b855", "length": 0 },
      "generator": {
        "username": "biz_classic",
        "address": "AKdr5d9AMEnsKYxpDcoHdyyjSCKVx3r9Nj",
        "publicKey": "020431436cf94f3c6a6ba566fe9e42678db8486590c732ca6c3803a10a86f50b92"
      },
      "signature": "304402204cd9cf3decc1265e9a26ca0718439de68a94c3bd1365e398fa4c1efdd07f294302207fa252c42139aca2899ab9a9d159492da80f0f714add2a974edf4a87639d1183",
      "confirmations": 1086,
      "transactions": 0,
      "timestamp": { "epoch": 103291808, "unix": 1593393008, "human": "2020-06-29T01:10:08.000Z" }
    },
    {
      "id": "9d4a762044f10f4ae002d491d2782bc8c051f49165024d4d19847bd2cbbeb3ad",
      "version": 0,
      "height": 12763531,
      "previous": "59a5e40cb8cacb9427a402eeeee06e38743b78f7f78d9e9f529e4e92f960f9f5",
      "forged": { "reward": "200000000", "fee": "0", "total": "200000000", "amount": "0" },
      "payload": { "hash": "e3b0c44298fc1c149afbf4c8996fb92427ae41e4649b934ca495991b7852b855", "length": 0 },
      "generator": {
        "username": "biz_classic",
        "address": "AKdr5d9AMEnsKYxpDcoHdyyjSCKVx3r9Nj",
        "publicKey": "020431436cf94f3c6a6ba566fe9e42678db8486590c732ca6c3803a10a86f50b92"
      },
      "signature": "3045022100dc55a78a9f54f3b3074a9126ba5ce17dae24d07f2317122696d680598232902f02207372003b227ba490d23463f3e7fae994fbd2f943c438f379547306c335d349f5",
      "confirmations": 1154,
      "transactions": 0,
      "timestamp": { "epoch": 103291264, "unix": 1593392464, "human": "2020-06-29T01:01:04.000Z" }
    },
    {
      "id": "71c36310938d43ca2c2f9c94bddccbac6777daa8960e6d5091fdaee6ea0bfa46",
      "version": 0,
      "height": 12763487,
      "previous": "c524a41ed960dd957a0aaf2142cd66d6eeffa456f8877148c4c8d8debbdf378c",
      "forged": { "reward": "200000000", "fee": "0", "total": "200000000", "amount": "0" },
      "payload": { "hash": "e3b0c44298fc1c149afbf4c8996fb92427ae41e4649b934ca495991b7852b855", "length": 0 },
      "generator": {
        "username": "biz_classic",
        "address": "AKdr5d9AMEnsKYxpDcoHdyyjSCKVx3r9Nj",
        "publicKey": "020431436cf94f3c6a6ba566fe9e42678db8486590c732ca6c3803a10a86f50b92"
      },
      "signature": "3045022100f5884d9bc9ebc9f67a53c254308e3a316cceab25d4e9693bbb0939860960452f02206d71ab314d9bfd5ae846b3afe061485daa02c5d2883dcb050b9be0841788c3f9",
      "confirmations": 1198,
      "transactions": 0,
      "timestamp": { "epoch": 103290912, "unix": 1593392112, "human": "2020-06-29T00:55:12.000Z" }
    },
    {
      "id": "8ec096fd1bc76b123180fbf33ce862716a53b110c2626c18d71f7a2cac38472d",
      "version": 0,
      "height": 12763463,
      "previous": "ff397f61272e57d43efc514a9c02e67a3ef95c8b8eebfb14e810efa575c32000",
      "forged": { "reward": "200000000", "fee": "0", "total": "200000000", "amount": "0" },
      "payload": { "hash": "e3b0c44298fc1c149afbf4c8996fb92427ae41e4649b934ca495991b7852b855", "length": 0 },
      "generator": {
        "username": "biz_classic",
        "address": "AKdr5d9AMEnsKYxpDcoHdyyjSCKVx3r9Nj",
        "publicKey": "020431436cf94f3c6a6ba566fe9e42678db8486590c732ca6c3803a10a86f50b92"
      },
      "signature": "304402206d02bed138d16c0a1b77aaeed218c4c16d36ac5828c35788116dcd45f4218b3002205a8fa3d2cf65b6dc30275ea95aceddfdd67a37e503577d1703ba7a7d76074229",
      "confirmations": 1222,
      "transactions": 0,
      "timestamp": { "epoch": 103290720, "unix": 1593391920, "human": "2020-06-29T00:52:00.000Z" }
    }
  ]
}
