{
  "meta": {
    "totalCountIsEstimate": false,
    "count": 25,
    "pageCount": 26,
    "totalCount": 647,
    "next": "/blocks/search?page=2&limit=25&transform=true",
    "previous": null,
    "self": "/blocks/search?page=1&limit=25&transform=true",
    "first": "/blocks/search?page=1&limit=25&transform=true",
    "last": "/blocks/search?page=26&limit=25&transform=true"
  },
  "data": [
    {
      "id": "4639cace20a47be8d0c9e37078d432d0731b669c83edd9a91c05837cdab1cbd7",
      "version": 0,
      "height": 12699340,
      "previous": "6e7a7f300887c57164d73be4e67a86e3b1c863f23e03034c82ff06f18db07ee5",
      "forged": { "reward": "200000000", "fee": "2500000000", "total": "2700000000", "amount": "0" },
      "payload": { "hash": "4dc240426d79f63c3fc6320f93da877e8d9c82970ea84e6e888085916351a292", "length": 32 },
      "generator": {
        "username": "kolap",
        "address": "AQwTP4kT6rdE9ASyY3sbcMLyWKp4diKtjC",
        "publicKey": "02b54f00d9de5a3ace28913fe78a15afcfe242926e94d9b517d06d2705b261f992"
      },
      "signature": "3045022100b51ec64ab832049954c0db59e7655b2a7b664203ca1e3937b5c8dc2e80c02556022021c5a9d6d857bcaf4f59b3de3d31adecf020929303384eaf7d82274c22c08111",
      "confirmations": 65341,
      "transactions": 1,
      "timestamp": { "epoch": 102777704, "unix": 1592878904, "human": "2020-06-23T02:21:44.000Z" }
    },
    {
      "id": "388aee5345cd379f013dd10bda050b05e385fec2ee058c4b1644f55ddc284aac",
      "version": 0,
      "height": 12308898,
      "previous": "a7bbc57c376d7306714fa622ef7e148b376e421bfb9921ab229d1f8385cf6d40",
      "forged": { "reward": "200000000", "fee": "2500000000", "total": "2700000000", "amount": "0" },
      "payload": { "hash": "3af4ab3826380f053bf7acba785f1f0917fac42f68710bb4c63568e154c012e4", "length": 32 },
      "generator": {
        "username": "arkworld",
        "address": "AeaqhUKfBtVqNhtMct3piBiWfdhbRwbg4W",
        "publicKey": "0257581c82d1931c4b0b2df9d658ecd303fcf2a6ea4ec291669ed06f44fb75c8fe"
      },
      "signature": "3044022045f6784044a41049df306ed310e884207e424fd4ef6b7082caf07fc52e8ff555022004d74e3d1cc3aa973b71f30c077936a064d5323427e4fa80a92e2bf9bd16838a",
      "confirmations": 455783,
      "transactions": 1,
      "timestamp": { "epoch": 99651904, "unix": 1589753104, "human": "2020-05-17T22:05:04.000Z" }
    },
    {
      "id": "74ce761061532d246eaaf71eaf543125a2894b508703e07269b5a67753f13aeb",
      "version": 0,
      "height": 11938019,
      "previous": "4733c799e0d4fdcdb1f055bdc3469f3c9942c33db778c8847e2c198e80a04a6e",
      "forged": { "reward": "200000000", "fee": "2500000000", "total": "2700000000", "amount": "0" },
      "payload": { "hash": "4ebc16af64f7e4ff00a5bfef96ba052ed3102ff6febbdde7a757626f3c5c3df5", "length": 32 },
      "generator": {
        "username": "pitbull",
        "address": "APRt1h4Mrimbjuqm8deiYpuX1wpaM7dfNb",
        "publicKey": "03dff448e2fe490aff1665da1e217f39ac8b6715e5ecfdfec20bc150da70ef5153"
      },
      "signature": "3044022038e7bde462c760d694fcaee6f6cb015c520cb868d15f308187b130696fdb5fa702206d7c25746099f08bf382d514f9ba4ac0c9f0871991390e77d4370686fd729e81",
      "confirmations": 826662,
      "transactions": 1,
      "timestamp": { "epoch": 96681576, "unix": 1586782776, "human": "2020-04-13T12:59:36.000Z" }
    },
    {
      "id": "332f2fefd56141a10d0d8e960ccb804537720763bd95f1192c97bdff1988d1e8",
      "version": 0,
      "height": 11379902,
      "previous": "aa1bf4c7e56ba31dd2b0d6a241ea34767596b0920f60ced77d18d8debc9e4952",
      "forged": { "reward": "200000000", "fee": "2500000000", "total": "2700000000", "amount": "0" },
      "payload": { "hash": "237af9a828b66285bf96dbff103acc643e959a1bb1e73286ee3eef2100f1f7c7", "length": 32 },
      "generator": {
        "username": "espresso",
        "address": "AXBXtYnbvCT6dEYXN67psZvJhBDH3W5kDX",
        "publicKey": "0239e196716cb5242f0ba7ea25372fa22a8fab03cc1b5dd2575f0275cdefc0e957"
      },
      "signature": "3045022100ea1083088b6851614f91d70b1db9290bab50fa4c93c8d3545688b281a3c2a468022058b549f1b8f85314c59fbef19b184dda61e5f9cccc7bc374ea7156bfe7bd7c72",
      "confirmations": 1384779,
      "transactions": 1,
      "timestamp": { "epoch": 92210672, "unix": 1582311872, "human": "2020-02-21T19:04:32.000Z" }
    },
    {
      "id": "bad2688cf62623e83067cec56521cb60292ad80f49017b90c7e28d03d9398f6f",
      "version": 0,
      "height": 11341484,
      "previous": "ac99f25fcb6a2a419aa977142647e021717ba0fb4c39e3e7693f60bc473490f9",
      "forged": { "reward": "200000000", "fee": "2500000000", "total": "2700000000", "amount": "0" },
      "payload": { "hash": "2802c6563c3f71cb898b4e8bca1d6d013c04aeda64ca450355d47914012ad374", "length": 32 },
      "generator": {
        "username": "dated",
        "address": "AR7Hi2yU6GzMPJQgbLM8LKNPNmLPKnthGA",
        "publicKey": "02cb93172a19a66e236baedb382b3c9013ddd4238c89e6eb739d20b362010c00c1"
      },
      "signature": "3044022100878eba01565bd420e89ea14b394155c477bcdac8b4c9a5b11cb3d22e8420f1ec021f5eb093003d956b647f14d6b50a1e5b3017499d58fdc9398e2890be8b7a21ca",
      "confirmations": 1423197,
      "transactions": 1,
      "timestamp": { "epoch": 91900688, "unix": 1582001888, "human": "2020-02-18T04:58:08.000Z" }
    },
    {
      "id": "de13cfa1567d33208deb250a8fd8f2d035e1974d6728b39c0f5bb6b7a53e5a8b",
      "version": 0,
      "height": 11316092,
      "previous": "0d8d8f1ac43ba7aab8917072cc2ac9f756ed73cee0c9fb66be4246f07585ae35",
      "forged": { "reward": "200000000", "fee": "2500000000", "total": "2700000000", "amount": "0" },
      "payload": { "hash": "f6ad99f6c1f57786ca8da4fd814b3cfdc8d6068c82bf48bad97473e6a4875002", "length": 32 },
      "generator": {
        "username": "rasputin",
        "address": "AdBSvLKPp6pMp5ZDsxkgjFu6KeCokncSMk",
        "publicKey": "034682a4c4d2c8c0bc5f966dd422a83d2b433e212ef1f334f82cc3fe4676240933"
      },
      "signature": "3045022100defba9b80e049ff6e2eee73fe5e8b53692600999a924db698241fc97b10c26bd02200837289e9b60fd9152e9f3adcca016417fc74c15ae80038fe88a3a5e841e410d",
      "confirmations": 1448589,
      "transactions": 1,
      "timestamp": { "epoch": 91696192, "unix": 1581797392, "human": "2020-02-15T20:09:52.000Z" }
    },
    {
      "id": "9eff8eafee7ef358d59ac751a63e2e02b148b4acf42abc2dddb2b720a5ad6dce",
      "version": 0,
      "height": 11276608,
      "previous": "ee6ee9df525fa00a0f6a0aa8e521f930cc068450d4819aa71cb11c922aa8f6dd",
      "forged": { "reward": "200000000", "fee": "2500000000", "total": "2700000000", "amount": "0" },
      "payload": { "hash": "81d7bd1acc862dbf2ef8c08a8793599a2d37759000eb9e61626cfdb7737713eb", "length": 32 },
      "generator": {
        "username": "deadlock",
        "address": "AcNiPbV1XZ7wkFwoBD3NjpSGFEkyohYLER",
        "publicKey": "036efbf08c18a338a0475920317c7c771dcd73fc1966cf9f2036ece3fb4ed5bad0"
      },
      "signature": "3044022012a707f70b13e27bfc1873b92481c8cd62c467bd07e5065b1e2224de5ec3baa102205d1daa4077128f2f4d86e381e00f01d138b400772a27e27fac4a87899680183e",
      "confirmations": 1488073,
      "transactions": 1,
      "timestamp": { "epoch": 91377488, "unix": 1581478688, "human": "2020-02-12T03:38:08.000Z" }
    },
    {
      "id": "f897b5a6b90570b252f97baf3ee2b2788ace716b7249fcfb3c4052b81df324d3",
      "version": 0,
      "height": 11234229,
      "previous": "fd5c47f18d08e175e84a9d3245d488f49272d38b35c0f27f1c7417bbe93edb0c",
      "forged": { "reward": "200000000", "fee": "2500000000", "total": "2700000000", "amount": "0" },
      "payload": { "hash": "23df32ad7cbfaa852470d067625f72468cbb25686a55ade5abb41d71c5532248", "length": 32 },
      "generator": {
        "username": "calidelegate",
        "address": "AMvZYkTSMXCqFLPP4bxJyq84FfMg9m2V81",
        "publicKey": "037b4730e7c63252912825510423487e9ee507e1a5719dfeef52187d8ababe3048"
      },
      "signature": "3044022056ecd195a6a35eb6f27df087b43df5b329bade6c3b2f37686ec328223084971b02205dff00a35ae721877b3e1f49675005063a6493233d0948adbc560d5700b4e4e8",
      "confirmations": 1530452,
      "transactions": 1,
      "timestamp": { "epoch": 91029888, "unix": 1581131088, "human": "2020-02-08T03:04:48.000Z" }
    },
    {
      "id": "367f6d5de7121ed9d950082fe3e14d33d85961bf5edd6e88d42a64a8a8265443",
      "version": 0,
      "height": 11157405,
      "previous": "ecc31f978b9bd7f3a815cdadc088d41a6a3c74303baa0fad92cad88c86dff25a",
      "forged": { "reward": "200000000", "fee": "2500000000", "total": "2700000000", "amount": "0" },
      "payload": { "hash": "2a7fa4763d0ce0983365a1866d092027d5251ffda476c4e5c91947d7f9c85f40", "length": 32 },
      "generator": {
        "username": "firefly",
        "address": "AJJQJky7gt5RY36WKY1weU8yZH1m6AjyF6",
        "publicKey": "029d3235d0b5e22f65eb91f682b4e01e48c66aa079d739259ef1fdd13384282c2f"
      },
      "signature": "304402202cfe99678f322c76fff8c73fe32bcdeb3e5af60e371dc650838a21ce8f2ec8fb02203c699ce7d638dfac4cfb7230cce24bbaea080c8a6c6efffc4fb8ef90fab33632",
      "confirmations": 1607276,
      "transactions": 1,
      "timestamp": { "epoch": 90415216, "unix": 1580516416, "human": "2020-02-01T00:20:16.000Z" }
    },
    {
      "id": "c869685fb9e89afd3bb8310120496bd9f7de3963c6b9290ddddc26a1d120bff7",
      "version": 0,
      "height": 11088612,
      "previous": "5663cbd7129903f8dbc6bc7dddef3140def61e36929b6e807ea245ccd25a0a76",
      "forged": { "reward": "200000000", "fee": "2500000000", "total": "2700000000", "amount": "0" },
      "payload": { "hash": "c6145cc632272a199f793790c0112db37a740393ce72205763c702a71fea8846", "length": 32 },
      "generator": {
        "username": "dutchdelegate",
        "address": "AZse3vk8s3QEX1bqijFb21aSBeoF6vqLYE",
        "publicKey": "0218b77efb312810c9a549e2cc658330fcc07f554d465673e08fa304fa59e67a0a"
      },
      "signature": "304402207e137dd911d8fcd40cf7cf177b6179fbd96e3907defb04261a611abf6719ce5502204981ea757622a2cf514c0ff503bc9851dabaef82454f8b29cb1c02136a7b5cf9",
      "confirmations": 1676069,
      "transactions": 1,
      "timestamp": { "epoch": 89864088, "unix": 1579965288, "human": "2020-01-25T15:14:48.000Z" }
    },
    {
      "id": "cc9b6b19c54e639275cfc585c669a701c41dfc301f1be99d8adada1e9d95756f",
      "version": 0,
      "height": 10968721,
      "previous": "9bc4709ec6b58069feb423016164f755405a0aa091895a0ca61b8b844552afcc",
      "forged": { "reward": "200000000", "fee": "2500000000", "total": "2700000000", "amount": "0" },
      "payload": { "hash": "ac4b225f3f623a4b4d61c65fc6956659a2c4f1d73ede775ca9666b5881ed0921", "length": 32 },
      "generator": {
        "username": "kaos",
        "address": "ARKpUXE23A5NmWEAjb975Nj5yn4cbpYwUe",
        "publicKey": "03c28f0c9d56bb30976830e75cce59b908fa1d2489d30a7e8ad494573deae23c20"
      },
      "signature": "304402204ae01e7888f7d63bae0103d39b940c34062284e299ad57f4e346a9104dce348a02206e74ab31d4711c6a0775fd98bc01f708354a1ab95c3020567ed1128aff59c5aa",
      "confirmations": 1795960,
      "transactions": 1,
      "timestamp": { "epoch": 88904352, "unix": 1579005552, "human": "2020-01-14T12:39:12.000Z" }
    },
    {
      "id": "6efcd7f6fb7985294d8d6ad9400abf5d81b13b90fdf3be4d4f1d45a45de803ba",
      "version": 0,
      "height": 10903092,
      "previous": "f298886c7de28aea4635187dea462fd9eee165130b3e28c7ecbbb7767849f13c",
      "forged": { "reward": "200000000", "fee": "2500000000", "total": "2700000000", "amount": "0" },
      "payload": { "hash": "708657c7b29ee274a7c1b43c5519b3d30f50c111c38259206b7f9e206e3db8ad", "length": 32 },
      "generator": {
        "username": "tibonos",
        "address": "AMdPL5Br3nsWyJB4LCB5qZ9cYnKBdVXKJi",
        "publicKey": "02bd74ba354e4533cbbb0d03076622c15917e2e1d65fe4c4c8294d6b4c57d667b4"
      },
      "signature": "3045022100b9fb64da4a01f2cd66b996eda943b1f0f56853ce62329300e5c634b808480e99022033b46c9994496434f4c996fc33193e19c982e2ade63c7d7539ff4c5f71cb29ea",
      "confirmations": 1861589,
      "transactions": 1,
      "timestamp": { "epoch": 88379072, "unix": 1578480272, "human": "2020-01-08T10:44:32.000Z" }
    },
    {
      "id": "78a343587abd8482edd3e54cd4a62da4db0a866dfb0806c406fcc9f619ce7b89",
      "version": 0,
      "height": 10845810,
      "previous": "3e8ad6e1608926e99e9103f33619991ed3bebc5ead38562507be4afe3f80e1b3",
      "forged": { "reward": "200000000", "fee": "2500000000", "total": "2700000000", "amount": "0" },
      "payload": { "hash": "f5a9ab51f444c75715fab73dfdc141203405caf650f37ff96fef790323d958cd", "length": 32 },
      "generator": {
        "username": "dutchdelegate",
        "address": "AZse3vk8s3QEX1bqijFb21aSBeoF6vqLYE",
        "publicKey": "0218b77efb312810c9a549e2cc658330fcc07f554d465673e08fa304fa59e67a0a"
      },
      "signature": "3045022100925fd3651f9a247a4a757572daa16b56c8a23656820e79821adc670c6a9671ab022057694395a58b45d53ab880d6b7fac0f120ac704a8760563ef1df0fad73bd4552",
      "confirmations": 1918871,
      "transactions": 1,
      "timestamp": { "epoch": 87920768, "unix": 1578021968, "human": "2020-01-03T03:26:08.000Z" }
    },
    {
      "id": "24d102185a41b463f0dbdf1295dbfd5c85f96201c009622ba285f4d84339899f",
      "version": 0,
      "height": 10691824,
      "previous": "7561f167d265580961b26dab2b7cb0b91820bd03ba2596b2e564e2186f76822a",
      "forged": { "reward": "200000000", "fee": "2500000000", "total": "2700000000", "amount": "0" },
      "payload": { "hash": "f4c0162b1e5e367bd06916c331a1ab070a4b848efe3bff97c871f303842d8531", "length": 32 },
      "generator": {
        "username": "bioly",
        "address": "AbUdMhk96FbzxH7vDYAwdyqUELmLopZV5x",
        "publicKey": "02c0b645f19ab304d25aae3add139edd9f6ca9fd0d98e57a808100de0e93832181"
      },
      "signature": "304402203806d2f4670ac6429a1aeb79e0e97232a3292ffb036256ae97a9e1f9daef5f2d02204a61cf10dfb5093d9e59d9f5aac9f284702fe45160d8a70588d84b154be475f3",
      "confirmations": 2072857,
      "transactions": 1,
      "timestamp": { "epoch": 86682120, "unix": 1576783320, "human": "2019-12-19T19:22:00.000Z" }
    },
    {
      "id": "907369f38b73b64c81e40ac31d6638d2a7fde6913414110f461691d976f1eacb",
      "version": 0,
      "height": 10671452,
      "previous": "053ea135a74fef7ffad93e40297b70787494338631c0fa43bdc90db7598284d1",
      "forged": { "reward": "200000000", "fee": "2500000000", "total": "2700000000", "amount": "0" },
      "payload": { "hash": "22080f61ac55db4f49fb6ad8aa588437a6ef6f1cb5a9d208d5cca65161488fc6", "length": 32 },
      "generator": {
        "username": "dutch_pool",
        "address": "AbxUBkEmEGb3kahQUKJ6LfqsKWGcy3nTij",
        "publicKey": "03242784474bc911c482861d18d5974c2c79ed61f931982e1ce42e3e3994559e41"
      },
      "signature": "3045022100d865c920b39c42c98a32d9f46cd7405d64474c488eaaa12d965def0d02279fd9022005c54b1137cb420be66970f63497fb9fa6bc54a1fca8bce94cf875a8d39df361",
      "confirmations": 2093229,
      "transactions": 1,
      "timestamp": { "epoch": 86518688, "unix": 1576619888, "human": "2019-12-17T21:58:08.000Z" }
    },
    {
      "id": "dfeba25f129f6a1346cf3f110d53d81b8046d0cd1684af0b0fb88e5439b30a22",
      "version": 0,
      "height": 10222726,
      "previous": "1a49e26beb9ec563b2ff6826cd6a90cb38e59dfffe187b8e288ffd89ffe6fa1a",
      "forged": { "reward": "200000000", "fee": "2500000000", "total": "2700000000", "amount": "0" },
      "payload": { "hash": "2250ed6ee3daa3c5c095dc04ba0d5a4b0ddca6d224949acd0944c22a218e9d93", "length": 32 },
      "generator": {
        "username": "cams_yellow_jacket",
        "address": "AGvhBGb4cCZnP2wUo1oCSi83LUtGDG7Y6X",
        "publicKey": "02902de3fcb257e9248e2ae668d2e314027f0ca05c1eb21e1c5817c7580014669f"
      },
      "signature": "3045022100a90e42a50e23af9142b28f63523c6a15b739dee9bd0251acc19b12f3ec380ef20220234120954200ff34786f754edb1360ee64cae5e663a159d423aa0fb2a583c115",
      "confirmations": 2541955,
      "transactions": 1,
      "timestamp": { "epoch": 82915432, "unix": 1573016632, "human": "2019-11-06T05:03:52.000Z" }
    },
    {
      "id": "51f454f869d2b40c2d2472458537a47d762376ca923c888c357be2258fc89f07",
      "version": 0,
      "height": 10219515,
      "previous": "57d31566dddf13077524d946a2cfcf4fb81a6f4835a43fe861366745123eee4d",
      "forged": { "reward": "200000000", "fee": "2500000000", "total": "2700000000", "amount": "0" },
      "payload": { "hash": "7df0ea98c7c5c123fc74465c4099c67fbb727a0503b0e5eb4dce2d06de912fee", "length": 32 },
      "generator": {
        "username": "mak",
        "address": "AeDzxthX3xWMqinkhJivC8jWb9WcrdSkQj",
        "publicKey": "028f870424990bfab175de3dc420c6bc58911136edd796c5f1aa028b35970b7460"
      },
      "signature": "304402200ff355cfa5d3bd20c85a202658cd06d9a4943c225fadf413c17874a2ae092d7c022074c2a15c40335d7c104580398a8b8014404741c058eb3a2396fa9b48ad7c91c1",
      "confirmations": 2545166,
      "transactions": 1,
      "timestamp": { "epoch": 82889208, "unix": 1572990408, "human": "2019-11-05T21:46:48.000Z" }
    },
    {
      "id": "17760674b639a62093baa2412ebf9a73125268f0e07015b8a3d8884972b32f3e",
      "version": 0,
      "height": 10126744,
      "previous": "e737d2385d3e7487fbc09b399938d3f0eace9b3b9b4e093f7645350d4533f694",
      "forged": { "reward": "200000000", "fee": "2500000000", "total": "2700000000", "amount": "0" },
      "payload": { "hash": "bcc2905967f09182979749e39c5646378a1afbe7b81d7f96bd59a85bbceb7363", "length": 32 },
      "generator": {
        "username": "civseed",
        "address": "AXJ225DmKCaGdnGtjSgAgD3biBpgf93Nrp",
        "publicKey": "02b02cae6c53adcbbe2b88e3f21fff9e3ceb8c2f028fdfaecff9d393696eaa3d07"
      },
      "signature": "3045022100cda2e11676c4099b79ca071a0b306b62899ed91074ec124a566367e4a683a3d502201ea258c0436b8f0c412fcf6d1165fe6283e2cc812fb6105cb2fabb04579fefdd",
      "confirmations": 2637937,
      "transactions": 1,
      "timestamp": { "epoch": 82146448, "unix": 1572247648, "human": "2019-10-28T07:27:28.000Z" }
    },
    {
      "id": "d464d098d80eb8c0b711846da5a37e4080c933407f87a9958e13b108d1a382cb",
      "version": 0,
      "height": 10114862,
      "previous": "607640b48c44499dffcf49a7876061489dfffb83f1dd55dd7eb5472d03ec2e67",
      "forged": { "reward": "200000000", "fee": "2500000000", "total": "2700000000", "amount": "0" },
      "payload": { "hash": "9f4bd97e5a1670a5c4cd3d4e431935aa56dff002a241fb28046bdc3b029010d5", "length": 32 },
      "generator": {
        "username": "rasputin",
        "address": "AdBSvLKPp6pMp5ZDsxkgjFu6KeCokncSMk",
        "publicKey": "034682a4c4d2c8c0bc5f966dd422a83d2b433e212ef1f334f82cc3fe4676240933"
      },
      "signature": "304402205a9d0cd270d7cfb1cafc534ca92daffcba1524bc0ce1478543dcd4491da7d2df02202d3edd3b79a12e1109eff6b7a0e238c350b21ef9857c3e166231e82c25ccdc0f",
      "confirmations": 2649819,
      "transactions": 1,
      "timestamp": { "epoch": 82051392, "unix": 1572152592, "human": "2019-10-27T05:03:12.000Z" }
    },
    {
      "id": "03be90639be9ef25bd7acb0c0551578cab8d0ad43306b7cccbbd557b1152d5cb",
      "version": 0,
      "height": 10017694,
      "previous": "f429f0ecf21d925c4b2ffaa820954c75bc46ab9a336df9d902aa4684f3c1c6e8",
      "forged": { "reward": "200000000", "fee": "2500000000", "total": "2700000000", "amount": "0" },
      "payload": { "hash": "0c5dceaba93c433b9b5da69a2e72df230db14adce2024b23900bef2bf1035967", "length": 32 },
      "generator": {
        "username": "superskeuo",
        "address": "APSu7jcJbBvKQRoi43x4JUe8oYDEuSuPEr",
        "publicKey": "0283fa8584d46cf9bd814a37439db275eb2fc3732cc0f9e553a33474c51ba5f74e"
      },
      "signature": "30440220437310aec700c859bfcfdc0972583f41db4870833c800b7d7b4d862ea46d74cd02204c3b66c0d0b82f904a11b15d6dd4cd0142c7c1fe80048fd2b0ebccaf28e26585",
      "confirmations": 2746987,
      "transactions": 1,
      "timestamp": { "epoch": 81273176, "unix": 1571374376, "human": "2019-10-18T04:52:56.000Z" }
    },
    {
      "id": "630933102ba1d0c7c0b5de3e8c96e4b910b8c06db54dd5b717e0e76063c85892",
      "version": 0,
      "height": 10003402,
      "previous": "6dbcadaea8c2ebf9bd27cab76580832490ae5bcf463df937749dee393b5daa1c",
      "forged": { "reward": "200000000", "fee": "2500000000", "total": "2700000000", "amount": "0" },
      "payload": { "hash": "ea0bd7b411d28157df6bf6d33b2b45c8ce0401e1acd6973e6abc7f06b5de84fb", "length": 32 },
      "generator": {
        "username": "arky",
        "address": "ARfDVWZ7Zwkox3ZXtMQQY1HYSANMB88vWE",
        "publicKey": "030da05984d579395ce276c0dd6ca0a60140a3c3d964423a04e7abe110d60a15e9"
      },
      "signature": "30440220014ccbf0d9817dc39f580a03b2e7dd127c3634b0b2fd3a8372b869c567c1ee8c02206c3c5fd01f3746c0110af1606bd52e38f27773d3101b3cfd8466e3abd0e74d38",
      "confirmations": 2761279,
      "transactions": 1,
      "timestamp": { "epoch": 81158800, "unix": 1571260000, "human": "2019-10-16T21:06:40.000Z" }
    },
    {
      "id": "c1886c1d13da9f5760e88eae89a24595f65a9efdda4cc8cd9458859087514a5e",
      "version": 0,
      "height": 10002884,
      "previous": "6b7a0c28187f78fe6bed89ea01dd8f5faa2a6663e0c8e8ba46821beb48abc0da",
      "forged": { "reward": "200000000", "fee": "2500000000", "total": "2700000000", "amount": "0" },
      "payload": { "hash": "8390a15f665047435a168d6c76aa94d02aea875b0e22b8d1f8a6472e72e1f83c", "length": 32 },
      "generator": {
        "username": "biz_private",
        "address": "AaAy8BZkjV86YN7xUtZ35iwyXRMQKtKoAy",
        "publicKey": "02fa6902e91e127d6d3410f6abc271a79ae24029079caa0db5819757e3c1c1c5a4"
      },
      "signature": "30440220311b25ef78f5044dd671e36f83116d96f09a19a88bf584601a69fede340757c9022026959bd05990f7712493d57e6adcbaaa128b7907236cb96df96fdbc795b0311a",
      "confirmations": 2761797,
      "transactions": 1,
      "timestamp": { "epoch": 81154656, "unix": 1571255856, "human": "2019-10-16T19:57:36.000Z" }
    },
    {
      "id": "30064f1791e0cbf2203b3a53c830e2931e456835056119af3467e73b80a3df5a",
      "version": 0,
      "height": 9862381,
      "previous": "70ce19eb3986bb1e93d086321734c519ade3bc2700b218f4c7992f55b3880dc5",
      "forged": { "reward": "200000000", "fee": "2500000000", "total": "2700000000", "amount": "0" },
      "payload": { "hash": "07dfcf41c5cb6c9c3233263de7709321269862cb0cfc4b7488eadd3f882e3302", "length": 32 },
      "generator": {
        "username": "arkmoon",
        "address": "AKATy581uXWrbm8B4DTQh4R9RbqaWRiKRY",
        "publicKey": "0232b96d57ac27f9a99242bc886e433baa89f596d435153c9dae47222c0d1cecc3"
      },
      "signature": "304402204576a7faf7545f98c99ef7e85b14c2ff8c99c614bb932715e58eaf42b1c8bac7022023bb5623b865892c1f00555e4a6df944a2cf78cb73e263797e1f3b9958bb2be0",
      "confirmations": 2902300,
      "transactions": 1,
      "timestamp": { "epoch": 80029584, "unix": 1570130784, "human": "2019-10-03T19:26:24.000Z" }
    },
    {
      "id": "cdc6db98dc26e8ab82b0919368b3952a8b38defbc5df99b52896522b8ac7ef73",
      "version": 0,
      "height": 9172909,
      "previous": "25cf61d46c96769f58249b00ac83df0386792a24a02c95ce678c383be613ee8f",
      "forged": { "reward": "200000000", "fee": "2500000000", "total": "2700000000", "amount": "0" },
      "payload": { "hash": "d36b1f89c5309d163ce5c753868dce47a1ee376a664936c1e106bd36ab1a756d", "length": 32 },
      "generator": {
        "username": "cams_yellow_jacket",
        "address": "AGvhBGb4cCZnP2wUo1oCSi83LUtGDG7Y6X",
        "publicKey": "02902de3fcb257e9248e2ae668d2e314027f0ca05c1eb21e1c5817c7580014669f"
      },
      "signature": "3045022100edcb7422bceea3a67003fd550658bbe7a5a0216a44441e35d5a5e638d6a14639022002007974f69c556b089fd3e14aa637f6a705b9336c2697c34cc0ba646f787064",
      "confirmations": 3591772,
      "transactions": 1,
      "timestamp": { "epoch": 74505296, "unix": 1564606496, "human": "2019-07-31T20:54:56.000Z" }
    },
    {
      "id": "dbfe21dbae377e5fd8ace12219242465bc2a3bfdb8fe3e48c2f44b977b159318",
      "version": 0,
      "height": 9144163,
      "previous": "e50dff8d221b0881eb41a993682556467c51d0d153eb9ef04e95ee5c8d951b9e",
      "forged": { "reward": "200000000", "fee": "2500000000", "total": "2700000000", "amount": "0" },
      "payload": { "hash": "0519bba037e72e1ecd128aa859b11a8ad16912c9ceaf8c695e2dab1b2bc5f591", "length": 32 },
      "generator": {
        "username": "safu",
        "address": "AdxDQaXhquMZWQiZfyrzUKBtGbjHgf7UbP",
        "publicKey": "026ac78cb64ce4e9b6aafca55b79b467697bdf8919f0940d1d79e6132e4ff03c88"
      },
      "signature": "3044022009a2a6fbd1d82660eaf7fc05374547c45b15212c7725af51cbd63e2c44d6ffee02200f9f0d46876b95663be4152ddf5c5b16ad0e39bc404f3144423a581041467985",
      "confirmations": 3620518,
      "transactions": 1,
      "timestamp": { "epoch": 74275288, "unix": 1564376488, "human": "2019-07-29T05:01:28.000Z" }
    }
  ]
}
