{
  "meta": {
    "totalCountIsEstimate": false,
    "count": 1,
    "pageCount": 3,
    "totalCount": 3,
    "next": "/transactions?recipientId=APTzMNCTPsDj6VcL8egi2weXJFgHGmCZGp&limit=1&transform=true&page=2",
    "previous": null,
    "self": "/transactions?recipientId=APTzMNCTPsDj6VcL8egi2weXJFgHGmCZGp&limit=1&transform=true&page=1",
    "first": "/transactions?recipientId=APTzMNCTPsDj6VcL8egi2weXJFgHGmCZGp&limit=1&transform=true&page=1",
    "last": "/transactions?recipientId=APTzMNCTPsDj6VcL8egi2weXJFgHGmCZGp&limit=1&transform=true&page=3"
  },
  "data": [
    {
      "id": "d93f79cd8a44103bb19efb59a277f7b495ef727be0e2c63e4bc88e38e2bc0679",
      "blockId": "0b5f0ae975fbaca480a2508b4518c31d562836cc0532d1f3a78607d65289fad0",
      "version": 2,
      "type": 0,
      "typeGroup": 1,
      "amount": "10047289615",
      "fee": "7568788",
      "sender": "AZUx17FpyQJp3oicugf9jMUKTYAFbiFDbY",
      "senderPublicKey": "03dae3265501560eba0a5e52c9ada6e71fd982559bee5d66261f61a968d9f9b548",
      "recipient": "APTzMNCTPsDj6VcL8egi2weXJFgHGmCZGp",
      "signature": "a4adbd8012dcd41d9c5133d5200a51f1a2ad91346d4204330db62ab3f1eab269b313a629c98caf978bc53b0348ebd1f105c52863b28019bf3b9fbc3c49b1c1f3",
      "confirmations": 775636,
      "timestamp": { "epoch": 96846136, "unix": 1586947336, "human": "2020-04-15T10:42:16.000Z" },
      "nonce": "2"
    }
  ]
}
