{"meta":{"totalCountIsEstimate":false,"count":25,"pageCount":170281,"totalCount":4257019,"next":"/transactions?limit=25&transform=true&page=2","previous":null,"self":"/transactions?limit=25&transform=true&page=1","first":"/transactions?limit=25&transform=true&page=1","last":"/transactions?limit=25&transform=true&page=170281"},"data":[{"id":"10271b5a2991bd01194d677e11084af852ff6f1b793ea5fbaa5bb0764e6bca66","blockId":"6a3fdf6375f89aec2f6b23a55702c79858312faa5b71c8fb248342fe582fb5c6","version":2,"type":0,"typeGroup":1,"amount":"10260338725","fee":"10000000","sender":"AUexKjGtgsSpVzPLs6jNMM6vJ6znEVTQWK","senderPublicKey":"02ff171adaef486b7db9fc160b28433d20cf43163d56fd28fee72145f0d5219a4b","recipient":"AJh341nspPk8qihCk17umuJ5gX6TmKHK9L","signature":"28c0c1c5dcd96318d8ba819e31b652777ac36190dd7a6951515893f202080b58a6b171d850fb14aa0a25778ad12ba16d01998c20eb4288363e8ba8322a0575fe","confirmations":14,"timestamp":{"epoch":108273128,"unix":1598374328,"human":"2020-08-25T16:52:08.000Z"},"nonce":"124886"},{"id":"183b880b10f5018a50e2da7c27d512e892ad8fa3152869c8b45b0ba7e4ad9ddb","blockId":"c83aa8c373c16583c0facd42894e6e79cb2dd9f243f6b6fb6ac71d1735f0b61c","version":2,"type":0,"typeGroup":1,"amount":"593252530","fee":"10000000","sender":"ARBZM8oKx9uL6seimWyGEpLe2gWFcneU1j","senderPublicKey":"03b32c7f792e7139ee045e5848942b0f652ea771723f5a5c4092a99a094498b631","recipient":"AYxVWSJJfSsXKKjyb7yPVgHWszBzz53oTa","signature":"9adbd3a2f784bdef47a36484e3bb3a8879feabf91cca1e6b643537a2e8c2ced96e8204d27ff407f48d2075b9ee5df91652eb893197fb59cd017f32c6d08e7d18","confirmations":51,"timestamp":{"epoch":108272832,"unix":1598374032,"human":"2020-08-25T16:47:12.000Z"},"nonce":"1245"},{"id":"955300f7085f8517b1ae8b0a79a3fd968f36c3ee1b6c911af850b8d6bd919a4e","blockId":"7213f4bd39821cf9431b133e8c6675965253f38becb8590832695cf1ba03c14d","version":2,"type":0,"typeGroup":1,"amount":"100022799","fee":"816000","sender":"AKATy581uXWrbm8B4DTQh4R9RbqaWRiKRY","senderPublicKey":"0232b96d57ac27f9a99242bc886e433baa89f596d435153c9dae47222c0d1cecc3","recipient":"AQqJZ9wcmSCyUg6ucntWX9GXdWKyJvkpUi","signature":"2f09dbbe1acbd6747ecfa2e7679fe20a655607b81bb96a5983e504aa8e60dcde271144b6a14647060bf430f0c5aa69aa0e7006b44065a096bacb98f46f813150","signSignature":"1fa59410a52b9fd59b35e40026a8c4cf5d9334f861cba02257c62e37e831cda9575e1ad31dda99a8b3fefe7740cb52a3f64f3ac2440da309e6926c18d6cfc617","vendorField":"Payout from arkmoon","confirmations":79,"timestamp":{"epoch":108272608,"unix":1598373808,"human":"2020-08-25T16:43:28.000Z"},"nonce":"83605"},{"id":"e7b1008ee6d9787e71283d3ff34e7f6e6afca8fb901089cabb4536aa3d7621d8","blockId":"f9c14010d45237bc1d6e18e785ebce1275caef0d456036bb4881ced9735021a2","version":2,"type":0,"typeGroup":1,"amount":"75719780","fee":"1068000","sender":"AKBUegoaAoSq3bepmXmzUL7XeEt6ScVM98","senderPublicKey":"0344f455358055213235a21eff6deffa4d8ded38e43b9103e10184cc4c108ee81c","recipient":"AWM6GoNetgAGRMvZRCwiXqR2eRVZsDoCTw","signature":"c5bc38fd4929bb8550b2c5e8bd0cda83a1c16a20484dc185bfdb35dffc614c33a17484e6a7b4ef7cd192c7b5baa633fabb881b0ac54a33eb0f6f90919adfd896","signSignature":"84eb0a1369750ecde4094ae40380e7417c1b30c04a00f857046b903b5fa89544463793c8f5ec3d0fbce900a53652e800548d7f9b6652ec603cc8d8d0ecc0b48e","vendorField":"ghostfaceuk's voters share","confirmations":115,"timestamp":{"epoch":108272320,"unix":1598373520,"human":"2020-08-25T16:38:40.000Z"},"nonce":"36390"},{"id":"4b7c57e1075d809b82dd528dc3ab1a88d7423021416ac97176b8bc45a90a66f9","blockId":"f9c14010d45237bc1d6e18e785ebce1275caef0d456036bb4881ced9735021a2","version":2,"type":0,"typeGroup":1,"amount":"76354352","fee":"1068000","sender":"AKBUegoaAoSq3bepmXmzUL7XeEt6ScVM98","senderPublicKey":"0344f455358055213235a21eff6deffa4d8ded38e43b9103e10184cc4c108ee81c","recipient":"AN8zHp5Sdmdwm1gLCoEe9gBvALdQ28Cp9E","signature":"9353bb2e6fd1e6179c58e13508bb732ac01de7c539cdbf91f858bbe3abdbd4499655834cde1d84fcf1c73bc0bfc918b951ee625649a016a4c5f0909a20a961de","signSignature":"ac61cd8d64d319b1b437b4a7b115f3866f95fa2d40f5363c534ba54022e8d2302afc8e5048ca59a65844678e513bb0b1d6bf076353659d83d7dd94f193731d27","vendorField":"ghostfaceuk's voters share","confirmations":115,"timestamp":{"epoch":108272320,"unix":1598373520,"human":"2020-08-25T16:38:40.000Z"},"nonce":"36389"},{"id":"7668a9d009222ea36ec8a9508bb505a3b5423bd2750a7652e349ce4e55739066","blockId":"f9c14010d45237bc1d6e18e785ebce1275caef0d456036bb4881ced9735021a2","version":2,"type":0,"typeGroup":1,"amount":"80430062","fee":"1068000","sender":"AKBUegoaAoSq3bepmXmzUL7XeEt6ScVM98","senderPublicKey":"0344f455358055213235a21eff6deffa4d8ded38e43b9103e10184cc4c108ee81c","recipient":"Ab2A5vMGWf1HAz9c3LRitLWM3C6dDPg5Ue","signature":"8e1572f76c98f921e840b597bc8e9c79114759c8cb758412be10e5462e11933f30277cac5fbebec9c8706ec5bf19eeebd547ba802a9c9b8b9d9c90668da722ae","signSignature":"24fc98a91f8da0511f3d46366bb1c4e66513f89da727989b72532b1d6749d7b14af8c1e37be8a73cb5d66c38313d5f1130471e0d0472a4f135026df03db8ca49","vendorField":"ghostfaceuk's voters share","confirmations":115,"timestamp":{"epoch":108272320,"unix":1598373520,"human":"2020-08-25T16:38:40.000Z"},"nonce":"36388"},{"id":"e57a78d7d749805daa43072e9aa30eb0e7b8e3a1ee6376487f702d5d1853988c","blockId":"f9c14010d45237bc1d6e18e785ebce1275caef0d456036bb4881ced9735021a2","version":2,"type":0,"typeGroup":1,"amount":"83805376","fee":"1068000","sender":"AKBUegoaAoSq3bepmXmzUL7XeEt6ScVM98","senderPublicKey":"0344f455358055213235a21eff6deffa4d8ded38e43b9103e10184cc4c108ee81c","recipient":"AYGG6wXcXHotxhTzEZR9Ap4eAqZ8E9FCWG","signature":"3167996690d21407d94264ffb4ec6d0afe8bb91fe541bb057bdf580b849da18dc8c7b476ae117d956d765fd08288542c984310f0cc7dd91aeede20cbfe28e1eb","signSignature":"52774e4798e35d547c3bd39e356e2735d421629aa89f2b4932d36c349277e7a587f6384646ec258a3eedde0de0fe04c70d9d2cf5217792a6ad7ddbfde3ea6875","vendorField":"ghostfaceuk's voters share","confirmations":115,"timestamp":{"epoch":108272320,"unix":1598373520,"human":"2020-08-25T16:38:40.000Z"},"nonce":"36387"},{"id":"721da542ab3bdcf26439bf56d443c08f12d756e3690b4da5fb5cb8f602bddee4","blockId":"f9c14010d45237bc1d6e18e785ebce1275caef0d456036bb4881ced9735021a2","version":2,"type":0,"typeGroup":1,"amount":"84138357","fee":"1068000","sender":"AKBUegoaAoSq3bepmXmzUL7XeEt6ScVM98","senderPublicKey":"0344f455358055213235a21eff6deffa4d8ded38e43b9103e10184cc4c108ee81c","recipient":"ALCVcrzWfdLAYY1Pv8MnQTETeuNRo5Cdh2","signature":"095fe69146972daf516783e419af7cec68dbb57963bb8c3e57a5fec3c8920669b55cda8228d04cfda2b4819366d94651add67070dba8451554c07abb0e5dd7e0","signSignature":"b43d2366c94389b55e62dd1cd0108fd8c6f67cac50257bf80c6be7ab24303058f3973d1d10a857aa6201bad51c7ca1ff8e4a49174cc89ea4586b7ff8aa05dfc7","vendorField":"ghostfaceuk's voters share","confirmations":115,"timestamp":{"epoch":108272320,"unix":1598373520,"human":"2020-08-25T16:38:40.000Z"},"nonce":"36386"},{"id":"275cc0a0eb69c4358acdffa28aeeb43bc630fb2f5d7fc239bbcadf5237716b3d","blockId":"f9c14010d45237bc1d6e18e785ebce1275caef0d456036bb4881ced9735021a2","version":2,"type":0,"typeGroup":1,"amount":"84496293","fee":"1068000","sender":"AKBUegoaAoSq3bepmXmzUL7XeEt6ScVM98","senderPublicKey":"0344f455358055213235a21eff6deffa4d8ded38e43b9103e10184cc4c108ee81c","recipient":"ATo93jLhGYmqx9yBj4uvBgjsrAQCPephJb","signature":"479e7b0bbf095047d2cbd90a90720faafbf3598fa817c7e68970893384dd9d89eba49690a3d3ca103fffbb1de3699eba0df928d2b24370726131a79b0e74023a","signSignature":"6cee6c83756874032837a5a41934b06f47474ebb5383812d9da80bf5bca4baabf525b39ddffabb46142351ed2b1d72804658b7d1e6a4099c5cd3b4d7b0a0e423","vendorField":"ghostfaceuk's voters share","confirmations":115,"timestamp":{"epoch":108272320,"unix":1598373520,"human":"2020-08-25T16:38:40.000Z"},"nonce":"36385"},{"id":"00bbb45ed74a92fc015790d8d78859f1a8c6fc83adef8415a849b6f798058860","blockId":"f9c14010d45237bc1d6e18e785ebce1275caef0d456036bb4881ced9735021a2","version":2,"type":0,"typeGroup":1,"amount":"84497165","fee":"1068000","sender":"AKBUegoaAoSq3bepmXmzUL7XeEt6ScVM98","senderPublicKey":"0344f455358055213235a21eff6deffa4d8ded38e43b9103e10184cc4c108ee81c","recipient":"AHcUzrKPhdj2aCuReG6zzi1GWSFoB4GXGT","signature":"8358ea1a381f0031357760710b4e0faab3d93ee527de1109cd9cb272b067a6bd92cfa189495cdaa3679e457c6ae9c8c1879e0f9bd5ccbb114be88279a5bb1cba","signSignature":"8a369016b58f977118c6ec92a5b54aeaedabf7c59a308a0863bc021c92ea88eeef46d26a13963033db3bd4935d94843661103ba8a2566154695e181b9c8cdbcf","vendorField":"ghostfaceuk's voters share","confirmations":115,"timestamp":{"epoch":108272320,"unix":1598373520,"human":"2020-08-25T16:38:40.000Z"},"nonce":"36384"},{"id":"36e586bab8824c24877196377638c63a0d5efbd2fb215d7f0d46addb87f3e3b0","blockId":"f9c14010d45237bc1d6e18e785ebce1275caef0d456036bb4881ced9735021a2","version":2,"type":0,"typeGroup":1,"amount":"85567852","fee":"1068000","sender":"AKBUegoaAoSq3bepmXmzUL7XeEt6ScVM98","senderPublicKey":"0344f455358055213235a21eff6deffa4d8ded38e43b9103e10184cc4c108ee81c","recipient":"AQB1BWKFyFtJuui7Uz9BWjMftLgJgRzswa","signature":"6626bb80c8f20966d1b345f0958b72e6fd164d08860b63b9a0b31eddea9c547002bce3c968bd23239682397975503462c838ee83f9e9dba1913a86bf4884d852","signSignature":"7ca2635fc157138431fdd6d2e209af84f3d89daf959fd084ad230d6426fe18df1578c5b925f9759b618e49942c7113c1f327eadd492053c5c9851c97c5452287","vendorField":"ghostfaceuk's voters share","confirmations":115,"timestamp":{"epoch":108272320,"unix":1598373520,"human":"2020-08-25T16:38:40.000Z"},"nonce":"36383"},{"id":"065626d9ef48ff8685fd632a644f97c81e30cb11d3055da4dd9ac39e526fe9ac","blockId":"f9c14010d45237bc1d6e18e785ebce1275caef0d456036bb4881ced9735021a2","version":2,"type":0,"typeGroup":1,"amount":"91542172","fee":"1068000","sender":"AKBUegoaAoSq3bepmXmzUL7XeEt6ScVM98","senderPublicKey":"0344f455358055213235a21eff6deffa4d8ded38e43b9103e10184cc4c108ee81c","recipient":"AZB1DHmeWR9iCJdYkqTYJviApFDvdb9ZoV","signature":"41a6f43631689d39f1d4af213c2de7f91d577ffc1876d194d4ab487ad1ed091f4ae98f8f60932db2a2ea29be3e1f2596abb69bc6ee3f7f5e0f61d88c2b6eaf7e","signSignature":"19f558ffe96f97f001e3346edde3166c6430e5ff73fcf37f1b5864ca1ae4d44021452bcdeb0202619dca86b4cfa1e4af67742c8ec016dd6557623b290a7085c1","vendorField":"ghostfaceuk's voters share","confirmations":115,"timestamp":{"epoch":108272320,"unix":1598373520,"human":"2020-08-25T16:38:40.000Z"},"nonce":"36382"},{"id":"f3defff76a4cb2aa418954bb35aad8b292bb8e91297600aab0be314169e2008f","blockId":"f9c14010d45237bc1d6e18e785ebce1275caef0d456036bb4881ced9735021a2","version":2,"type":0,"typeGroup":1,"amount":"109267408","fee":"1068000","sender":"AKBUegoaAoSq3bepmXmzUL7XeEt6ScVM98","senderPublicKey":"0344f455358055213235a21eff6deffa4d8ded38e43b9103e10184cc4c108ee81c","recipient":"AaZzS73EpavzWaqqThYHLqS1tJRq7ryWmT","signature":"e97043115b89448b6593ea784e16475e5fd0796dbb6ca2b1cece8157ace806e9834bd12846934b4fdd8e2d6a5d678c57272fb010be7b540dbc3addc1c02d1c1a","signSignature":"9dba257d95f5d5ff25604dc57aa22d8ca471bbe49ec9246b8207f81c07abc35506111ee392e580d484e699949e3674e38107fe34a0f6ca58000660af67d2fc70","vendorField":"ghostfaceuk's voters share","confirmations":115,"timestamp":{"epoch":108272320,"unix":1598373520,"human":"2020-08-25T16:38:40.000Z"},"nonce":"36381"},{"id":"8d2d9559c4a831650ddc86f47ec06d762f7a98d148ab7bd661d55941fd521152","blockId":"f9c14010d45237bc1d6e18e785ebce1275caef0d456036bb4881ced9735021a2","version":2,"type":0,"typeGroup":1,"amount":"127824703","fee":"1068000","sender":"AKBUegoaAoSq3bepmXmzUL7XeEt6ScVM98","senderPublicKey":"0344f455358055213235a21eff6deffa4d8ded38e43b9103e10184cc4c108ee81c","recipient":"ARYiufmG4CH8tUn8LWUooN5UfoHDGb5wsX","signature":"7d28f363e28beedd422e06135a7d259644a722ef2c4f691314187cab3a76025f081bfba848841364e7e892f130cea96c6090af7f4ea55f1da677e1710ace4bb3","signSignature":"3e7b8d6d17ffc2e8c90613606b1a98d5f2c89eaa0a9ec535ebfd2c5b4d307b706971f2ab305169e7fb0378f5d6ec540a4ad5d572359c0e4daff0d03eac12cf39","vendorField":"ghostfaceuk's voters share","confirmations":115,"timestamp":{"epoch":108272320,"unix":1598373520,"human":"2020-08-25T16:38:40.000Z"},"nonce":"36380"},{"id":"3bc2ff08e60f4d527ab1d0b8601fef1f455905565c8d3c7c231bf3f5f3dde315","blockId":"f9c14010d45237bc1d6e18e785ebce1275caef0d456036bb4881ced9735021a2","version":2,"type":0,"typeGroup":1,"amount":"130925862","fee":"1068000","sender":"AKBUegoaAoSq3bepmXmzUL7XeEt6ScVM98","senderPublicKey":"0344f455358055213235a21eff6deffa4d8ded38e43b9103e10184cc4c108ee81c","recipient":"AHnhT9kiaAN2MLyxUpXhXqFsPnTeNByT6a","signature":"d5785aeaa9f3567f0038b76fab3f815decdebecc7ae6a2934403be36eb084e0d9100c786fdcc4ecd707e2bf54bcd7e12555178396c38d212b26a7a08b07d541f","signSignature":"9330c47a154954b8391bdba7f9fc65598b9e053579e2193c4c0ae6e12cf6d94bc7ceab430e8ee25a360dbb08171f6efa1dc574f7325bbb1c90483b2cd812c2c1","vendorField":"ghostfaceuk's voters share","confirmations":115,"timestamp":{"epoch":108272320,"unix":1598373520,"human":"2020-08-25T16:38:40.000Z"},"nonce":"36379"},{"id":"576d6ea27ec03dcc31d15253b90ff19fbc57a3ff47ff43cf5d5237ce667856f3","blockId":"f9c14010d45237bc1d6e18e785ebce1275caef0d456036bb4881ced9735021a2","version":2,"type":0,"typeGroup":1,"amount":"133553073","fee":"1068000","sender":"AKBUegoaAoSq3bepmXmzUL7XeEt6ScVM98","senderPublicKey":"0344f455358055213235a21eff6deffa4d8ded38e43b9103e10184cc4c108ee81c","recipient":"ATW2FSBaAmWU8HHdztHC3AsrCL9Xr1feWx","signature":"3a6e86049284a0cbfbe4e74ab897965141dc22b2754ca7949b7191c9e1f45490e0482e36f3bf3ba3e2f22506e15d15a5a03c80cf56f60a96279df3beebefba95","signSignature":"27d8299d9e00c0b7a8b889c07ad99de6708d1b444945c8ea5b5b43be3cae59316b9ecebde458488f549862b8b567a03ab1b18f6d2d0d93b6cbfbb86a0c3f05a5","vendorField":"ghostfaceuk's voters share","confirmations":115,"timestamp":{"epoch":108272320,"unix":1598373520,"human":"2020-08-25T16:38:40.000Z"},"nonce":"36378"},{"id":"cbd541b546e9d6b26d836db6df0a2003b820c851aca21cbeeb86f25e0edda09d","blockId":"f9c14010d45237bc1d6e18e785ebce1275caef0d456036bb4881ced9735021a2","version":2,"type":0,"typeGroup":1,"amount":"133604232","fee":"1068000","sender":"AKBUegoaAoSq3bepmXmzUL7XeEt6ScVM98","senderPublicKey":"0344f455358055213235a21eff6deffa4d8ded38e43b9103e10184cc4c108ee81c","recipient":"ATUhjhdEptNKmK4ELUbKn41J58gXpQgRhJ","signature":"935195e6afa1e58e74d23722357def981b37923281b23947aaa83e0a72550d3521acd9d37400e03b212749a05f9f8111be6b36b45b353bfc29f251cf45b48089","signSignature":"d5f777fd5c34804fc1de1778e6a8a5f970c605c81cf8c2289d78e6e3fe9234f3dc56331c3686ae359d0a5e013fb6bc3d0336fc42a4a796d3be4416f70226599f","vendorField":"ghostfaceuk's voters share","confirmations":115,"timestamp":{"epoch":108272320,"unix":1598373520,"human":"2020-08-25T16:38:40.000Z"},"nonce":"36377"},{"id":"24773825a2f2e8a67ee51b19fa9d0ab9af5fe06244b737dc0d3d465f5fc2b295","blockId":"f9c14010d45237bc1d6e18e785ebce1275caef0d456036bb4881ced9735021a2","version":2,"type":0,"typeGroup":1,"amount":"135037851","fee":"1068000","sender":"AKBUegoaAoSq3bepmXmzUL7XeEt6ScVM98","senderPublicKey":"0344f455358055213235a21eff6deffa4d8ded38e43b9103e10184cc4c108ee81c","recipient":"AQAvEnghsjN9PyDkSJpKRJqNM2oJzj5rPe","signature":"892ac9609304f85134629da0b738912ff41c572cb28d65a787c8583ddf1296e56d88a00a3d25437cb66ad1794b7b8183abaedc70aa9f942477e97bbe36d1fbe1","signSignature":"c270a1eb119fc4df318720e239f39c1e5cb8b0ce6f8cda12eecf1afcbbc736c64eeb265840c60952a5b04716b0022d55819297916c97ebd7939a44daf5c22f5c","vendorField":"ghostfaceuk's voters share","confirmations":115,"timestamp":{"epoch":108272320,"unix":1598373520,"human":"2020-08-25T16:38:40.000Z"},"nonce":"36376"},{"id":"f8e8871b6bd7d2ff1f031b5e307e4e8f4834a5330a6a37483d4565037517019f","blockId":"f9c14010d45237bc1d6e18e785ebce1275caef0d456036bb4881ced9735021a2","version":2,"type":0,"typeGroup":1,"amount":"135800395","fee":"1068000","sender":"AKBUegoaAoSq3bepmXmzUL7XeEt6ScVM98","senderPublicKey":"0344f455358055213235a21eff6deffa4d8ded38e43b9103e10184cc4c108ee81c","recipient":"ARdpHm5fDmtgRMafYyGKvuyvvkt57dQDUb","signature":"f07f003e564039faa7b0afcef92db303f384807565c028f53142c982d85fe3342edfc07c2a8c97d12fa49d40a3c7c3b7c111e7e870a36e97ffc7b38bb7650ed9","signSignature":"0ab3db831056b8881f0d4d3538d30fa34b3e7a2c33490d766986a32ef723d567bc22e84f87cfeeefe61a67892022889a99ed0809db86d8a6da60058840608d52","vendorField":"ghostfaceuk's voters share","confirmations":115,"timestamp":{"epoch":108272320,"unix":1598373520,"human":"2020-08-25T16:38:40.000Z"},"nonce":"36375"},{"id":"9570adea4dce2d4ddf00c1347b635dd9c2ee7a7fb345a493957076b299ccc92f","blockId":"f9c14010d45237bc1d6e18e785ebce1275caef0d456036bb4881ced9735021a2","version":2,"type":0,"typeGroup":1,"amount":"137108892","fee":"1068000","sender":"AKBUegoaAoSq3bepmXmzUL7XeEt6ScVM98","senderPublicKey":"0344f455358055213235a21eff6deffa4d8ded38e43b9103e10184cc4c108ee81c","recipient":"AHNiauyRd471XurppZFfQ7qAapLNrM4S5b","signature":"14ffe70c86253a21b27bb20ab3895ecbbe72b010813a1d386d8aabd440b3519aecf11a9f52f82224b5382c490522b5e57fc3ef7164fd5b4ee5459721371d6e38","signSignature":"89a5dd0f1f37bdb376c77446161daf89399002907c188f70cb5c612def5e65ef86f4bf88c870e96a08ca03bf7f9b7f3cf15621bc88c435cfaff3e7039030d5f7","vendorField":"ghostfaceuk's voters share","confirmations":115,"timestamp":{"epoch":108272320,"unix":1598373520,"human":"2020-08-25T16:38:40.000Z"},"nonce":"36374"},{"id":"7358ffb9454c837b376125e86f4037bf9b7c26af5e142ff0d31f6d44c73e188f","blockId":"f9c14010d45237bc1d6e18e785ebce1275caef0d456036bb4881ced9735021a2","version":2,"type":0,"typeGroup":1,"amount":"138405454","fee":"1068000","sender":"AKBUegoaAoSq3bepmXmzUL7XeEt6ScVM98","senderPublicKey":"0344f455358055213235a21eff6deffa4d8ded38e43b9103e10184cc4c108ee81c","recipient":"ALxTmSHKiaEsjd2bqygjpp2HDSu8mTyvf4","signature":"c96ced294515833feb1e919f8c7f2c7d3aeb92d3d0ef35f2ecda4e3f002a717ee6bab593ec9d2b896fba23cd2d09252f293827d6e554d5cc831d87d68c7f640e","signSignature":"c18599219dee5440e76324b958a0ed1c6e8aa54e0c2347a6f24ca045bf939967e42cc88e41c0b9a17c4b2c5447c6b9e7a3acb6533946ce23e5e855dd81fa70dd","vendorField":"ghostfaceuk's voters share","confirmations":115,"timestamp":{"epoch":108272320,"unix":1598373520,"human":"2020-08-25T16:38:40.000Z"},"nonce":"36373"},{"id":"e7469fd6aaee29ca40df1f54e7dffe7107d998bd5c9b25c16cce0d2cb0b7341a","blockId":"f9c14010d45237bc1d6e18e785ebce1275caef0d456036bb4881ced9735021a2","version":2,"type":0,"typeGroup":1,"amount":"142608976","fee":"1068000","sender":"AKBUegoaAoSq3bepmXmzUL7XeEt6ScVM98","senderPublicKey":"0344f455358055213235a21eff6deffa4d8ded38e43b9103e10184cc4c108ee81c","recipient":"ANRda5Q7gNcmDTtSe8xuN6qHPnWC9kmZQz","signature":"64002fb1ddce67f27f1137a3577796d02868cdd657a9e8415907dd13aaabd0780e3d6c5f7f2bab691c503e0d921df7916341a48e2b31ba71538f0a9c17f2b451","signSignature":"48df10fa808ac47f695bbd025434471e23f04c0622f862def4ce94d932fad8b9d58d6a85c51884128825dcd1803467d9d5a5f5a7f4a80e87e0d20971abd430cf","vendorField":"ghostfaceuk's voters share","confirmations":115,"timestamp":{"epoch":108272320,"unix":1598373520,"human":"2020-08-25T16:38:40.000Z"},"nonce":"36372"},{"id":"870e4ec4664e2d6085624f22b110bd47f5ca467eede7c35b8eb0510a111ddf95","blockId":"f9c14010d45237bc1d6e18e785ebce1275caef0d456036bb4881ced9735021a2","version":2,"type":0,"typeGroup":1,"amount":"156298747","fee":"1068000","sender":"AKBUegoaAoSq3bepmXmzUL7XeEt6ScVM98","senderPublicKey":"0344f455358055213235a21eff6deffa4d8ded38e43b9103e10184cc4c108ee81c","recipient":"AL9KKboau8jKtvD6WMGMBWutfbUeqkLK89","signature":"d8a0919ac2e04e1dda870f217bdd405e87118711da240e60918e20f240a17fe3611743e3facec4883f95dbf729855da915ba0453cc8ecc4fd5b6aeec1069d17d","signSignature":"611d52532a8f2f0113d56048a36f75266edbf9930ab4be6a4821723c73ac559a15335a39208ac94f848643aa2c85e2b1f7eac5ff2240a4ecc206236ae57f9c1e","vendorField":"ghostfaceuk's voters share","confirmations":115,"timestamp":{"epoch":108272320,"unix":1598373520,"human":"2020-08-25T16:38:40.000Z"},"nonce":"36371"},{"id":"f4cce7ae7d5f957704c05d1c6f27eb44e58d919d45c7e2e6d8ecd73752088d97","blockId":"f9c14010d45237bc1d6e18e785ebce1275caef0d456036bb4881ced9735021a2","version":2,"type":0,"typeGroup":1,"amount":"158142012","fee":"1068000","sender":"AKBUegoaAoSq3bepmXmzUL7XeEt6ScVM98","senderPublicKey":"0344f455358055213235a21eff6deffa4d8ded38e43b9103e10184cc4c108ee81c","recipient":"AWakoZKMZqgvcuDu8v1i591AxLtAoKSWT2","signature":"9e63797c76239db768426c66d3819c8742ffbf05318b6e3de524bcb3b9e94faab1331cbc927aab1ff6c2a53d32ebd75895de3919e952e612cc942002870d1adb","signSignature":"a5d3dc9710eff4f6db69b226e8b4a5405c1f128e63cd79472ceaf10da9f25666a6aa19c04aae1889ee93576858aed2c4189327446aefacf16461af4a22a6c13c","vendorField":"ghostfaceuk's voters share","confirmations":115,"timestamp":{"epoch":108272320,"unix":1598373520,"human":"2020-08-25T16:38:40.000Z"},"nonce":"36370"},{"id":"350ea0f88eebdfcedccb8c94954ffe0a0d546f0b8cd5dc08c133b32bf65cdc20","blockId":"f9c14010d45237bc1d6e18e785ebce1275caef0d456036bb4881ced9735021a2","version":2,"type":0,"typeGroup":1,"amount":"159469499","fee":"1068000","sender":"AKBUegoaAoSq3bepmXmzUL7XeEt6ScVM98","senderPublicKey":"0344f455358055213235a21eff6deffa4d8ded38e43b9103e10184cc4c108ee81c","recipient":"AdwJr69phVBqVw5G8D9uqrs1rpcweGzFgy","signature":"c58ad47f120369fd32a8e1052a38987510d741b70aba460fa6e438ea68c94504ac6c632774dce57b2c3b7a16a5817f4fc58ed626cce4ef4af4fd787603897c0a","signSignature":"6dac9f10c0a6d0056db36002a9c078b85f8baf6fa65dd0fc226613d23fe2fcbfcc31ae920762cc7cb3b4ba344635d908aeb4cc231c685f37733507b3f4659a13","vendorField":"ghostfaceuk's voters share","confirmations":115,"timestamp":{"epoch":108272320,"unix":1598373520,"human":"2020-08-25T16:38:40.000Z"},"nonce":"36369"}]}