{
  "meta": {
    "totalCountIsEstimate": false,
    "count": 25,
    "pageCount": 58,
    "totalCount": 1443,
    "next": "/wallets/AewxfHQobSc49a4radHp74JZCGP8LRe4xA/transactions?orderBy=timestamp%3Adesc&page=2&limit=25&transform=true",
    "previous": null,
    "self": "/wallets/AewxfHQobSc49a4radHp74JZCGP8LRe4xA/transactions?orderBy=timestamp%3Adesc&page=1&limit=25&transform=true",
    "first": "/wallets/AewxfHQobSc49a4radHp74JZCGP8LRe4xA/transactions?orderBy=timestamp%3Adesc&page=1&limit=25&transform=true",
    "last": "/wallets/AewxfHQobSc49a4radHp74JZCGP8LRe4xA/transactions?orderBy=timestamp%3Adesc&page=58&limit=25&transform=true"
  },
  "data": [
    {
      "id": "2c4acab5615c3cf4b3450d12e43853edb0c815c0b1369c707f5e091a182699f5",
      "blockId": "cc8ccfe3388f5653f7f6530bfca3db9e77f860f18589db0741999a2c3a2291a9",
      "version": 1,
      "type": 0,
      "typeGroup": 1,
      "amount": "4",
      "fee": "1000000",
      "sender": "AXU1TnZpM7bpuV5tPxDcKSWCNXSHmEDhmF",
      "senderPublicKey": "02ee9b09d6b3ae1c5e20a4053b73bec8eb0607fc93b3a2eeb6da1900f4d42d3c13",
      "recipient": "AewxfHQobSc49a4radHp74JZCGP8LRe4xA",
      "signature": "3045022100dbdaa2e0adb875d228ab4e5b37c3be047b0532509f6cc3027798077739b291410220056e2b44d80f6ac5742e15abc9cd9b64687205ee1f7dcfdb6f223e24be54b501",
      "vendorField": "OCD",
      "confirmations": 1524083,
      "timestamp": { "epoch": 90906372, "unix": 1581007572, "human": "2020-02-06T16:46:12.000Z" },
      "nonce": "1"
    },
    {
      "id": "c9a9fafc5369ccd49b352c2d951dcafccb6e493b527fb35e17596812842d1f9d",
      "blockId": "6491593892816841301",
      "version": 1,
      "type": 0,
      "typeGroup": 1,
      "amount": "1",
      "fee": "10000000",
      "sender": "AVUL7M7Fu3JSHpnJYNUhpTFNcnLUJDYNT9",
      "senderPublicKey": "0277568ed7cb6f973f1838d46bd78abb1053b525cbbb859c1adcea6fd425963b00",
      "recipient": "AewxfHQobSc49a4radHp74JZCGP8LRe4xA",
      "signature": "3044022072cbfde329581be870a98792819e5546add3af4b72a96660d869fbd0fe8e0c9602207dfeabf1770e990f1b36f6768b973649e230222c5d3feda6c2cca04b4937a3bb",
      "vendorField": "Domo arigato, Mr. Roboto",
      "confirmations": 6409854,
      "timestamp": { "epoch": 51688728, "unix": 1541789928, "human": "2018-11-09T18:58:48.000Z" },
      "nonce": "224"
    },
    {
      "id": "5222124556517be676fa67fccb07fd581ec2928140a72afdd65259dc3e5db921",
      "blockId": "4366553906931540162",
      "version": 1,
      "type": 0,
      "typeGroup": 1,
      "amount": "3141438227793004",
      "fee": "0",
      "sender": "AewxfHQobSc49a4radHp74JZCGP8LRe4xA",
      "senderPublicKey": "0235d486fea0193cbe77e955ab175b8f6eb9eaf784de689beffbd649989f5d6be3",
      "recipient": "AN7BURQn5oqBRBADeWhmmUMJGQTy5Seey3",
      "signature": "3045022100df12738ec2164ce2d2ba980ab8499dae066149a1019f37ae5b17f28e9cc2aafb02202a0db97f9e012f2a8ed819d2cb02e5d9e63fda01754d6f42308c3cab4bf92e1a",
      "confirmations": 12742875,
      "timestamp": { "epoch": 0, "unix": 1490101200, "human": "2017-03-21T13:00:00.000Z" },
      "nonce": "1441"
    },
    {
      "id": "ac7ce9c3dcbee526a9f15af016fc15b6dabed5f8a61997c4de15fcc987926234",
      "blockId": "4366553906931540162",
      "version": 1,
      "type": 0,
      "typeGroup": 1,
      "amount": "1256766795179826",
      "fee": "0",
      "sender": "AewxfHQobSc49a4radHp74JZCGP8LRe4xA",
      "senderPublicKey": "0235d486fea0193cbe77e955ab175b8f6eb9eaf784de689beffbd649989f5d6be3",
      "recipient": "AUhVLSiqTnnzqhxp5RKzheuRyvh58TSCUR",
      "signature": "30450221009e21a29b8428afdd7f140379d839d5ee75191c3e5add0582f58b9a3b2b3d69e30220749a0e7a3a8c63e877f1bdb0ec12987db8b138bb1746efe0b18d9ee817276cfc",
      "confirmations": 12742875,
      "timestamp": { "epoch": 0, "unix": 1490101200, "human": "2017-03-21T13:00:00.000Z" },
      "nonce": "1440"
    },
    {
      "id": "99a3fa3f91f257fd3e3ed284a9bbcc5eb007ca7e004372a5912bc3850d5ec9f7",
      "blockId": "4366553906931540162",
      "version": 1,
      "type": 0,
      "typeGroup": 1,
      "amount": "1034744897737528",
      "fee": "0",
      "sender": "AewxfHQobSc49a4radHp74JZCGP8LRe4xA",
      "senderPublicKey": "0235d486fea0193cbe77e955ab175b8f6eb9eaf784de689beffbd649989f5d6be3",
      "recipient": "AaFgAghGAmNWndDnaxkbcYFE7fxbxZn6dJ",
      "signature": "3045022100a4489ad919a05f73c3be4de717a3b23115812c146caa1f33301485e1d9521dbd0220487441651432d5b34bbe7f383ee3a1bdf84dd22b82982d9566020a6033783685",
      "confirmations": 12742875,
      "timestamp": { "epoch": 0, "unix": 1490101200, "human": "2017-03-21T13:00:00.000Z" },
      "nonce": "1439"
    },
    {
      "id": "5ffc47d5a0826f031d51f0502e45ddb9d7b8c4f4bf9b2d4bd7a60c4ab027b541",
      "blockId": "4366553906931540162",
      "version": 1,
      "type": 0,
      "typeGroup": 1,
      "amount": "225493764614631",
      "fee": "0",
      "sender": "AewxfHQobSc49a4radHp74JZCGP8LRe4xA",
      "senderPublicKey": "0235d486fea0193cbe77e955ab175b8f6eb9eaf784de689beffbd649989f5d6be3",
      "recipient": "AbYwZ1DAUDLgJwusR9bCZoTfuUTwNq1C3c",
      "signature": "3045022100bad48978061d554290cd1afd07851e3101aee65f3b7f9f677e85a28d6590df5f02204d7a721a90dcec6644bff0aecd2f1d5b506c334bad8810b1b2d123b6978d57aa",
      "confirmations": 12742875,
      "timestamp": { "epoch": 0, "unix": 1490101200, "human": "2017-03-21T13:00:00.000Z" },
      "nonce": "1438"
    },
    {
      "id": "57b80107cf40b39135241aa92e7e254da815763735f0ac5a9919dd8485865d80",
      "blockId": "4366553906931540162",
      "version": 1,
      "type": 0,
      "typeGroup": 1,
      "amount": "196019568105246",
      "fee": "0",
      "sender": "AewxfHQobSc49a4radHp74JZCGP8LRe4xA",
      "senderPublicKey": "0235d486fea0193cbe77e955ab175b8f6eb9eaf784de689beffbd649989f5d6be3",
      "recipient": "AX1ZCuzNnVHfPvKikwsnsNRUxXfKq5g9dv",
      "signature": "3044022011856a7a6cf61478d183e18a4a7404241dc561629d7db7ac70d1ff385e85d724022003404898de3709cac4bd5a6aa718c7ada3c9d08219c60f034a45da8135ef4a51",
      "confirmations": 12742875,
      "timestamp": { "epoch": 0, "unix": 1490101200, "human": "2017-03-21T13:00:00.000Z" },
      "nonce": "1437"
    },
    {
      "id": "2bec691439fdb6fd9a324f26d44e2ad64bd9e2ffd566d220e01c4aa12028fa91",
      "blockId": "4366553906931540162",
      "version": 1,
      "type": 0,
      "typeGroup": 1,
      "amount": "191573850243351",
      "fee": "0",
      "sender": "AewxfHQobSc49a4radHp74JZCGP8LRe4xA",
      "senderPublicKey": "0235d486fea0193cbe77e955ab175b8f6eb9eaf784de689beffbd649989f5d6be3",
      "recipient": "Abee76TtVambNDBmTTyoCYosWQ13MC9XEn",
      "signature": "3045022100bca5294ba5fd28e35afb067b328aa2469656158f4c8580d98bfea76ef925761102202ca7d152501f2999169ee65cac56b25f41d9b140d11708d236f9c4be972b0dcd",
      "confirmations": 12742875,
      "timestamp": { "epoch": 0, "unix": 1490101200, "human": "2017-03-21T13:00:00.000Z" },
      "nonce": "1436"
    },
    {
      "id": "be993fc90ee11f5b9bcbeec1a272e94c1894b65804011f76d0d3227c71ba19e5",
      "blockId": "4366553906931540162",
      "version": 1,
      "type": 0,
      "typeGroup": 1,
      "amount": "151578069939920",
      "fee": "0",
      "sender": "AewxfHQobSc49a4radHp74JZCGP8LRe4xA",
      "senderPublicKey": "0235d486fea0193cbe77e955ab175b8f6eb9eaf784de689beffbd649989f5d6be3",
      "recipient": "ATUe1KJzRsHUW6rA8UnNNNo4yVEF6TqyEv",
      "signature": "3045022100e97f8bccc9e3f5e3c3a5b32987c64caf4b60faf4a282784ab3b1ade1579c3b0c02202041fb2375eb061fc3ddb64cf94edc614a690d6fa9e22e9964aab80a66eb5b34",
      "confirmations": 12742875,
      "timestamp": { "epoch": 0, "unix": 1490101200, "human": "2017-03-21T13:00:00.000Z" },
      "nonce": "1435"
    },
    {
      "id": "7e1e33f30bf45a2b2b7be555693894171481a7cbdc48397575e6a99d98382138",
      "blockId": "4366553906931540162",
      "version": 1,
      "type": 0,
      "typeGroup": 1,
      "amount": "150034082630911",
      "fee": "0",
      "sender": "AewxfHQobSc49a4radHp74JZCGP8LRe4xA",
      "senderPublicKey": "0235d486fea0193cbe77e955ab175b8f6eb9eaf784de689beffbd649989f5d6be3",
      "recipient": "AQK3Zu6VW2QMh6a3ckNzNsYduTV1MmDkyJ",
      "signature": "304402202d42c892d4cd76cb582573977a7b2a294a945754dbd3de4411fe3a3ed814f0d402207c49588af322b49914a933cda46e2ade762f5bb9b9383cb690bded2f0a734d90",
      "confirmations": 12742875,
      "timestamp": { "epoch": 0, "unix": 1490101200, "human": "2017-03-21T13:00:00.000Z" },
      "nonce": "1434"
    },
    {
      "id": "8bb29e211493fd3f3282498d749b55d5824e9ed9d5813a834258b002204a2cb7",
      "blockId": "4366553906931540162",
      "version": 1,
      "type": 0,
      "typeGroup": 1,
      "amount": "140099329287361",
      "fee": "0",
      "sender": "AewxfHQobSc49a4radHp74JZCGP8LRe4xA",
      "senderPublicKey": "0235d486fea0193cbe77e955ab175b8f6eb9eaf784de689beffbd649989f5d6be3",
      "recipient": "AZB965rP7y3PUs8RXqpkRy5Uu9dbQgu8mM",
      "signature": "30450221008fdc7606464939463c4c48ef06663b63e447db9b560fd323efe695b59832e792022048631bfebc37ff98d5d5089f607869eb05b86119830da14817cd31125a4910e8",
      "confirmations": 12742875,
      "timestamp": { "epoch": 0, "unix": 1490101200, "human": "2017-03-21T13:00:00.000Z" },
      "nonce": "1433"
    },
    {
      "id": "811f46c52bc4e94cebb2c8a4053c13c3ac3f7df24134cc027a37f7614e935a7b",
      "blockId": "4366553906931540162",
      "version": 1,
      "type": 0,
      "typeGroup": 1,
      "amount": "136497083929386",
      "fee": "0",
      "sender": "AewxfHQobSc49a4radHp74JZCGP8LRe4xA",
      "senderPublicKey": "0235d486fea0193cbe77e955ab175b8f6eb9eaf784de689beffbd649989f5d6be3",
      "recipient": "Ac15ysDrQ3fvMYL8S2u52VSwXZPKZQs8MY",
      "signature": "304402201e2a494e971932480c8286c2c12748daf90afd3234969cd720ac9346da94fff802203fdeef1aa6daffc70709e5c86bf53fec3169651671060b8e495e1c0c40c725d2",
      "confirmations": 12742875,
      "timestamp": { "epoch": 0, "unix": 1490101200, "human": "2017-03-21T13:00:00.000Z" },
      "nonce": "1432"
    },
    {
      "id": "7477beb697266fa054ab120b1381e293d8533d1a56eec29731525b857d05e8dd",
      "blockId": "4366553906931540162",
      "version": 1,
      "type": 0,
      "typeGroup": 1,
      "amount": "128450700000000",
      "fee": "0",
      "sender": "AewxfHQobSc49a4radHp74JZCGP8LRe4xA",
      "senderPublicKey": "0235d486fea0193cbe77e955ab175b8f6eb9eaf784de689beffbd649989f5d6be3",
      "recipient": "AGto2VECRE2tGFr8X9pfhqHNgF2bdW5mgR",
      "signature": "3045022100aecdaf102f6d5a4b18ddeb17c8d5c00c18cfe0ec6382df8c972937a17e9271e0022074d6bf200487ee5c03800c2cc28e571bea6129c95ebffc2a1a8435fe6bb351d0",
      "confirmations": 12742875,
      "timestamp": { "epoch": 0, "unix": 1490101200, "human": "2017-03-21T13:00:00.000Z" },
      "nonce": "1431"
    },
    {
      "id": "2debd1afcd9cbc2e3c57dc27258cb49d6ef21b10d36648efacc0053acf7cba19",
      "blockId": "4366553906931540162",
      "version": 1,
      "type": 0,
      "typeGroup": 1,
      "amount": "127928194702051",
      "fee": "0",
      "sender": "AewxfHQobSc49a4radHp74JZCGP8LRe4xA",
      "senderPublicKey": "0235d486fea0193cbe77e955ab175b8f6eb9eaf784de689beffbd649989f5d6be3",
      "recipient": "ARwU8mRM9aM4KjwFLpNH8eHntj157LNAW8",
      "signature": "3044022050f8011fa9011b5b4501bcc1d4154864b6c5125e9a00f468a194e59edd32831c02200c9f77d38533ceaa8bbda2bbf9ddc73a7d6654d3d3a338a3e04a80f67fe16a59",
      "confirmations": 12742875,
      "timestamp": { "epoch": 0, "unix": 1490101200, "human": "2017-03-21T13:00:00.000Z" },
      "nonce": "1430"
    },
    {
      "id": "e274c6833dc8021404af6782020539329acda8f274ac2be31535eef95cd70668",
      "blockId": "4366553906931540162",
      "version": 1,
      "type": 0,
      "typeGroup": 1,
      "amount": "126837200000000",
      "fee": "0",
      "sender": "AewxfHQobSc49a4radHp74JZCGP8LRe4xA",
      "senderPublicKey": "0235d486fea0193cbe77e955ab175b8f6eb9eaf784de689beffbd649989f5d6be3",
      "recipient": "AXx966jfTHUz4nSjZsFEKkpsgNoByhuMJo",
      "signature": "30440220025e2076ba6db9412d886925b4ccf810ff5aa45711ba9c9f049061f675560937022042ed7606e3f46bc5fb5b2ef2b36e894666c78804a1d95ba7916d6a41f92e36cf",
      "confirmations": 12742875,
      "timestamp": { "epoch": 0, "unix": 1490101200, "human": "2017-03-21T13:00:00.000Z" },
      "nonce": "1429"
    },
    {
      "id": "af6c2725034e35ca7dcf0b20a9161af2ece9d9e30d1d8f934661c2e121844832",
      "blockId": "4366553906931540162",
      "version": 1,
      "type": 0,
      "typeGroup": 1,
      "amount": "126299500000000",
      "fee": "0",
      "sender": "AewxfHQobSc49a4radHp74JZCGP8LRe4xA",
      "senderPublicKey": "0235d486fea0193cbe77e955ab175b8f6eb9eaf784de689beffbd649989f5d6be3",
      "recipient": "AeYkC4MJ24EF7yVkb8NfSryBw9xrTvSJ5o",
      "signature": "3045022100f3fc2ad6305967410752b664c2d8bca041d552c013fa576e10889a69a6c4fce5022067ecc8de665c05a1594067f873e067db5e1884486d4815bd1cb3959c282cf0a0",
      "confirmations": 12742875,
      "timestamp": { "epoch": 0, "unix": 1490101200, "human": "2017-03-21T13:00:00.000Z" },
      "nonce": "1428"
    },
    {
      "id": "367b31d00256d8608bbe3b62f350bbbac10d896a3a3cc084e203493abf6f74b4",
      "blockId": "4366553906931540162",
      "version": 1,
      "type": 0,
      "typeGroup": 1,
      "amount": "126273901505716",
      "fee": "0",
      "sender": "AewxfHQobSc49a4radHp74JZCGP8LRe4xA",
      "senderPublicKey": "0235d486fea0193cbe77e955ab175b8f6eb9eaf784de689beffbd649989f5d6be3",
      "recipient": "AdCXBbcpNrnMDHMar7Ebjxu959uwN2jt2y",
      "signature": "3044022078cb591e525902157b5736e798461266a2c7e32d7aa4d06d07f80d64244e0a2602202981d622da3539fd16efc0aa0ed8503ce2470ce8cc3235cc325904b9246dfb1d",
      "confirmations": 12742875,
      "timestamp": { "epoch": 0, "unix": 1490101200, "human": "2017-03-21T13:00:00.000Z" },
      "nonce": "1427"
    },
    {
      "id": "82b2c63e0139fa52979e008e6a3d3086efc4aaf5e1799c57a29bdaaae9a50189",
      "blockId": "4366553906931540162",
      "version": 1,
      "type": 0,
      "typeGroup": 1,
      "amount": "125719320015809",
      "fee": "0",
      "sender": "AewxfHQobSc49a4radHp74JZCGP8LRe4xA",
      "senderPublicKey": "0235d486fea0193cbe77e955ab175b8f6eb9eaf784de689beffbd649989f5d6be3",
      "recipient": "AUq3S7bXMHmz9zBbz8YLN6LrSrshvxXTU5",
      "signature": "3044022033d2d418dae0c1c1ef89b1866258410008eb39a409c98f6ec3a73918f449ead102200ca603311c12cb4a5f050e0872e05a0e8f2953827b168b85211b179600154585",
      "confirmations": 12742875,
      "timestamp": { "epoch": 0, "unix": 1490101200, "human": "2017-03-21T13:00:00.000Z" },
      "nonce": "1426"
    },
    {
      "id": "03b08987233a71d17b296c057e03821022e9b504b47471670ddad11080e1f4b2",
      "blockId": "4366553906931540162",
      "version": 1,
      "type": 0,
      "typeGroup": 1,
      "amount": "123626090911753",
      "fee": "0",
      "sender": "AewxfHQobSc49a4radHp74JZCGP8LRe4xA",
      "senderPublicKey": "0235d486fea0193cbe77e955ab175b8f6eb9eaf784de689beffbd649989f5d6be3",
      "recipient": "AczFP54nMoafRABK4c7idxHpAC4RwmQsDE",
      "signature": "304402207a3f7c3ecb0295f08a85e12af23156e0765ad1540047f68cd89be139307b5bb3022072be91d55a080d6e5fae0a327225dac4c63505b292dda6958a1207f9adadc8c4",
      "confirmations": 12742875,
      "timestamp": { "epoch": 0, "unix": 1490101200, "human": "2017-03-21T13:00:00.000Z" },
      "nonce": "1425"
    },
    {
      "id": "5ffd7c36deaef4295257fec15f27e451864538aeeae9b21ded6d4e579f19d7c8",
      "blockId": "4366553906931540162",
      "version": 1,
      "type": 0,
      "typeGroup": 1,
      "amount": "120262700000000",
      "fee": "0",
      "sender": "AewxfHQobSc49a4radHp74JZCGP8LRe4xA",
      "senderPublicKey": "0235d486fea0193cbe77e955ab175b8f6eb9eaf784de689beffbd649989f5d6be3",
      "recipient": "AHHpmXD7F8j1r5bftPMkp35ct9qGYiupwj",
      "signature": "3045022100edfc8dbb54abcc1096194776c222e08fae1e125851b580f510ba5b6c6ea39f38022032b48c581a123b298838dba4a22b71ddfc51c0514f260fb07dcb2374bbfc8e92",
      "confirmations": 12742875,
      "timestamp": { "epoch": 0, "unix": 1490101200, "human": "2017-03-21T13:00:00.000Z" },
      "nonce": "1424"
    },
    {
      "id": "1dab66009d3db2e422824d6af3e727ff146c2b3bfb1daeef583742a920d51908",
      "blockId": "4366553906931540162",
      "version": 1,
      "type": 0,
      "typeGroup": 1,
      "amount": "115371683274712",
      "fee": "0",
      "sender": "AewxfHQobSc49a4radHp74JZCGP8LRe4xA",
      "senderPublicKey": "0235d486fea0193cbe77e955ab175b8f6eb9eaf784de689beffbd649989f5d6be3",
      "recipient": "AVNXBEcnwKmirrG3kcZSzHa6JvRkiCKqXc",
      "signature": "30440220401302e2773dfc0ef1a6b4b013d98fcbaca1838e9c688013989ad990a7eb51dc0220268eb491d53660b33ace47049d96e4c97dde689621044002f703425e17a3cc3e",
      "confirmations": 12742875,
      "timestamp": { "epoch": 0, "unix": 1490101200, "human": "2017-03-21T13:00:00.000Z" },
      "nonce": "1423"
    },
    {
      "id": "912d5b497042a6da16f4dc3fb0b7711f19aeadd1ebcb5aea32e2e49d6b2bcde0",
      "blockId": "4366553906931540162",
      "version": 1,
      "type": 0,
      "typeGroup": 1,
      "amount": "113717099151927",
      "fee": "0",
      "sender": "AewxfHQobSc49a4radHp74JZCGP8LRe4xA",
      "senderPublicKey": "0235d486fea0193cbe77e955ab175b8f6eb9eaf784de689beffbd649989f5d6be3",
      "recipient": "ALC5AHjaUUSaecu9R4wADbKdqzqf9U4e19",
      "signature": "3045022100b5b9bf26d7020ca50abd010624a7443e7e4d0c5d17c50aaff12c2a357380a212022037b7e9e80dd9e5a092d99aaae3fe0722ff6e085b8ed42e4d47030e9497e6093a",
      "confirmations": 12742875,
      "timestamp": { "epoch": 0, "unix": 1490101200, "human": "2017-03-21T13:00:00.000Z" },
      "nonce": "1422"
    },
    {
      "id": "a387aebbc8fefd8f0963f2ffbac837f5bed99137b19b19c356949bdf12c0d0cb",
      "blockId": "4366553906931540162",
      "version": 1,
      "type": 0,
      "typeGroup": 1,
      "amount": "110555322986976",
      "fee": "0",
      "sender": "AewxfHQobSc49a4radHp74JZCGP8LRe4xA",
      "senderPublicKey": "0235d486fea0193cbe77e955ab175b8f6eb9eaf784de689beffbd649989f5d6be3",
      "recipient": "APaRmUnSummHSAyHnYqd1BGvPqgYReEuWG",
      "signature": "3045022100874c685c11233280806221994ce6ac3be8ca6f2dd88421991a1c9810614e9bb5022071ededd800067a5a3e6828ab6cec496b153c9331e5f08a417c09e583b05219d7",
      "confirmations": 12742875,
      "timestamp": { "epoch": 0, "unix": 1490101200, "human": "2017-03-21T13:00:00.000Z" },
      "nonce": "1421"
    },
    {
      "id": "16a95bcd5ca6388de776cc01666f616f863f9dced646badfe97b53a266985bbd",
      "blockId": "4366553906931540162",
      "version": 1,
      "type": 0,
      "typeGroup": 1,
      "amount": "100568151043750",
      "fee": "0",
      "sender": "AewxfHQobSc49a4radHp74JZCGP8LRe4xA",
      "senderPublicKey": "0235d486fea0193cbe77e955ab175b8f6eb9eaf784de689beffbd649989f5d6be3",
      "recipient": "AZdsyiib53nWP1wG5wara6XfvmmqqBWxWR",
      "signature": "3045022100da0594484575e66f1eb34211a7d3249c15d0eb422be3e1b46ee364c4a377befc022041cd9cd4237cc8a1a7e9359adfe182da7edb24a69368ae1deb7e2fad26aa0312",
      "confirmations": 12742875,
      "timestamp": { "epoch": 0, "unix": 1490101200, "human": "2017-03-21T13:00:00.000Z" },
      "nonce": "1420"
    },
    {
      "id": "564f7c69a9cacf987aaee9ecb5bb726d1ae26a26111f0f8364611984d18b300d",
      "blockId": "4366553906931540162",
      "version": 1,
      "type": 0,
      "typeGroup": 1,
      "amount": "98443286091931",
      "fee": "0",
      "sender": "AewxfHQobSc49a4radHp74JZCGP8LRe4xA",
      "senderPublicKey": "0235d486fea0193cbe77e955ab175b8f6eb9eaf784de689beffbd649989f5d6be3",
      "recipient": "AMQEjpMh7o1sJT65Pdm1Wt829evGsTWCJ2",
      "signature": "304502210082a8b45a0e351baaefcdddee3583b1b5ed7af81fdc9e2aa7243696388a5d6b4302205bd1469c96a3494a9b0bc8cc4513cb3ca57b8cf3b3250c028346d42666daa02e",
      "confirmations": 12742875,
      "timestamp": { "epoch": 0, "unix": 1490101200, "human": "2017-03-21T13:00:00.000Z" },
      "nonce": "1419"
    }
  ]
}
